\relax 
\providecommand\hyper@newdestlabel[2]{}
\providecommand\HyperFirstAtBeginDocument{\AtBeginDocument}
\HyperFirstAtBeginDocument{\ifx\hyper@anchor\@undefined
\global\let\oldcontentsline\contentsline
\gdef\contentsline#1#2#3#4{\oldcontentsline{#1}{#2}{#3}}
\global\let\oldnewlabel\newlabel
\gdef\newlabel#1#2{\newlabelxx{#1}#2}
\gdef\newlabelxx#1#2#3#4#5#6{\oldnewlabel{#1}{{#2}{#3}}}
\AtEndDocument{\ifx\hyper@anchor\@undefined
\let\contentsline\oldcontentsline
\let\newlabel\oldnewlabel
\fi}
\fi}
\global\let\hyper@last\relax 
\gdef\HyperFirstAtBeginDocument#1{#1}
\providecommand\HyField@AuxAddToFields[1]{}
\providecommand\HyField@AuxAddToCoFields[2]{}
\catcode 95\active
\@writefile{toc}{\contentsline {section}{\numberline {1}Preface}{1}{section.1}}
\@writefile{toc}{\contentsline {section}{\numberline {2}Licensing and Legal Information}{1}{section.2}}
\@writefile{toc}{\contentsline {section}{\numberline {3}Contact Information}{2}{section.3}}
\@writefile{toc}{\contentsline {section}{\numberline {4}Changelog}{3}{section.4}}
\@writefile{toc}{\contentsline {section}{\numberline {5}Key to Abbreviations}{5}{section.5}}
\@writefile{toc}{\contentsline {section}{\numberline {6}Afro-Asiatic}{6}{section.6}}
\@writefile{toc}{\contentsline {subsection}{\numberline {6.1}Proto-Afro-Asiatic to Proto-Omotic}{6}{subsection.6.1}}
\@writefile{toc}{\contentsline {subsubsection}{\numberline {6.1.1}Proto-Omotic to North Omotic}{7}{subsubsection.6.1.1}}
\@writefile{toc}{\contentsline {paragraph}{\numberline {6.1.1.1}North Omotic to Bench}{7}{paragraph.6.1.1.1}}
\@writefile{toc}{\contentsline {paragraph}{\numberline {6.1.1.2}North Omotic to Dizin}{8}{paragraph.6.1.1.2}}
\@writefile{toc}{\contentsline {paragraph}{\numberline {6.1.1.3}North Omotic to Kafa}{8}{paragraph.6.1.1.3}}
\@writefile{toc}{\contentsline {paragraph}{\numberline {6.1.1.4}North Omotic to Maale}{9}{paragraph.6.1.1.4}}
\@writefile{toc}{\contentsline {paragraph}{\numberline {6.1.1.5}North Omotic to Shekkacho}{9}{paragraph.6.1.1.5}}
\@writefile{toc}{\contentsline {paragraph}{\numberline {6.1.1.6}North Omotic to Wolaytta}{10}{paragraph.6.1.1.6}}
\@writefile{toc}{\contentsline {paragraph}{\numberline {6.1.1.7}North Omotic to Yemsa}{10}{paragraph.6.1.1.7}}
\@writefile{toc}{\contentsline {paragraph}{\numberline {6.1.1.8}North Omotic to Zayse-Zergulla}{11}{paragraph.6.1.1.8}}
\@writefile{toc}{\contentsline {subsubsection}{\numberline {6.1.2}South Omotic}{11}{subsubsection.6.1.2}}
\@writefile{toc}{\contentsline {paragraph}{\numberline {6.1.2.1}South Omotic to Aari}{11}{paragraph.6.1.2.1}}
\@writefile{toc}{\contentsline {paragraph}{\numberline {6.1.2.2}South Omotic to Dime}{12}{paragraph.6.1.2.2}}
\@writefile{toc}{\contentsline {subsection}{\numberline {6.2}Proto-Afro-Asiatic to Proto-Erythrean}{12}{subsection.6.2}}
\@writefile{toc}{\contentsline {subsubsection}{\numberline {6.2.1}Proto-Erythrean to Proto-Cushitic}{12}{subsubsection.6.2.1}}
\@writefile{toc}{\contentsline {paragraph}{\numberline {6.2.1.1}Agaw}{12}{paragraph.6.2.1.1}}
\@writefile{toc}{\contentsline {subparagraph}{\numberline {6.2.1.1.1}Proto-Agaw to Awngi}{12}{subparagraph.6.2.1.1.1}}
\@writefile{toc}{\contentsline {subparagraph}{\numberline {6.2.1.1.2}Proto-Agaw to Blin}{13}{subparagraph.6.2.1.1.2}}
\@writefile{toc}{\contentsline {subparagraph}{\numberline {6.2.1.1.3}Proto-Agaw to Kemantney}{13}{subparagraph.6.2.1.1.3}}
\@writefile{toc}{\contentsline {subparagraph}{\numberline {6.2.1.1.4}Proto-Agaw to Xamtanga}{13}{subparagraph.6.2.1.1.4}}
\@writefile{toc}{\contentsline {subsubsection}{\numberline {6.2.2}Proto-Erythrean to Proto-North Erythrean}{14}{subsubsection.6.2.2}}
\@writefile{toc}{\contentsline {paragraph}{\numberline {6.2.2.1}Proto-North Erythrean to Proto-Chadic}{14}{paragraph.6.2.2.1}}
\@writefile{toc}{\contentsline {subparagraph}{\numberline {6.2.2.1.1}Proto-North Erythrean to Proto-Boreafrasian}{14}{subparagraph.6.2.2.1.1}}
\@writefile{toc}{\contentsline {subparagraph}{\numberline {6.2.2.1.2}Proto-Boreafrasian to Egypto-Berber}{15}{subparagraph.6.2.2.1.2}}
\@writefile{toc}{\contentsline {subparagraph}{\numberline {6.2.2.1.3}Ancient Egyptian to Coptic}{16}{subparagraph.6.2.2.1.3}}
\@writefile{toc}{\contentsline {subparagraph}{\numberline {6.2.2.1.4}Proto-Boreafrasian to Proto-Semitic}{16}{subparagraph.6.2.2.1.4}}
\@writefile{toc}{\contentsline {subparagraph}{\numberline {6.2.2.1.5}Proto-Semitic to Classical Arabic}{16}{subparagraph.6.2.2.1.5}}
\@writefile{toc}{\contentsline {subparagraph}{\numberline {6.2.2.1.6}Classical Arabic to Egyptian Arabic}{17}{subparagraph.6.2.2.1.6}}
\@writefile{toc}{\contentsline {subparagraph}{\numberline {6.2.2.1.7}Classical Arabic to Coastal Hadhrami Arabic}{18}{subparagraph.6.2.2.1.7}}
\@writefile{toc}{\contentsline {subparagraph}{\numberline {6.2.2.1.8}Classical Arabic to W\={a}d\={\i } Hadhrami Arabic}{18}{subparagraph.6.2.2.1.8}}
\@writefile{toc}{\contentsline {subparagraph}{\numberline {6.2.2.1.9}Classical Arabic to Hass\={a}niyya Arabic}{18}{subparagraph.6.2.2.1.9}}
\@writefile{toc}{\contentsline {subparagraph}{\numberline {6.2.2.1.10}Classical Arabic to Iraqi Arabic}{19}{subparagraph.6.2.2.1.10}}
\@writefile{toc}{\contentsline {subparagraph}{\numberline {6.2.2.1.11}Classical Arabic to Eastern Libyan Arabic}{19}{subparagraph.6.2.2.1.11}}
\@writefile{toc}{\contentsline {subparagraph}{\numberline {6.2.2.1.12}Classical Arabic to Western Libyan Arabic}{19}{subparagraph.6.2.2.1.12}}
\@writefile{toc}{\contentsline {subparagraph}{\numberline {6.2.2.1.13}Classical Arabic to Moroccan Arabic}{19}{subparagraph.6.2.2.1.13}}
\@writefile{toc}{\contentsline {subparagraph}{\numberline {6.2.2.1.14}Classical Arabic to Sa`idi Arabic}{20}{subparagraph.6.2.2.1.14}}
\@writefile{toc}{\contentsline {subparagraph}{\numberline {6.2.2.1.15}Classical Arabic to Sudanese Arabic}{20}{subparagraph.6.2.2.1.15}}
\@writefile{toc}{\contentsline {subparagraph}{\numberline {6.2.2.1.16}Classical Arabic to Tunisian Arabic}{20}{subparagraph.6.2.2.1.16}}
\@writefile{toc}{\contentsline {subparagraph}{\numberline {6.2.2.1.17}Proto-Semitic to Biblical Hebrew}{20}{subparagraph.6.2.2.1.17}}
\@writefile{toc}{\contentsline {subparagraph}{\numberline {6.2.2.1.18}Biblical Hebrew to Modern Israeli Hebrew}{21}{subparagraph.6.2.2.1.18}}
\@writefile{toc}{\contentsline {section}{\numberline {7}Algonquian}{23}{section.7}}
\@writefile{toc}{\contentsline {subsection}{\numberline {7.1}Proto-Algonquian to Proto-Arapaho-Atsina}{23}{subsection.7.1}}
\@writefile{toc}{\contentsline {subsubsection}{\numberline {7.1.1}Proto-Arapaho-Atsina to Arapaho}{24}{subsubsection.7.1.1}}
\@writefile{toc}{\contentsline {subsubsection}{\numberline {7.1.2}Proto-Arapaho-Atsina to Gros Ventre}{24}{subsubsection.7.1.2}}
\@writefile{toc}{\contentsline {subsection}{\numberline {7.2}Proto-Algonquian to Blackfoot}{25}{subsection.7.2}}
\@writefile{toc}{\contentsline {subsection}{\numberline {7.3}Proto-Algonquian to Cheyenne}{26}{subsection.7.3}}
\@writefile{toc}{\contentsline {subsection}{\numberline {7.4}Proto-Algonquian to Munsee Delaware}{27}{subsection.7.4}}
\@writefile{toc}{\contentsline {subsection}{\numberline {7.5}Proto-Algonquian to Menominee}{28}{subsection.7.5}}
\@writefile{toc}{\contentsline {subsection}{\numberline {7.6}Proto-Algonquian to Miami-Illinois}{29}{subsection.7.6}}
\@writefile{toc}{\contentsline {subsection}{\numberline {7.7}Proto-Algonquian to Ojibwe}{29}{subsection.7.7}}
\@writefile{toc}{\contentsline {subsection}{\numberline {7.8}Proto-Algonquian to Shawnee}{30}{subsection.7.8}}
\@writefile{toc}{\contentsline {section}{\numberline {8}Altaic}{32}{section.8}}
\@writefile{toc}{\contentsline {subsection}{\numberline {8.1}Proto-Altaic to Proto-Japonic}{32}{subsection.8.1}}
\@writefile{toc}{\contentsline {subsubsection}{\numberline {8.1.1}Early Middle Japanese to Modern Japanese}{33}{subsubsection.8.1.1}}
\@writefile{toc}{\contentsline {subsection}{\numberline {8.2}Proto-Altaic to Proto-Korean}{34}{subsection.8.2}}
\@writefile{toc}{\contentsline {subsection}{\numberline {8.3}Proto-Altaic to Proto-Mongolic}{34}{subsection.8.3}}
\@writefile{toc}{\contentsline {subsection}{\numberline {8.4}Proto-Altaic to Proto-Tungusic}{36}{subsection.8.4}}
\@writefile{toc}{\contentsline {subsection}{\numberline {8.5}Proto-Altaic to Proto-Turkic}{37}{subsection.8.5}}
\@writefile{toc}{\contentsline {subsubsection}{\numberline {8.5.1}Proto-Turkic to Proto-Kypchak}{38}{subsubsection.8.5.1}}
\@writefile{toc}{\contentsline {paragraph}{\numberline {8.5.1.1}Proto-Kypchak to Kazakh}{38}{paragraph.8.5.1.1}}
\@writefile{toc}{\contentsline {paragraph}{\numberline {8.5.1.2}Proto-Kypchak to Kyrgyz}{39}{paragraph.8.5.1.2}}
\@writefile{toc}{\contentsline {subsubsection}{\numberline {8.5.2}Proto-Turkic to Sakha}{39}{subsubsection.8.5.2}}
\@writefile{toc}{\contentsline {section}{\numberline {9}Athabaskan}{40}{section.9}}
\@writefile{toc}{\contentsline {subsection}{\numberline {9.1}Proto-Athabaskan to Ahtna}{41}{subsection.9.1}}
\@writefile{toc}{\contentsline {subsection}{\numberline {9.2}Proto-Athabaskan to Babine}{41}{subsection.9.2}}
\@writefile{toc}{\contentsline {subsection}{\numberline {9.3}Proto-Athabaskan to Beaver}{41}{subsection.9.3}}
\@writefile{toc}{\contentsline {subsection}{\numberline {9.4}Proto-Athabaskan to Chilcotin}{42}{subsection.9.4}}
\@writefile{toc}{\contentsline {subsection}{\numberline {9.5}Proto-Athabaskan to Chipewyan}{42}{subsection.9.5}}
\@writefile{toc}{\contentsline {subsection}{\numberline {9.6}Proto-Athabaskan to Dakelh}{42}{subsection.9.6}}
\@writefile{toc}{\contentsline {subsection}{\numberline {9.7}Proto-Athabaskan to Deg Hit'an}{43}{subsection.9.7}}
\@writefile{toc}{\contentsline {subsection}{\numberline {9.8}Proto-Athabaskan to Dena'ina}{43}{subsection.9.8}}
\@writefile{toc}{\contentsline {subsection}{\numberline {9.9}Proto-Athabaskan to Dogrib}{43}{subsection.9.9}}
\@writefile{toc}{\contentsline {subsection}{\numberline {9.10}Proto-Athabaskan to Easter Gwich'in}{43}{subsection.9.10}}
\@writefile{toc}{\contentsline {subsection}{\numberline {9.11}Proto-Athabaskan to Han}{44}{subsection.9.11}}
\@writefile{toc}{\contentsline {subsection}{\numberline {9.12}Proto-Athabaskan to Holikachuk}{44}{subsection.9.12}}
\@writefile{toc}{\contentsline {subsection}{\numberline {9.13}Proto-Athabaskan to Lower Koyukon}{45}{subsection.9.13}}
\@writefile{toc}{\contentsline {subsection}{\numberline {9.14}Proto-Athabaskan to Upper Koyukon}{45}{subsection.9.14}}
\@writefile{toc}{\contentsline {subsection}{\numberline {9.15}Proto-Athabaskan to Upper Kuskokwim Kolchan}{45}{subsection.9.15}}
\@writefile{toc}{\contentsline {subsection}{\numberline {9.16}Proto-Athabaskan to Sarcee}{46}{subsection.9.16}}
\@writefile{toc}{\contentsline {subsection}{\numberline {9.17}Proto-Athabaskan to Sekani}{46}{subsection.9.17}}
\@writefile{toc}{\contentsline {subsection}{\numberline {9.18}Proto-Athabaskan to Bearlake Slavey-Hare}{46}{subsection.9.18}}
\@writefile{toc}{\contentsline {subsection}{\numberline {9.19}Proto-Athabaskan to Hare Slavey-Hare}{46}{subsection.9.19}}
\@writefile{toc}{\contentsline {subsection}{\numberline {9.20}Proto-Athabaskan to Mountain Slavey-Hare}{47}{subsection.9.20}}
\@writefile{toc}{\contentsline {subsection}{\numberline {9.21}Proto-Athabaskan to Slavey Slavey-Hare}{47}{subsection.9.21}}
\@writefile{toc}{\contentsline {subsection}{\numberline {9.22}Proto-Athabaskan to Tahltan-Kaska-Tagish}{47}{subsection.9.22}}
\@writefile{toc}{\contentsline {subsubsection}{\numberline {9.22.1}Tahltan-Kaska-Tagish to Kaska}{47}{subsubsection.9.22.1}}
\@writefile{toc}{\contentsline {subsubsection}{\numberline {9.22.2}Tahltan-Kaska-Tagish to Tagish}{48}{subsubsection.9.22.2}}
\@writefile{toc}{\contentsline {subsubsection}{\numberline {9.22.3}Tahltan-Kaska-Tagish to Tahltan}{48}{subsubsection.9.22.3}}
\@writefile{toc}{\contentsline {subsection}{\numberline {9.23}Proto-Athabaskan to Tanacross}{48}{subsection.9.23}}
\@writefile{toc}{\contentsline {subsection}{\numberline {9.24}Proto-Athabaskan to Lower Tanana}{48}{subsection.9.24}}
\@writefile{toc}{\contentsline {subsection}{\numberline {9.25}Proto-Athabaskan to Upper Tanana}{49}{subsection.9.25}}
\@writefile{toc}{\contentsline {subsection}{\numberline {9.26}Proto-Athabaskan to Tsetsaut}{49}{subsection.9.26}}
\@writefile{toc}{\contentsline {subsection}{\numberline {9.27}Proto-Athabaskan to Northern Tutchone}{49}{subsection.9.27}}
\@writefile{toc}{\contentsline {subsection}{\numberline {9.28}Proto-Athabaskan to Southern Tutchone}{50}{subsection.9.28}}
\@writefile{toc}{\contentsline {section}{\numberline {10}Austroasiatic}{51}{section.10}}
\@writefile{toc}{\contentsline {subsection}{\numberline {10.1}Vietic}{51}{subsection.10.1}}
\@writefile{toc}{\contentsline {subsubsection}{\numberline {10.1.1}Proto-Vietic to Muong Khen}{52}{subsubsection.10.1.1}}
\@writefile{toc}{\contentsline {subsubsection}{\numberline {10.1.2}Proto-Vietic to Middle Vietnamese}{52}{subsubsection.10.1.2}}
\@writefile{toc}{\contentsline {paragraph}{\numberline {10.1.2.1}Middle Vietnamese to Hanoi Vietnamese}{53}{paragraph.10.1.2.1}}
\@writefile{toc}{\contentsline {paragraph}{\numberline {10.1.2.2}Middle Vietnamese to Saigon Vietnamese}{54}{paragraph.10.1.2.2}}
\@writefile{toc}{\contentsline {section}{\numberline {11}Austronesian}{56}{section.11}}
\@writefile{toc}{\contentsline {subsection}{\numberline {11.1}Proto-Austronesian to Proto-Malayo-Polynesian}{56}{subsection.11.1}}
\@writefile{toc}{\contentsline {subsubsection}{\numberline {11.1.1}Proto-Malayo-Polynesian to Proto-Bali-Sasak-Sumbawan}{56}{subsubsection.11.1.1}}
\@writefile{toc}{\contentsline {paragraph}{\numberline {11.1.1.1}Proto-Bali-Sasak-Sumbawan to Balinese}{57}{paragraph.11.1.1.1}}
\@writefile{toc}{\contentsline {paragraph}{\numberline {11.1.1.2}Proto-Bali-Sasak-Sumbawan to Sasak}{57}{paragraph.11.1.1.2}}
\@writefile{toc}{\contentsline {paragraph}{\numberline {11.1.1.3}Proto-Bali-Sasak-Sumbawan to Sumbawan}{57}{paragraph.11.1.1.3}}
\@writefile{toc}{\contentsline {subsection}{\numberline {11.2}Proto-Austronesian to Proto-Batak}{58}{subsection.11.2}}
\@writefile{toc}{\contentsline {subsubsection}{\numberline {11.2.1}Proto-Malayo-Polynesian to Proto-Chamic}{58}{subsubsection.11.2.1}}
\@writefile{toc}{\contentsline {subsubsection}{\numberline {11.2.2}Proto-Malayo-Polynesian to Chamorro}{59}{subsubsection.11.2.2}}
\@writefile{toc}{\contentsline {subsubsection}{\numberline {11.2.3}Proto-Malayo-Polynesian to Proto-Malayic}{59}{subsubsection.11.2.3}}
\@writefile{toc}{\contentsline {paragraph}{\numberline {11.2.3.1}Proto-Malayic to (Standard) Malay}{60}{paragraph.11.2.3.1}}
\@writefile{toc}{\contentsline {subsubsection}{\numberline {11.2.4}Proto-Malayo-Polynesian to Proto-Malayo-Javanic}{60}{subsubsection.11.2.4}}
\@writefile{toc}{\contentsline {paragraph}{\numberline {11.2.4.1}Proto-Malayo-Javanic to Javanese}{60}{paragraph.11.2.4.1}}
\@writefile{toc}{\contentsline {paragraph}{\numberline {11.2.4.2}Proto-Malayo-Polynesian to Madurese}{61}{paragraph.11.2.4.2}}
\@writefile{toc}{\contentsline {paragraph}{\numberline {11.2.4.3}Proto-Malayo-Javanic to Sundanese}{61}{paragraph.11.2.4.3}}
\@writefile{toc}{\contentsline {subsubsection}{\numberline {11.2.5}Proto-Malayo-Polynesian to Palauan}{62}{subsubsection.11.2.5}}
\@writefile{toc}{\contentsline {subsubsection}{\numberline {11.2.6}Proto-Malayo-Polynesian to Proto-North Sarawak}{63}{subsubsection.11.2.6}}
\@writefile{toc}{\contentsline {paragraph}{\numberline {11.2.6.1}Proto-North Sarawak to Kiput}{63}{paragraph.11.2.6.1}}
\@writefile{toc}{\contentsline {paragraph}{\numberline {11.2.6.2}Proto-North Sarawak to Proto-Kenyah}{65}{paragraph.11.2.6.2}}
\@writefile{toc}{\contentsline {subparagraph}{\numberline {11.2.6.2.1}Proto-Kenyah to \`{O}ma L\'{o}ngh}{65}{subparagraph.11.2.6.2.1}}
\@writefile{toc}{\contentsline {paragraph}{\numberline {11.2.6.3}Proto-Malayic to Minangkabau}{66}{paragraph.11.2.6.3}}
\@writefile{toc}{\contentsline {subsection}{\numberline {11.3}Proto-Austronesian to Proto-Oceanic}{66}{subsection.11.3}}
\@writefile{toc}{\contentsline {subsubsection}{\numberline {11.3.1}Proto-Oceanic to Hawai'ian}{67}{subsubsection.11.3.1}}
\@writefile{toc}{\contentsline {subsubsection}{\numberline {11.3.2}Proto-Oceanic to Hiw}{67}{subsubsection.11.3.2}}
\@writefile{toc}{\contentsline {subsubsection}{\numberline {11.3.3}Proto-Oceanic to Proto-Reefs/Santa Cruz}{68}{subsubsection.11.3.3}}
\@writefile{toc}{\contentsline {paragraph}{\numberline {11.3.3.1}Proto-Reefs/Santa Cruz to \"{A}iwoo}{68}{paragraph.11.3.3.1}}
\@writefile{toc}{\contentsline {paragraph}{\numberline {11.3.3.2}Proto-Reefs/Santa Cruz to Nagu}{68}{paragraph.11.3.3.2}}
\@writefile{toc}{\contentsline {paragraph}{\numberline {11.3.3.3}Proto-Reefs/Santa Cruz to Nat\"{u}gu}{68}{paragraph.11.3.3.3}}
\@writefile{toc}{\contentsline {subsubsection}{\numberline {11.3.4}Proto-Oceanic to Proto-Utupua}{69}{subsubsection.11.3.4}}
\@writefile{toc}{\contentsline {paragraph}{\numberline {11.3.4.1}Proto-Utupua to Asuboa}{69}{paragraph.11.3.4.1}}
\@writefile{toc}{\contentsline {paragraph}{\numberline {11.3.4.2}Proto-Utupua to Nebao}{69}{paragraph.11.3.4.2}}
\@writefile{toc}{\contentsline {paragraph}{\numberline {11.3.4.3}Proto-Utupua to Tanibili}{70}{paragraph.11.3.4.3}}
\@writefile{toc}{\contentsline {subsubsection}{\numberline {11.3.5}Proto-Oceanic to Proto-Vanikoro}{70}{subsubsection.11.3.5}}
\@writefile{toc}{\contentsline {paragraph}{\numberline {11.3.5.1}Proto-Vanikoro to Buma}{70}{paragraph.11.3.5.1}}
\@writefile{toc}{\contentsline {paragraph}{\numberline {11.3.5.2}Proto-Vanikoro to Tanema}{71}{paragraph.11.3.5.2}}
\@writefile{toc}{\contentsline {paragraph}{\numberline {11.3.5.3}Proto-Vanikoro to Vano}{71}{paragraph.11.3.5.3}}
\@writefile{toc}{\contentsline {subsection}{\numberline {11.4}Micronesian}{71}{subsection.11.4}}
\@writefile{toc}{\contentsline {subsubsection}{\numberline {11.4.1}Proto-Micronesian to Marshallese}{71}{subsubsection.11.4.1}}
\@writefile{toc}{\contentsline {subsection}{\numberline {11.5}Proto-Austronesian to Proto-Ongan}{72}{subsection.11.5}}
\@writefile{toc}{\contentsline {subsubsection}{\numberline {11.5.1}Proto-Ongan to Jarawa}{73}{subsubsection.11.5.1}}
\@writefile{toc}{\contentsline {subsubsection}{\numberline {11.5.2}Proto-Ongan to Onge}{73}{subsubsection.11.5.2}}
\@writefile{toc}{\contentsline {subsection}{\numberline {11.6}Proto-Austronesian to Proto-Paiwan}{73}{subsection.11.6}}
\@writefile{toc}{\contentsline {subsubsection}{\numberline {11.6.1}Proto-Paiwan to Northern Paiwan}{74}{subsubsection.11.6.1}}
\@writefile{toc}{\contentsline {subsubsection}{\numberline {11.6.2}Proto-Paiwan to Central Paiwan}{74}{subsubsection.11.6.2}}
\@writefile{toc}{\contentsline {subsubsection}{\numberline {11.6.3}Proto-Paiwan to Southern Paiwan}{74}{subsubsection.11.6.3}}
\@writefile{toc}{\contentsline {subsection}{\numberline {11.7}Philippines}{74}{subsection.11.7}}
\@writefile{toc}{\contentsline {subsubsection}{\numberline {11.7.1}Proto-Philippines to Proto-Kalamian}{74}{subsubsection.11.7.1}}
\@writefile{toc}{\contentsline {paragraph}{\numberline {11.7.1.1}Proto-Kalamian to Agutaynen}{75}{paragraph.11.7.1.1}}
\@writefile{toc}{\contentsline {paragraph}{\numberline {11.7.1.2}Proto-Kalamian to Karamiananen}{75}{paragraph.11.7.1.2}}
\@writefile{toc}{\contentsline {paragraph}{\numberline {11.7.1.3}Proto-Kalamian to Kalamian Tagbanwa}{76}{paragraph.11.7.1.3}}
\@writefile{toc}{\contentsline {subsection}{\numberline {11.8}Proto-Austronesian to Proto-Rukai}{76}{subsection.11.8}}
\@writefile{toc}{\contentsline {subsubsection}{\numberline {11.8.1}Proto-Rukai to Budai Rukai}{76}{subsubsection.11.8.1}}
\@writefile{toc}{\contentsline {section}{\numberline {12}Northeast Caucasian}{77}{section.12}}
\@writefile{toc}{\contentsline {subsection}{\numberline {12.1}Proto-Northeast Caucasian to Proto-Avar-Andic}{77}{subsection.12.1}}
\@writefile{toc}{\contentsline {subsubsection}{\numberline {12.1.1}Proto-Avar-Andic to Akhvakh}{78}{subsubsection.12.1.1}}
\@writefile{toc}{\contentsline {subsubsection}{\numberline {12.1.2}Proto-Avar-Andic to Andi}{78}{subsubsection.12.1.2}}
\@writefile{toc}{\contentsline {subsubsection}{\numberline {12.1.3}Proto-Avar-Andic to Avar}{79}{subsubsection.12.1.3}}
\@writefile{toc}{\contentsline {subsection}{\numberline {12.2}Proto-Northeast Caucasian to Dargi}{79}{subsection.12.2}}
\@writefile{toc}{\contentsline {subsection}{\numberline {12.3}Proto-Northeast Caucasian to Khinalug}{79}{subsection.12.3}}
\@writefile{toc}{\contentsline {subsection}{\numberline {12.4}Proto-Northeast Caucasian to Lak}{80}{subsection.12.4}}
\@writefile{toc}{\contentsline {subsection}{\numberline {12.5}Proto-Northeast Caucasian to Proto-Lezgic}{80}{subsection.12.5}}
\@writefile{toc}{\contentsline {subsubsection}{\numberline {12.5.1}Proto-Lezgic to Agul}{81}{subsubsection.12.5.1}}
\@writefile{toc}{\contentsline {subsubsection}{\numberline {12.5.2}Proto-Lezgic to Archi}{81}{subsubsection.12.5.2}}
\@writefile{toc}{\contentsline {subsubsection}{\numberline {12.5.3}Proto-Lezgic to Lezghi}{82}{subsubsection.12.5.3}}
\@writefile{toc}{\contentsline {subsubsection}{\numberline {12.5.4}Proto-Lezgic to Rutul}{82}{subsubsection.12.5.4}}
\@writefile{toc}{\contentsline {subsubsection}{\numberline {12.5.5}Proto-Lezgic to Tabassaran}{83}{subsubsection.12.5.5}}
\@writefile{toc}{\contentsline {subsubsection}{\numberline {12.5.6}Proto-Lezgic to Udi}{83}{subsubsection.12.5.6}}
\@writefile{toc}{\contentsline {subsection}{\numberline {12.6}Proto-Northeast Caucasian to Nakh}{83}{subsection.12.6}}
\@writefile{toc}{\contentsline {subsection}{\numberline {12.7}Proto-Northeast Caucasian to Proto-Tsezic}{84}{subsection.12.7}}
\@writefile{toc}{\contentsline {subsubsection}{\numberline {12.7.1}Proto-Tsezic to Bezhta}{84}{subsubsection.12.7.1}}
\@writefile{toc}{\contentsline {subsubsection}{\numberline {12.7.2}Proto-Tsezic to Tsez}{85}{subsubsection.12.7.2}}
\@writefile{toc}{\contentsline {section}{\numberline {13}Northwest Caucasian}{86}{section.13}}
\@writefile{toc}{\contentsline {subsection}{\numberline {13.1}Proto-Northwest Caucasian to Proto-Abazgi}{87}{subsection.13.1}}
\@writefile{toc}{\contentsline {subsubsection}{\numberline {13.1.1}Proto-Abazgi to Ashkharywa Abaza}{88}{subsubsection.13.1.1}}
\@writefile{toc}{\contentsline {subsubsection}{\numberline {13.1.2}Proto-Abazgi to Tapanta Abaza}{88}{subsubsection.13.1.2}}
\@writefile{toc}{\contentsline {subsubsection}{\numberline {13.1.3}Proto-Abazgi to Ahchypsy Abkhaz}{88}{subsubsection.13.1.3}}
\@writefile{toc}{\contentsline {subsubsection}{\numberline {13.1.4}Proto-Abazgi to Bzyp Abkhaz}{89}{subsubsection.13.1.4}}
\@writefile{toc}{\contentsline {subsubsection}{\numberline {13.1.5}Proto-Abazgi to Abzhywa Proper}{89}{subsubsection.13.1.5}}
\@writefile{toc}{\contentsline {subsubsection}{\numberline {13.1.6}Proto-Abazgi to Tsabal Abzhywa}{89}{subsubsection.13.1.6}}
\@writefile{toc}{\contentsline {subsubsection}{\numberline {13.1.7}Proto-Abazgi to Khaltsys Sadz}{90}{subsubsection.13.1.7}}
\@writefile{toc}{\contentsline {subsubsection}{\numberline {13.1.8}Proto-Abazgi to Tswydzhy Sadz}{90}{subsubsection.13.1.8}}
\@writefile{toc}{\contentsline {subsection}{\numberline {13.2}Proto-Northwest Caucasian to Proto-Circassian}{90}{subsection.13.2}}
\@writefile{toc}{\contentsline {subsubsection}{\numberline {13.2.1}Proto-Circassian to Adyghe}{91}{subsubsection.13.2.1}}
\@writefile{toc}{\contentsline {paragraph}{\numberline {13.2.1.1}Adyghe to Abadzekh Adyghe}{92}{paragraph.13.2.1.1}}
\@writefile{toc}{\contentsline {paragraph}{\numberline {13.2.1.2}Adyghe to Bzhedug Adyghe}{92}{paragraph.13.2.1.2}}
\@writefile{toc}{\contentsline {paragraph}{\numberline {13.2.1.3}Adyghe to Shapsug Adyghe}{93}{paragraph.13.2.1.3}}
\@writefile{toc}{\contentsline {paragraph}{\numberline {13.2.1.4}Adyghe to Temirgoy Adyghe}{93}{paragraph.13.2.1.4}}
\@writefile{toc}{\contentsline {subsubsection}{\numberline {13.2.2}Proto-Circassian to Kabardian}{94}{subsubsection.13.2.2}}
\@writefile{toc}{\contentsline {subsection}{\numberline {13.3}Proto-Northwest Caucasian to Ubykh}{94}{subsection.13.3}}
\@writefile{toc}{\contentsline {section}{\numberline {14}Elamo-Dravidian}{96}{section.14}}
\@writefile{toc}{\contentsline {subsection}{\numberline {14.1}Proto-Elamo-Dravidian to Proto-Dravidian}{96}{subsection.14.1}}
\@writefile{toc}{\contentsline {subsection}{\numberline {14.2}Proto-Elamo-Dravidian to Achaemanid Elamite}{97}{subsection.14.2}}
\@writefile{toc}{\contentsline {subsection}{\numberline {14.3}Tamil}{97}{subsection.14.3}}
\@writefile{toc}{\contentsline {subsubsection}{\numberline {14.3.1}Standard Tamil to Colloquial Tamil}{97}{subsubsection.14.3.1}}
\@writefile{toc}{\contentsline {section}{\numberline {15}Eskimo-Aleut}{99}{section.15}}
\@writefile{toc}{\contentsline {subsection}{\numberline {15.1}Proto-Eskimo-Aleut to Proto-Aleut}{99}{subsection.15.1}}
\@writefile{toc}{\contentsline {subsection}{\numberline {15.2}Proto-Eskimo-Aleut to Proto-Eskimo}{100}{subsection.15.2}}
\@writefile{toc}{\contentsline {subsubsection}{\numberline {15.2.1}Proto-Eskimo to Barrow I\~{n}upiaq}{100}{subsubsection.15.2.1}}
\@writefile{toc}{\contentsline {subsubsection}{\numberline {15.2.2}Proto-Eskimo to Greenlandic I\~{n}upiaq}{101}{subsubsection.15.2.2}}
\@writefile{toc}{\contentsline {subsubsection}{\numberline {15.2.3}Proto-Eskimo to Mackenzie I\~{n}upiaq}{101}{subsubsection.15.2.3}}
\@writefile{toc}{\contentsline {subsubsection}{\numberline {15.2.4}Proto-Eskimo to Wales I\~{n}upiaq}{102}{subsubsection.15.2.4}}
\@writefile{toc}{\contentsline {subsubsection}{\numberline {15.2.5}Proto-Eskimo to Kuskokwim Yup'ik}{103}{subsubsection.15.2.5}}
\@writefile{toc}{\contentsline {subsubsection}{\numberline {15.2.6}Proto-Eskimo to Nunivak Yup'ik}{104}{subsubsection.15.2.6}}
\@writefile{toc}{\contentsline {subsubsection}{\numberline {15.2.7}Proto-Eskimo to Siberian Yup'ik}{104}{subsubsection.15.2.7}}
\@writefile{toc}{\contentsline {subsubsection}{\numberline {15.2.8}Proto-Eskimo to Unaaliq Yup'ik}{105}{subsubsection.15.2.8}}
\@writefile{toc}{\contentsline {section}{\numberline {16}Extended West Papuan}{107}{section.16}}
\@writefile{toc}{\contentsline {subsection}{\numberline {16.1}Tabla-Sentani}{107}{subsection.16.1}}
\@writefile{toc}{\contentsline {subsubsection}{\numberline {16.1.1}Proto-Tabla-Sentani to Nafri}{107}{subsubsection.16.1.1}}
\@writefile{toc}{\contentsline {subsubsection}{\numberline {16.1.2}Proto-Tabla-Sentani to Central Sentani}{108}{subsubsection.16.1.2}}
\@writefile{toc}{\contentsline {subsubsection}{\numberline {16.1.3}Proto-Tabla-Sentani to Eastern Sentani}{108}{subsubsection.16.1.3}}
\@writefile{toc}{\contentsline {subsubsection}{\numberline {16.1.4}Proto-Tabla-Sentani to Western Sentani}{109}{subsubsection.16.1.4}}
\@writefile{toc}{\contentsline {subsubsection}{\numberline {16.1.5}Proto-Tabla-Sentani to Tabla}{109}{subsubsection.16.1.5}}
\@writefile{toc}{\contentsline {section}{\numberline {17}Indo-European}{110}{section.17}}
\@writefile{toc}{\contentsline {subsection}{\numberline {17.1}Albanian}{110}{subsection.17.1}}
\@writefile{toc}{\contentsline {subsubsection}{\numberline {17.1.1}Proto-Indo-European to Gheg Albanian}{110}{subsubsection.17.1.1}}
\@writefile{toc}{\contentsline {subsubsection}{\numberline {17.1.2}Proto-Indo-European to Tosk Albanian}{111}{subsubsection.17.1.2}}
\@writefile{toc}{\contentsline {subsection}{\numberline {17.2}Proto-Indo-European to Common Anatolian}{113}{subsection.17.2}}
\@writefile{toc}{\contentsline {subsubsection}{\numberline {17.2.1}Common Anatolian to Hittite}{113}{subsubsection.17.2.1}}
\@writefile{toc}{\contentsline {subsubsection}{\numberline {17.2.2}Common Anatolian to Luwian}{114}{subsubsection.17.2.2}}
\@writefile{toc}{\contentsline {subsubsection}{\numberline {17.2.3}Common Anatolian to Lycian}{114}{subsubsection.17.2.3}}
\@writefile{toc}{\contentsline {subsubsection}{\numberline {17.2.4}Common Anatolian to Lydian}{115}{subsubsection.17.2.4}}
\@writefile{toc}{\contentsline {subsubsection}{\numberline {17.2.5}Common Anatolian to Palaic}{116}{subsubsection.17.2.5}}
\@writefile{toc}{\contentsline {subsection}{\numberline {17.3}Armenian}{116}{subsection.17.3}}
\@writefile{toc}{\contentsline {subsubsection}{\numberline {17.3.1}Proto-Indo-European to Artsakh Armenian}{116}{subsubsection.17.3.1}}
\@writefile{toc}{\contentsline {subsubsection}{\numberline {17.3.2}Proto-Indo-European to Erevan Armenian}{117}{subsubsection.17.3.2}}
\@writefile{toc}{\contentsline {subsubsection}{\numberline {17.3.3}Proto-Indo-European to Istanbul Armenian}{118}{subsubsection.17.3.3}}
\@writefile{toc}{\contentsline {subsubsection}{\numberline {17.3.4}Proto-Indo-European to Kharpert Armenian}{119}{subsubsection.17.3.4}}
\@writefile{toc}{\contentsline {subsubsection}{\numberline {17.3.5}Proto-Indo-European to Sebastia Armenian}{120}{subsubsection.17.3.5}}
\@writefile{toc}{\contentsline {subsubsection}{\numberline {17.3.6}Proto-Indo-European to Southeast Armenian}{121}{subsubsection.17.3.6}}
\@writefile{toc}{\contentsline {subsubsection}{\numberline {17.3.7}Proto-Indo-European to Southwest Armenian}{123}{subsubsection.17.3.7}}
\@writefile{toc}{\contentsline {subsection}{\numberline {17.4}Avestan}{124}{subsection.17.4}}
\@writefile{toc}{\contentsline {subsubsection}{\numberline {17.4.1}Proto-Indo-European to Avestan}{124}{subsubsection.17.4.1}}
\@writefile{toc}{\contentsline {subsection}{\numberline {17.5}Proto-Indo-European to Proto-Celtic}{124}{subsection.17.5}}
\@writefile{toc}{\contentsline {subsubsection}{\numberline {17.5.1}Proto-Indo-European to Old Irish}{125}{subsubsection.17.5.1}}
\@writefile{toc}{\contentsline {subsubsection}{\numberline {17.5.2}Proto-Celtic to Middle Welsh}{127}{subsubsection.17.5.2}}
\@writefile{toc}{\contentsline {subsection}{\numberline {17.6}Proto-Indo-European to Dacian}{129}{subsection.17.6}}
\@writefile{toc}{\contentsline {subsection}{\numberline {17.7}Proto-Indo-European to Common Germanic}{129}{subsection.17.7}}
\@writefile{toc}{\contentsline {subsubsection}{\numberline {17.7.1}Common Germanic to Gothic}{129}{subsubsection.17.7.1}}
\@writefile{toc}{\contentsline {subsubsection}{\numberline {17.7.2}Common Germanic to West Germanic}{131}{subsubsection.17.7.2}}
\@writefile{toc}{\contentsline {paragraph}{\numberline {17.7.2.1}West Germanic to Anglo-Frisian}{131}{paragraph.17.7.2.1}}
\@writefile{toc}{\contentsline {subparagraph}{\numberline {17.7.2.1.1}Anglo-Frisian to Old English}{132}{subparagraph.17.7.2.1.1}}
\@writefile{toc}{\contentsline {subparagraph}{\numberline {17.7.2.1.2}Old English to Kentish Middle English}{132}{subparagraph.17.7.2.1.2}}
\@writefile{toc}{\contentsline {subparagraph}{\numberline {17.7.2.1.3}Old English to Midlands Middle English}{133}{subparagraph.17.7.2.1.3}}
\@writefile{toc}{\contentsline {subparagraph}{\numberline {17.7.2.1.4}Midlands Middle English to Early Modern English}{133}{subparagraph.17.7.2.1.4}}
\@writefile{toc}{\contentsline {subparagraph}{\numberline {17.7.2.1.5}Early Modern English to American English}{134}{subparagraph.17.7.2.1.5}}
\@writefile{toc}{\contentsline {subparagraph}{\numberline {17.7.2.1.6}Early Modern English to Australian English}{134}{subparagraph.17.7.2.1.6}}
\@writefile{toc}{\contentsline {subparagraph}{\numberline {17.7.2.1.7}Early Modern English to British English}{135}{subparagraph.17.7.2.1.7}}
\@writefile{toc}{\contentsline {subparagraph}{\numberline {17.7.2.1.8}Old English to Northern Middle English}{136}{subparagraph.17.7.2.1.8}}
\@writefile{toc}{\contentsline {subparagraph}{\numberline {17.7.2.1.9}Early Northern Middle English to Scots}{136}{subparagraph.17.7.2.1.9}}
\@writefile{toc}{\contentsline {subparagraph}{\numberline {17.7.2.1.10}Old English to Southern Middle English}{137}{subparagraph.17.7.2.1.10}}
\@writefile{toc}{\contentsline {subparagraph}{\numberline {17.7.2.1.11}Anglo-Frisian to Old Frisian}{138}{subparagraph.17.7.2.1.11}}
\@writefile{toc}{\contentsline {subparagraph}{\numberline {17.7.2.1.12}North Frisian Lenition}{138}{subparagraph.17.7.2.1.12}}
\@writefile{toc}{\contentsline {paragraph}{\numberline {17.7.2.2}West Germanic to Old Low Franconian}{139}{paragraph.17.7.2.2}}
\@writefile{toc}{\contentsline {subparagraph}{\numberline {17.7.2.2.1}Old Low Franconian to Middle Dutch}{139}{subparagraph.17.7.2.2.1}}
\@writefile{toc}{\contentsline {subparagraph}{\numberline {17.7.2.2.2}Middle Dutch to Modern Dutch}{140}{subparagraph.17.7.2.2.2}}
\@writefile{toc}{\contentsline {subparagraph}{\numberline {17.7.2.2.3}Modern Dutch to Polder Dutch Vowel Shift}{140}{subparagraph.17.7.2.2.3}}
\@writefile{toc}{\contentsline {subparagraph}{\numberline {17.7.2.2.4}Belgian and Netherlandish Dutch Monophthongization}{140}{subparagraph.17.7.2.2.4}}
\@writefile{toc}{\contentsline {paragraph}{\numberline {17.7.2.3}Middle High German to Standard German}{141}{paragraph.17.7.2.3}}
\@writefile{toc}{\contentsline {paragraph}{\numberline {17.7.2.4}High German Cosonant Shift and Umlaut}{141}{paragraph.17.7.2.4}}
\@writefile{toc}{\contentsline {paragraph}{\numberline {17.7.2.5}West Germanic to Old Low German}{142}{paragraph.17.7.2.5}}
\@writefile{toc}{\contentsline {subsubsection}{\numberline {17.7.3}Common Germanic to Proto-Norse}{143}{subsubsection.17.7.3}}
\@writefile{toc}{\contentsline {paragraph}{\numberline {17.7.3.1}Proto-Norse to Icelandic}{143}{paragraph.17.7.3.1}}
\@writefile{toc}{\contentsline {subsection}{\numberline {17.8}Greek}{144}{subsection.17.8}}
\@writefile{toc}{\contentsline {subsubsection}{\numberline {17.8.1}Proto-Indo-European to Aeolian Greek}{144}{subsubsection.17.8.1}}
\@writefile{toc}{\contentsline {subsubsection}{\numberline {17.8.2}Proto-Indo-European to Attic Greek}{144}{subsubsection.17.8.2}}
\@writefile{toc}{\contentsline {subsubsection}{\numberline {17.8.3}Proto-Indo-European to Boeotian Greek}{146}{subsubsection.17.8.3}}
\@writefile{toc}{\contentsline {subsubsection}{\numberline {17.8.4}Proto-Indo-European to Coan Greek}{146}{subsubsection.17.8.4}}
\@writefile{toc}{\contentsline {subsubsection}{\numberline {17.8.5}Proto-Indo-European to Cretan Greek}{147}{subsubsection.17.8.5}}
\@writefile{toc}{\contentsline {subsubsection}{\numberline {17.8.6}Proto-Indo-European to Doric Greek}{147}{subsubsection.17.8.6}}
\@writefile{toc}{\contentsline {subsubsection}{\numberline {17.8.7}Proto-Indo-European to Elian Greek}{148}{subsubsection.17.8.7}}
\@writefile{toc}{\contentsline {subsubsection}{\numberline {17.8.8}Proto-Indo-European to Ionic Greek}{149}{subsubsection.17.8.8}}
\@writefile{toc}{\contentsline {subsubsection}{\numberline {17.8.9}Proto-Indo-European to Laconian Greek}{150}{subsubsection.17.8.9}}
\@writefile{toc}{\contentsline {subsubsection}{\numberline {17.8.10}Proto-Indo-European to Mycenaean Greek}{150}{subsubsection.17.8.10}}
\@writefile{toc}{\contentsline {subsection}{\numberline {17.9}Proto-Indo-European to Hittite}{151}{subsection.17.9}}
\@writefile{toc}{\contentsline {subsection}{\numberline {17.10}Proto-Indo-European to Proto-Indo-Aryan}{151}{subsection.17.10}}
\@writefile{toc}{\contentsline {subsubsection}{\numberline {17.10.1}Proto-Indo-Aryan to Central Middle Indo-Aryan}{152}{subsubsection.17.10.1}}
\@writefile{toc}{\contentsline {subsubsection}{\numberline {17.10.2}Proto-Indo-Aryan to Eastern Middle Indo-Aryan}{152}{subsubsection.17.10.2}}
\@writefile{toc}{\contentsline {subsubsection}{\numberline {17.10.3}Proto-Indo-Aryan to Northwestern Middle Indo-Aryan}{153}{subsubsection.17.10.3}}
\@writefile{toc}{\contentsline {subsubsection}{\numberline {17.10.4}Proto-Indo-Aryan to Western Middle Indo-Aryan}{154}{subsubsection.17.10.4}}
\@writefile{toc}{\contentsline {subsection}{\numberline {17.11}Proto-Indo-European to Proto-Slavic}{154}{subsection.17.11}}
\@writefile{toc}{\contentsline {subsubsection}{\numberline {17.11.1}Proto-Slavic to Polish}{155}{subsubsection.17.11.1}}
\@writefile{toc}{\contentsline {subsubsection}{\numberline {17.11.2}Proto-Slavic to Old Russian}{159}{subsubsection.17.11.2}}
\@writefile{toc}{\contentsline {subsection}{\numberline {17.12}Proto-Indo-European to Proto-Italic}{160}{subsection.17.12}}
\@writefile{toc}{\contentsline {subsubsection}{\numberline {17.12.1}Proto-Italic to Proto-Latino-Falsican}{160}{subsubsection.17.12.1}}
\@writefile{toc}{\contentsline {paragraph}{\numberline {17.12.1.1}Proto-Indo-European to Latin}{161}{paragraph.17.12.1.1}}
\@writefile{toc}{\contentsline {subparagraph}{\numberline {17.12.1.1.1}Classical Latin vs. Vulgar Latin}{163}{subparagraph.17.12.1.1.1}}
\@writefile{toc}{\contentsline {subparagraph}{\numberline {17.12.1.1.2}Latin to Catalan}{164}{subparagraph.17.12.1.1.2}}
\@writefile{toc}{\contentsline {subparagraph}{\numberline {17.12.1.1.3}Latin to French}{167}{subparagraph.17.12.1.1.3}}
\@writefile{toc}{\contentsline {subparagraph}{\numberline {17.12.1.1.4}Vulgar Latin to Italian}{170}{subparagraph.17.12.1.1.4}}
\@writefile{toc}{\contentsline {subparagraph}{\numberline {17.12.1.1.5}Latin to Portuguese}{171}{subparagraph.17.12.1.1.5}}
\@writefile{toc}{\contentsline {subparagraph}{\numberline {17.12.1.1.6}Vulgar Latin to Old Proven\c {c}al}{174}{subparagraph.17.12.1.1.6}}
\@writefile{toc}{\contentsline {subparagraph}{\numberline {17.12.1.1.7}Vulgar Latin to Rhaeto-Romance}{181}{subparagraph.17.12.1.1.7}}
\@writefile{toc}{\contentsline {subparagraph}{\numberline {17.12.1.1.8}Latin to Romanian}{182}{subparagraph.17.12.1.1.8}}
\@writefile{toc}{\contentsline {subparagraph}{\numberline {17.12.1.1.9}Latin to Sardinian}{184}{subparagraph.17.12.1.1.9}}
\@writefile{toc}{\contentsline {subparagraph}{\numberline {17.12.1.1.10}Vulgar Latin to Spanish}{184}{subparagraph.17.12.1.1.10}}
\@writefile{toc}{\contentsline {subsubsection}{\numberline {17.12.2}Proto-Italic to Proto-Sibellian}{187}{subsubsection.17.12.2}}
\@writefile{toc}{\contentsline {paragraph}{\numberline {17.12.2.1}Proto-Sibellian to Oscan}{187}{paragraph.17.12.2.1}}
\@writefile{toc}{\contentsline {paragraph}{\numberline {17.12.2.2}Proto-Sibellian to Umbrian}{188}{paragraph.17.12.2.2}}
\@writefile{toc}{\contentsline {subsection}{\numberline {17.13}Tocharian}{188}{subsection.17.13}}
\@writefile{toc}{\contentsline {subsubsection}{\numberline {17.13.1}Proto-Indo-European to Tocharian A}{188}{subsubsection.17.13.1}}
\@writefile{toc}{\contentsline {subsubsection}{\numberline {17.13.2}Proto-Indo-European to Tocharian B}{189}{subsubsection.17.13.2}}
\@writefile{toc}{\contentsline {section}{\numberline {18}Je-Tup\'{\i }-Carib}{190}{section.18}}
\@writefile{toc}{\contentsline {subsection}{\numberline {18.1}Tupar\'{i}}{190}{subsection.18.1}}
\@writefile{toc}{\contentsline {subsubsection}{\numberline {18.1.1}Proto-Tupar\'{i} to Makur\'{a}p}{190}{subsubsection.18.1.1}}
\@writefile{toc}{\contentsline {subsubsection}{\numberline {18.1.2}Proto-Tupar\'{i} to Mekens}{191}{subsubsection.18.1.2}}
\@writefile{toc}{\contentsline {subsubsection}{\numberline {18.1.3}Proto-Tupar\'{i} to Tupar\'{i}}{192}{subsubsection.18.1.3}}
\@writefile{toc}{\contentsline {subsubsection}{\numberline {18.1.4}Proto-Tupar\'{i} to Wayor\'{o}}{192}{subsubsection.18.1.4}}
\@writefile{toc}{\contentsline {subsection}{\numberline {18.2}Tup\'{i}-Guaran\'{i}}{193}{subsection.18.2}}
\@writefile{toc}{\contentsline {subsubsection}{\numberline {18.2.1}Proto-Tup\'{i}-Guaran\'{i} to Akw\'{a}ra}{193}{subsubsection.18.2.1}}
\@writefile{toc}{\contentsline {subsubsection}{\numberline {18.2.2}Proto-Tup\'{i}-Guaran\'{i} to Cocama}{193}{subsubsection.18.2.2}}
\@writefile{toc}{\contentsline {subsubsection}{\numberline {18.2.3}Proto-Tup\'{i}-Guaran\'{i} to Guajajara}{194}{subsubsection.18.2.3}}
\@writefile{toc}{\contentsline {subsubsection}{\numberline {18.2.4}Proto-Tup\'{i}-Guaran\'{i} to Guaran\'{i}}{194}{subsubsection.18.2.4}}
\@writefile{toc}{\contentsline {subsubsection}{\numberline {18.2.5}Proto-Tup\'{i}-Guaran\'{i} to Guarayo}{195}{subsubsection.18.2.5}}
\@writefile{toc}{\contentsline {subsubsection}{\numberline {18.2.6}Proto-Tup\'{i}-Guaran\'{i} to Kamayur\'{a}}{195}{subsubsection.18.2.6}}
\@writefile{toc}{\contentsline {subsubsection}{\numberline {18.2.7}Proto-Tup\'{i}-Guaran\'{i} to Parintint\'{i}n}{196}{subsubsection.18.2.7}}
\@writefile{toc}{\contentsline {subsubsection}{\numberline {18.2.8}Proto-Tup\'{i}-Guaran\'{i} to Sirion\'{o}}{196}{subsubsection.18.2.8}}
\@writefile{toc}{\contentsline {subsubsection}{\numberline {18.2.9}Proto-Tup\'{i}-Guaran\'{i} to Classical Tupi}{197}{subsubsection.18.2.9}}
\@writefile{toc}{\contentsline {paragraph}{\numberline {18.2.9.1}Tupian}{197}{paragraph.18.2.9.1}}
\@writefile{toc}{\contentsline {subparagraph}{\numberline {18.2.9.1.1}Proto-Monde to Gavi\~{a}o}{197}{subparagraph.18.2.9.1.1}}
\@writefile{toc}{\contentsline {subparagraph}{\numberline {18.2.9.1.2}Proto-Monde to Proto-Cinta Larga-Suru\'{i}-Zor\'{o}}{197}{subparagraph.18.2.9.1.2}}
\@writefile{toc}{\contentsline {subparagraph}{\numberline {18.2.9.1.3}Proto-Cinta Larga-Suru\'{i}-Zor\'{o} to Cinta Larga}{197}{subparagraph.18.2.9.1.3}}
\@writefile{toc}{\contentsline {subparagraph}{\numberline {18.2.9.1.4}Proto-Cinta Larga-Suru\'{i}-Zor\'{o} to Suru\'{i}}{198}{subparagraph.18.2.9.1.4}}
\@writefile{toc}{\contentsline {subparagraph}{\numberline {18.2.9.1.5}Proto-Cinta Larga-Suru\'{i}-Zor\'{o} to Zor\'{o}}{198}{subparagraph.18.2.9.1.5}}
\@writefile{toc}{\contentsline {subsubsection}{\numberline {18.2.10}Proto-Tup\'{i}-Guaran\'{i} to Urubu}{198}{subsubsection.18.2.10}}
\@writefile{toc}{\contentsline {section}{\numberline {19}Kartvelian}{199}{section.19}}
\@writefile{toc}{\contentsline {subsection}{\numberline {19.1}Proto-Kartvelian to Georgian}{199}{subsection.19.1}}
\@writefile{toc}{\contentsline {subsection}{\numberline {19.2}Proto-Kartvellian to Svan}{200}{subsection.19.2}}
\@writefile{toc}{\contentsline {subsection}{\numberline {19.3}Proto-Kartvelian to Zan}{200}{subsection.19.3}}
\@writefile{toc}{\contentsline {section}{\numberline {20}Khoisan}{201}{section.20}}
\@writefile{toc}{\contentsline {subsection}{\numberline {20.1}Khoe}{201}{subsection.20.1}}
\@writefile{toc}{\contentsline {subsubsection}{\numberline {20.1.1}Proto-Khoe to {\fontencoding  {T3}\selectfont  \v *{||}}Ana}{201}{subsubsection.20.1.1}}
\@writefile{toc}{\contentsline {subsubsection}{\numberline {20.1.2}Proto-Khoe to {\fontencoding  {T3}\selectfont  ||}Ani}{201}{subsubsection.20.1.2}}
\@writefile{toc}{\contentsline {subsubsection}{\numberline {20.1.3}Proto-Khoe to Buga}{201}{subsubsection.20.1.3}}
\@writefile{toc}{\contentsline {subsubsection}{\numberline {20.1.4}Proto-Khoe to Kxoe}{202}{subsubsection.20.1.4}}
\@writefile{toc}{\contentsline {subsubsection}{\numberline {20.1.5}Proto-Khoe to Nama}{202}{subsubsection.20.1.5}}
\@writefile{toc}{\contentsline {subsubsection}{\numberline {20.1.6}Proto-Khoe to Naro}{202}{subsubsection.20.1.6}}
\@writefile{toc}{\contentsline {subsubsection}{\numberline {20.1.7}Proto-Khoe to !Ora}{203}{subsubsection.20.1.7}}
\@writefile{toc}{\contentsline {subsubsection}{\numberline {20.1.8}Proto-Khoe to Teti}{203}{subsubsection.20.1.8}}
\@writefile{toc}{\contentsline {subsubsection}{\numberline {20.1.9}Proto-Khoe to Ts{\fontencoding  {T3}\selectfont  P}ixa}{203}{subsubsection.20.1.9}}
\@writefile{toc}{\contentsline {subsubsection}{\numberline {20.1.10}Proto-Khoe to {\fontencoding  {T3}\selectfont  \v *{|}}Ui}{204}{subsubsection.20.1.10}}
\@writefile{toc}{\contentsline {subsection}{\numberline {20.2}Kx'a}{204}{subsection.20.2}}
\@writefile{toc}{\contentsline {subsubsection}{\numberline {20.2.1}Proto-Kx'a to {\fontencoding  {T3}\selectfont  \textdoublebarpipe }Hoan}{204}{subsubsection.20.2.1}}
\@writefile{toc}{\contentsline {subsubsection}{\numberline {20.2.2}Proto-Kx'a to Northwestern !Xun}{204}{subsubsection.20.2.2}}
\@writefile{toc}{\contentsline {subsubsection}{\numberline {20.2.3}Proto-Kx'a to Southeastern !Xun}{205}{subsubsection.20.2.3}}
\@writefile{toc}{\contentsline {section}{\numberline {21}Lakes Plain}{206}{section.21}}
\@writefile{toc}{\contentsline {subsection}{\numberline {21.1}Proto-Lakes Plain to Proto-Far West}{206}{subsection.21.1}}
\@writefile{toc}{\contentsline {subsubsection}{\numberline {21.1.1}Proto-Far West to Awera}{206}{subsubsection.21.1.1}}
\@writefile{toc}{\contentsline {subsubsection}{\numberline {21.1.2}Proto-Far West to Saponi}{207}{subsubsection.21.1.2}}
\@writefile{toc}{\contentsline {subsubsection}{\numberline {21.1.3}Proto-Far West to Rasawa}{207}{subsubsection.21.1.3}}
\@writefile{toc}{\contentsline {subsection}{\numberline {21.2}Proto-Lakes Plain to Proto-Tariku}{207}{subsection.21.2}}
\@writefile{toc}{\contentsline {subsubsection}{\numberline {21.2.1}Proto-Tariku to Proto-Central Tariku}{207}{subsubsection.21.2.1}}
\@writefile{toc}{\contentsline {paragraph}{\numberline {21.2.1.1}Proto-Central Tariku to Edopi}{208}{paragraph.21.2.1.1}}
\@writefile{toc}{\contentsline {paragraph}{\numberline {21.2.1.2}Proto-Central Tariku to Iau}{208}{paragraph.21.2.1.2}}
\@writefile{toc}{\contentsline {subsubsection}{\numberline {21.2.2}Proto-Tariku to Proto-East Tariku}{208}{subsubsection.21.2.2}}
\@writefile{toc}{\contentsline {paragraph}{\numberline {21.2.2.1}Proto-East Tariku to Biritai}{209}{paragraph.21.2.2.1}}
\@writefile{toc}{\contentsline {paragraph}{\numberline {21.2.2.2}Proto-East Tariku to Doutai}{209}{paragraph.21.2.2.2}}
\@writefile{toc}{\contentsline {paragraph}{\numberline {21.2.2.3}Proto-East Tariku to Eritai}{209}{paragraph.21.2.2.3}}
\@writefile{toc}{\contentsline {paragraph}{\numberline {21.2.2.4}Proto-East Tariku to Kai}{209}{paragraph.21.2.2.4}}
\@writefile{toc}{\contentsline {paragraph}{\numberline {21.2.2.5}Proto-East Tariku to Obokuitai}{210}{paragraph.21.2.2.5}}
\@writefile{toc}{\contentsline {paragraph}{\numberline {21.2.2.6}Proto-East Tariku to Sikaritai}{210}{paragraph.21.2.2.6}}
\@writefile{toc}{\contentsline {paragraph}{\numberline {21.2.2.7}Proto-East Tariku to Waritai}{210}{paragraph.21.2.2.7}}
\@writefile{toc}{\contentsline {subsubsection}{\numberline {21.2.3}Proto-Tariku to Proto-West Tariku}{210}{subsubsection.21.2.3}}
\@writefile{toc}{\contentsline {paragraph}{\numberline {21.2.3.1}Proto-West Tariku to Deirate}{211}{paragraph.21.2.3.1}}
\@writefile{toc}{\contentsline {paragraph}{\numberline {21.2.3.2}Proto-West Tariku to Faia}{211}{paragraph.21.2.3.2}}
\@writefile{toc}{\contentsline {paragraph}{\numberline {21.2.3.3}Proto-West Tariku to Fayu}{211}{paragraph.21.2.3.3}}
\@writefile{toc}{\contentsline {paragraph}{\numberline {21.2.3.4}Proto-West Tariku to Kirikiri}{211}{paragraph.21.2.3.4}}
\@writefile{toc}{\contentsline {paragraph}{\numberline {21.2.3.5}Proto-West Tariku to Sehudate}{211}{paragraph.21.2.3.5}}
\@writefile{toc}{\contentsline {paragraph}{\numberline {21.2.3.6}Proto-West Tariku to Tause}{212}{paragraph.21.2.3.6}}
\@writefile{toc}{\contentsline {paragraph}{\numberline {21.2.3.7}Proto-West Tariku to Weirate}{212}{paragraph.21.2.3.7}}
\@writefile{toc}{\contentsline {section}{\numberline {22}Macro-Arawakan}{213}{section.22}}
\@writefile{toc}{\contentsline {subsection}{\numberline {22.1}Proto-Araw\'{a} to Araw\'{a}}{213}{subsection.22.1}}
\@writefile{toc}{\contentsline {subsection}{\numberline {22.2}Proto-Araw\'{a} to Banaw\'{a}-Jamamadi}{214}{subsection.22.2}}
\@writefile{toc}{\contentsline {subsection}{\numberline {22.3}Proto-Araw\'{a} to Hypothetical Araw\'{a}n Substrate}{214}{subsection.22.3}}
\@writefile{toc}{\contentsline {subsection}{\numberline {22.4}Proto-Araw\'{a} to Jarawara}{214}{subsection.22.4}}
\@writefile{toc}{\contentsline {subsection}{\numberline {22.5}Proto-Araw\'{a} to Kul\'{i}na-Den\'{i}}{215}{subsection.22.5}}
\@writefile{toc}{\contentsline {subsection}{\numberline {22.6}Proto-Araw\'{a} to Sorowah\'{a}}{215}{subsection.22.6}}
\@writefile{toc}{\contentsline {subsection}{\numberline {22.7}Proto-Araw\'{a} to Paumar\'{i}}{215}{subsection.22.7}}
\@writefile{toc}{\contentsline {section}{\numberline {23}Macro-Pama-Nyungan}{216}{section.23}}
\@writefile{toc}{\contentsline {subsection}{\numberline {23.1}Paman}{216}{subsection.23.1}}
\@writefile{toc}{\contentsline {subsubsection}{\numberline {23.1.1}Proto-Paman to Aritin{\fontencoding  {T3}\selectfont  N}iti{\fontencoding  {T3}\selectfont  G}}{216}{subsubsection.23.1.1}}
\@writefile{toc}{\contentsline {subsubsection}{\numberline {23.1.2}Proto-Paman to Aw{\fontencoding  {T3}\selectfont  N}tim}{217}{subsubsection.23.1.2}}
\@writefile{toc}{\contentsline {subsubsection}{\numberline {23.1.3}Proto-Paman to Lin{\fontencoding  {T3}\selectfont  N}iti{\fontencoding  {T3}\selectfont  G}}{217}{subsubsection.23.1.3}}
\@writefile{toc}{\contentsline {subsubsection}{\numberline {23.1.4}Proto-Paman to Mbiywom}{217}{subsubsection.23.1.4}}
\@writefile{toc}{\contentsline {subsubsection}{\numberline {23.1.5}Proto-Paman to Mpalican}{218}{subsubsection.23.1.5}}
\@writefile{toc}{\contentsline {subsubsection}{\numberline {23.1.6}Proto-Paman to Ura{\fontencoding  {T3}\selectfont  D}i}{218}{subsubsection.23.1.6}}
\@writefile{toc}{\contentsline {subsubsection}{\numberline {23.1.7}Proto-Paman to Yinwum}{218}{subsubsection.23.1.7}}
\@writefile{toc}{\contentsline {section}{\numberline {24}Mayan}{219}{section.24}}
\@writefile{toc}{\contentsline {subsection}{\numberline {24.1}Proto-Mayan to Ch'olan}{219}{subsection.24.1}}
\@writefile{toc}{\contentsline {subsection}{\numberline {24.2}Proto-Mayan to Chujean}{219}{subsection.24.2}}
\@writefile{toc}{\contentsline {subsection}{\numberline {24.3}Proto-Mayan to Huastecan}{220}{subsection.24.3}}
\@writefile{toc}{\contentsline {subsection}{\numberline {24.4}Proto-Mayan to Ixilean}{220}{subsection.24.4}}
\@writefile{toc}{\contentsline {subsection}{\numberline {24.5}Proto-Mayan to Kaqchikel-Tz'utujil}{220}{subsection.24.5}}
\@writefile{toc}{\contentsline {subsection}{\numberline {24.6}Proto-Mayan to Core K'iche'}{221}{subsection.24.6}}
\@writefile{toc}{\contentsline {subsection}{\numberline {24.7}Proto-Mayan to Mamean}{221}{subsection.24.7}}
\@writefile{toc}{\contentsline {subsection}{\numberline {24.8}Proto-Mayan to Q'anjob'alan}{221}{subsection.24.8}}
\@writefile{toc}{\contentsline {subsection}{\numberline {24.9}Proto-Mayan to Tzeltalan}{221}{subsection.24.9}}
\@writefile{toc}{\contentsline {subsection}{\numberline {24.10}Proto-Mayan to Yucatecan}{222}{subsection.24.10}}
\@writefile{toc}{\contentsline {section}{\numberline {25}Niger-Congo}{223}{section.25}}
\@writefile{toc}{\contentsline {subsection}{\numberline {25.1}Proto-Potou-Akanic-Bantu to Proto-Bantu}{224}{subsection.25.1}}
\@writefile{toc}{\contentsline {subsubsection}{\numberline {25.1.1}Pre-Proto-Bantu to Proto-Bantu}{224}{subsubsection.25.1.1}}
\@writefile{toc}{\contentsline {paragraph}{\numberline {25.1.1.1}British East Africa}{224}{paragraph.25.1.1.1}}
\@writefile{toc}{\contentsline {subparagraph}{\numberline {25.1.1.1.1}Proto-British East Africa to Kamba}{224}{subparagraph.25.1.1.1.1}}
\@writefile{toc}{\contentsline {subparagraph}{\numberline {25.1.1.1.2}Proto-British East Africa to Kikuyu}{225}{subparagraph.25.1.1.1.2}}
\@writefile{toc}{\contentsline {subparagraph}{\numberline {25.1.1.1.3}Proto-British East Africa to Nika}{225}{subparagraph.25.1.1.1.3}}
\@writefile{toc}{\contentsline {subparagraph}{\numberline {25.1.1.1.4}Proto-British East Africa to Pokomo}{226}{subparagraph.25.1.1.1.4}}
\@writefile{toc}{\contentsline {subparagraph}{\numberline {25.1.1.1.5}Proto-British East Africa to Taita}{226}{subparagraph.25.1.1.1.5}}
\@writefile{toc}{\contentsline {subparagraph}{\numberline {25.1.1.1.6}Proto-British East Africa to Taveita}{227}{subparagraph.25.1.1.1.6}}
\@writefile{toc}{\contentsline {paragraph}{\numberline {25.1.1.2}Kilimanjaro}{227}{paragraph.25.1.1.2}}
\@writefile{toc}{\contentsline {subparagraph}{\numberline {25.1.1.2.1}Proto-Kilimanjaro to Chaga}{228}{subparagraph.25.1.1.2.1}}
\@writefile{toc}{\contentsline {subparagraph}{\numberline {25.1.1.2.2}Proto-Kilimanjaro to Paregweno}{228}{subparagraph.25.1.1.2.2}}
\@writefile{toc}{\contentsline {paragraph}{\numberline {25.1.1.3}Nyanza}{229}{paragraph.25.1.1.3}}
\@writefile{toc}{\contentsline {subparagraph}{\numberline {25.1.1.3.1}Proto-Nyanza to Kiguzii}{229}{subparagraph.25.1.1.3.1}}
\@writefile{toc}{\contentsline {subparagraph}{\numberline {25.1.1.3.2}Proto-Nyanza to Kikoria}{229}{subparagraph.25.1.1.3.2}}
\@writefile{toc}{\contentsline {subparagraph}{\numberline {25.1.1.3.3}Proto-Nyanza to Luganda}{229}{subparagraph.25.1.1.3.3}}
\@writefile{toc}{\contentsline {subparagraph}{\numberline {25.1.1.3.4}Proto-Nyanza to Lugishu}{230}{subparagraph.25.1.1.3.4}}
\@writefile{toc}{\contentsline {subparagraph}{\numberline {25.1.1.3.5}Proto-Nyanza to Lukonde}{230}{subparagraph.25.1.1.3.5}}
\@writefile{toc}{\contentsline {subparagraph}{\numberline {25.1.1.3.6}Proto-Nyanza to Lunyara}{231}{subparagraph.25.1.1.3.6}}
\@writefile{toc}{\contentsline {subparagraph}{\numberline {25.1.1.3.7}Proto-Nyanza to Luwanga}{231}{subparagraph.25.1.1.3.7}}
\@writefile{toc}{\contentsline {subparagraph}{\numberline {25.1.1.3.8}Proto-Nyanza to Luziba}{231}{subparagraph.25.1.1.3.8}}
\@writefile{toc}{\contentsline {subparagraph}{\numberline {25.1.1.3.9}Proto-Nyanza to Olukonjo}{232}{subparagraph.25.1.1.3.9}}
\@writefile{toc}{\contentsline {subparagraph}{\numberline {25.1.1.3.10}Proto-Nyanza to Oruhoma}{232}{subparagraph.25.1.1.3.10}}
\@writefile{toc}{\contentsline {subparagraph}{\numberline {25.1.1.3.11}Proto-Nyanza to Rugungu}{233}{subparagraph.25.1.1.3.11}}
\@writefile{toc}{\contentsline {subparagraph}{\numberline {25.1.1.3.12}Proto-Nyanza to Rukyopi}{233}{subparagraph.25.1.1.3.12}}
\@writefile{toc}{\contentsline {subparagraph}{\numberline {25.1.1.3.13}Proto-Nyanza to Rututsi}{234}{subparagraph.25.1.1.3.13}}
\@writefile{toc}{\contentsline {subparagraph}{\numberline {25.1.1.3.14}Proto-Nyanza to Urukaragwe}{234}{subparagraph.25.1.1.3.14}}
\@writefile{toc}{\contentsline {subparagraph}{\numberline {25.1.1.3.15}Proto-Nyanza to Urukerebe}{234}{subparagraph.25.1.1.3.15}}
\@writefile{toc}{\contentsline {subparagraph}{\numberline {25.1.1.3.16}Proto-Nyanza to Urunya-Ruanda}{235}{subparagraph.25.1.1.3.16}}
\@writefile{toc}{\contentsline {subparagraph}{\numberline {25.1.1.3.17}Proto-Nyanza to Urunyoro}{235}{subparagraph.25.1.1.3.17}}
\@writefile{toc}{\contentsline {subparagraph}{\numberline {25.1.1.3.18}Proto-Nyanza to Urutoro}{236}{subparagraph.25.1.1.3.18}}
\@writefile{toc}{\contentsline {paragraph}{\numberline {25.1.1.4}Upper Rufiji}{236}{paragraph.25.1.1.4}}
\@writefile{toc}{\contentsline {subparagraph}{\numberline {25.1.1.4.1}Proto-Upper Rufiji to Bena}{236}{subparagraph.25.1.1.4.1}}
\@writefile{toc}{\contentsline {subparagraph}{\numberline {25.1.1.4.2}Proto-Upper Rufiji to Gangi}{236}{subparagraph.25.1.1.4.2}}
\@writefile{toc}{\contentsline {subparagraph}{\numberline {25.1.1.4.3}Proto-Upper Rufiji to Hehe}{237}{subparagraph.25.1.1.4.3}}
\@writefile{toc}{\contentsline {subparagraph}{\numberline {25.1.1.4.4}Proto-Upper Rufiji to Pogoro}{237}{subparagraph.25.1.1.4.4}}
\@writefile{toc}{\contentsline {subparagraph}{\numberline {25.1.1.4.5}Proto-Upper Rufiji to Sango}{237}{subparagraph.25.1.1.4.5}}
\@writefile{toc}{\contentsline {paragraph}{\numberline {25.1.1.5}Sam}{238}{paragraph.25.1.1.5}}
\@writefile{toc}{\contentsline {subparagraph}{\numberline {25.1.1.5.1}Proto-Sam to Amu}{238}{subparagraph.25.1.1.5.1}}
\@writefile{toc}{\contentsline {subparagraph}{\numberline {25.1.1.5.2}Proto-Sam to Bajuni}{238}{subparagraph.25.1.1.5.2}}
\@writefile{toc}{\contentsline {subparagraph}{\numberline {25.1.1.5.3}Proto-Sam to Mwiini}{238}{subparagraph.25.1.1.5.3}}
\@writefile{toc}{\contentsline {subparagraph}{\numberline {25.1.1.5.4}Proto-Sam to Siu-Pate}{238}{subparagraph.25.1.1.5.4}}
\@writefile{toc}{\contentsline {subparagraph}{\numberline {25.1.1.5.5}Proto-Sam to Proto-Aweera}{239}{subparagraph.25.1.1.5.5}}
\@writefile{toc}{\contentsline {subparagraph}{\numberline {25.1.1.5.6}Proto-Sam to Lower Pokomo}{239}{subparagraph.25.1.1.5.6}}
\@writefile{toc}{\contentsline {paragraph}{\numberline {25.1.1.6}Proto-Bantu to Sebirwa}{239}{paragraph.25.1.1.6}}
\@writefile{toc}{\contentsline {paragraph}{\numberline {25.1.1.7}Proto-Bantu to Tswana}{239}{paragraph.25.1.1.7}}
\@writefile{toc}{\contentsline {paragraph}{\numberline {25.1.1.8}Usagara-Ugogo}{240}{paragraph.25.1.1.8}}
\@writefile{toc}{\contentsline {subparagraph}{\numberline {25.1.1.8.1}Proto-Usagara-Ugogo to Dzalamo}{240}{subparagraph.25.1.1.8.1}}
\@writefile{toc}{\contentsline {subparagraph}{\numberline {25.1.1.8.2}Proto-Usagara-Ugogo to Gogo}{240}{subparagraph.25.1.1.8.2}}
\@writefile{toc}{\contentsline {subparagraph}{\numberline {25.1.1.8.3}Proto-Usagara-Ugogo to Irangi}{241}{subparagraph.25.1.1.8.3}}
\@writefile{toc}{\contentsline {subparagraph}{\numberline {25.1.1.8.4}Proto-Usagara-Ugogo to Kaguru}{241}{subparagraph.25.1.1.8.4}}
\@writefile{toc}{\contentsline {subparagraph}{\numberline {25.1.1.8.5}Proto-Usagara-Ugogo to Kami}{241}{subparagraph.25.1.1.8.5}}
\@writefile{toc}{\contentsline {subparagraph}{\numberline {25.1.1.8.6}Proto-Usagara-Ugogo to Southern Sagara}{242}{subparagraph.25.1.1.8.6}}
\@writefile{toc}{\contentsline {paragraph}{\numberline {25.1.1.9}Usambara}{242}{paragraph.25.1.1.9}}
\@writefile{toc}{\contentsline {subparagraph}{\numberline {25.1.1.9.1}Proto-Usambara to Bondei}{242}{subparagraph.25.1.1.9.1}}
\@writefile{toc}{\contentsline {subparagraph}{\numberline {25.1.1.9.2}Proto-Usambara to Kimrima}{242}{subparagraph.25.1.1.9.2}}
\@writefile{toc}{\contentsline {subparagraph}{\numberline {25.1.1.9.3}Proto-Usambara to Shambara}{242}{subparagraph.25.1.1.9.3}}
\@writefile{toc}{\contentsline {subparagraph}{\numberline {25.1.1.9.4}Proto-Usambara to Zigula}{243}{subparagraph.25.1.1.9.4}}
\@writefile{toc}{\contentsline {paragraph}{\numberline {25.1.1.10}Wunyamwezi}{243}{paragraph.25.1.1.10}}
\@writefile{toc}{\contentsline {subparagraph}{\numberline {25.1.1.10.1}Proto-Wunyamwezi to Kinyaturu}{243}{subparagraph.25.1.1.10.1}}
\@writefile{toc}{\contentsline {subparagraph}{\numberline {25.1.1.10.2}Proto-Wunyamwezi to Kisukuma}{243}{subparagraph.25.1.1.10.2}}
\@writefile{toc}{\contentsline {subparagraph}{\numberline {25.1.1.10.3}Proto-Wunyamwezi to East Nyamwezi}{244}{subparagraph.25.1.1.10.3}}
\@writefile{toc}{\contentsline {subparagraph}{\numberline {25.1.1.10.4}Proto-Wunyamwezi to West Nyamwezi}{244}{subparagraph.25.1.1.10.4}}
\@writefile{toc}{\contentsline {subparagraph}{\numberline {25.1.1.10.5}Proto-Wunyamwezi to Shisumbwa}{245}{subparagraph.25.1.1.10.5}}
\@writefile{toc}{\contentsline {paragraph}{\numberline {25.1.1.11}Zangian}{245}{paragraph.25.1.1.11}}
\@writefile{toc}{\contentsline {subparagraph}{\numberline {25.1.1.11.1}Proto-Zangian to Kiamu}{245}{subparagraph.25.1.1.11.1}}
\@writefile{toc}{\contentsline {subparagraph}{\numberline {25.1.1.11.2}Proto-Zangian to Kimvita}{246}{subparagraph.25.1.1.11.2}}
\@writefile{toc}{\contentsline {subparagraph}{\numberline {25.1.1.11.3}Proto-Zangian to Kitikuu}{246}{subparagraph.25.1.1.11.3}}
\@writefile{toc}{\contentsline {subparagraph}{\numberline {25.1.1.11.4}Proto-Zangian to Kiwibu}{246}{subparagraph.25.1.1.11.4}}
\@writefile{toc}{\contentsline {subparagraph}{\numberline {25.1.1.11.5}Proto-Zangian to Shiangazija}{246}{subparagraph.25.1.1.11.5}}
\@writefile{toc}{\contentsline {subparagraph}{\numberline {25.1.1.11.6}Proto-Zangian to Swahili}{247}{subparagraph.25.1.1.11.6}}
\@writefile{toc}{\contentsline {subsubsection}{\numberline {25.1.2}Pre-Proto-Bantu to Proto-Manenguba}{247}{subsubsection.25.1.2}}
\@writefile{toc}{\contentsline {subsection}{\numberline {25.2}Proto-Potou-Akanic-Bantu to Proto-Potou-Akanic}{248}{subsection.25.2}}
\@writefile{toc}{\contentsline {subsubsection}{\numberline {25.2.1}Proto-Potou-Akanic to Proto-Akanic}{248}{subsubsection.25.2.1}}
\@writefile{toc}{\contentsline {paragraph}{\numberline {25.2.1.1}Proto-Akanic to Akan}{248}{paragraph.25.2.1.1}}
\@writefile{toc}{\contentsline {section}{\numberline {26}Oto-Manguean}{250}{section.26}}
\@writefile{toc}{\contentsline {subsection}{\numberline {26.1}Chatino}{250}{subsection.26.1}}
\@writefile{toc}{\contentsline {subsubsection}{\numberline {26.1.1}Proto-Chatino to Papabuco Chatino}{250}{subsubsection.26.1.1}}
\@writefile{toc}{\contentsline {subsubsection}{\numberline {26.1.2}Proto-Chatino to Tataltepec Chatino}{251}{subsubsection.26.1.2}}
\@writefile{toc}{\contentsline {subsubsection}{\numberline {26.1.3}Proto-Chatino to Yaitepec Chatino}{252}{subsubsection.26.1.3}}
\@writefile{toc}{\contentsline {subsubsection}{\numberline {26.1.4}Proto-Chatino to Zenzontepec Chatino}{253}{subsubsection.26.1.4}}
\@writefile{toc}{\contentsline {subsection}{\numberline {26.2}Proto-Oto-Manguean to Tlapanec}{253}{subsection.26.2}}
\@writefile{toc}{\contentsline {section}{\numberline {27}Penutian}{254}{section.27}}
\@writefile{toc}{\contentsline {subsection}{\numberline {27.1}Utian}{254}{subsection.27.1}}
\@writefile{toc}{\contentsline {subsubsection}{\numberline {27.1.1}Proto-Utian to Proto-Costanoan (Ohlone)}{254}{subsubsection.27.1.1}}
\@writefile{toc}{\contentsline {paragraph}{\numberline {27.1.1.1}Proto-Costanoan to Chochenyo}{255}{paragraph.27.1.1.1}}
\@writefile{toc}{\contentsline {paragraph}{\numberline {27.1.1.2}Proto-Utian to Proto-Miwok}{255}{paragraph.27.1.1.2}}
\@writefile{toc}{\contentsline {subparagraph}{\numberline {27.1.1.2.1}Proto-Miwok to Proto-Western Miwok}{255}{subparagraph.27.1.1.2.1}}
\@writefile{toc}{\contentsline {paragraph}{\numberline {27.1.1.3}Proto-Costanoan to Mutsun}{255}{paragraph.27.1.1.3}}
\@writefile{toc}{\contentsline {paragraph}{\numberline {27.1.1.4}Proto-Costanoan to Rumsen}{256}{paragraph.27.1.1.4}}
\@writefile{toc}{\contentsline {subsection}{\numberline {27.2}Wintun}{256}{subsection.27.2}}
\@writefile{toc}{\contentsline {subsubsection}{\numberline {27.2.1}Proto-Wintuan to Nomlaki}{257}{subsubsection.27.2.1}}
\@writefile{toc}{\contentsline {subsubsection}{\numberline {27.2.2}Proto-Wintuan to Patwin}{257}{subsubsection.27.2.2}}
\@writefile{toc}{\contentsline {subsubsection}{\numberline {27.2.3}Proto-Wintuan to South Patwin}{257}{subsubsection.27.2.3}}
\@writefile{toc}{\contentsline {subsubsection}{\numberline {27.2.4}Proto-Wintuan to Wintu}{257}{subsubsection.27.2.4}}
\@writefile{toc}{\contentsline {subsection}{\numberline {27.3}Yokutsan}{258}{subsection.27.3}}
\@writefile{toc}{\contentsline {subsubsection}{\numberline {27.3.1}Proto-Yokuts to General Yokuts}{258}{subsubsection.27.3.1}}
\@writefile{toc}{\contentsline {paragraph}{\numberline {27.3.1.1}General Yokuts to Buena Vista Yokuts}{258}{paragraph.27.3.1.1}}
\@writefile{toc}{\contentsline {paragraph}{\numberline {27.3.1.2}Buena Vista Yokuts to Hometwoli}{259}{paragraph.27.3.1.2}}
\@writefile{toc}{\contentsline {paragraph}{\numberline {27.3.1.3}Buena Vista Yokuts to Tulamni}{259}{paragraph.27.3.1.3}}
\@writefile{toc}{\contentsline {subsubsection}{\numberline {27.3.2}Buena Vista Yokuts to Proto-Nim-Yokuts}{259}{subsubsection.27.3.2}}
\@writefile{toc}{\contentsline {paragraph}{\numberline {27.3.2.1}Proto-Nim-Yokuts to Proto-Tule-Kaweah}{259}{paragraph.27.3.2.1}}
\@writefile{toc}{\contentsline {subparagraph}{\numberline {27.3.2.1.1}Proto-Tule-Kaweah to Wikchamni}{259}{subparagraph.27.3.2.1.1}}
\@writefile{toc}{\contentsline {subparagraph}{\numberline {27.3.2.1.2}Proto-Tule-Kaweah to Yawdanchi}{259}{subparagraph.27.3.2.1.2}}
\@writefile{toc}{\contentsline {paragraph}{\numberline {27.3.2.2}Proto-Nim-Yokuts to Northern Yokuts}{260}{paragraph.27.3.2.2}}
\@writefile{toc}{\contentsline {subparagraph}{\numberline {27.3.2.2.1}Northern Yokuts to Gashowu}{260}{subparagraph.27.3.2.2.1}}
\@writefile{toc}{\contentsline {subparagraph}{\numberline {27.3.2.2.2}Northern Yokuts to Kings Valley Yokuts}{260}{subparagraph.27.3.2.2.2}}
\@writefile{toc}{\contentsline {subparagraph}{\numberline {27.3.2.2.3}Northern Yokuts to Valley Yokuts}{260}{subparagraph.27.3.2.2.3}}
\@writefile{toc}{\contentsline {subparagraph}{\numberline {27.3.2.2.4}Valley Yokuts to Chukchansi}{260}{subparagraph.27.3.2.2.4}}
\@writefile{toc}{\contentsline {subparagraph}{\numberline {27.3.2.2.5}Valley Yokuts to Tachi}{260}{subparagraph.27.3.2.2.5}}
\@writefile{toc}{\contentsline {subparagraph}{\numberline {27.3.2.2.6}Valley Yokuts to Yawelmani}{261}{subparagraph.27.3.2.2.6}}
\@writefile{toc}{\contentsline {subsubsection}{\numberline {27.3.3}Proto-Yokuts to Palewyami}{261}{subsubsection.27.3.3}}
\@writefile{toc}{\contentsline {section}{\numberline {28}Quechumaran}{262}{section.28}}
\@writefile{toc}{\contentsline {subsection}{\numberline {28.1}Proto-Quechumaran to Ayachuco}{262}{subsection.28.1}}
\@writefile{toc}{\contentsline {subsection}{\numberline {28.2}Proto-Quechumaran to Bolivia}{262}{subsection.28.2}}
\@writefile{toc}{\contentsline {subsection}{\numberline {28.3}Proto-Quechumaran to Cuzco}{263}{subsection.28.3}}
\@writefile{toc}{\contentsline {subsection}{\numberline {28.4}Proto-Quechumaran to Huar\'{a}s}{264}{subsection.28.4}}
\@writefile{toc}{\contentsline {subsection}{\numberline {28.5}Proto-Quechumaran to Putamayo}{264}{subsection.28.5}}
\@writefile{toc}{\contentsline {subsection}{\numberline {28.6}Proto-Quechumaran to Quito}{265}{subsection.28.6}}
\@writefile{toc}{\contentsline {subsection}{\numberline {28.7}Proto-Quechumaran to Riobamba}{265}{subsection.28.7}}
\@writefile{toc}{\contentsline {subsection}{\numberline {28.8}Proto-Quechumaran to Santiago}{266}{subsection.28.8}}
\@writefile{toc}{\contentsline {subsection}{\numberline {28.9}Proto-Quechumaran to Tena}{267}{subsection.28.9}}
\@writefile{toc}{\contentsline {section}{\numberline {29}Salishan}{268}{section.29}}
\@writefile{toc}{\contentsline {subsection}{\numberline {29.1}Central Salish}{268}{subsection.29.1}}
\@writefile{toc}{\contentsline {subsubsection}{\numberline {29.1.1}Proto-Central Salish to Comox}{268}{subsubsection.29.1.1}}
\@writefile{toc}{\contentsline {subsubsection}{\numberline {29.1.2}Proto-Central Salish to Chilliwack Halkomelem}{269}{subsubsection.29.1.2}}
\@writefile{toc}{\contentsline {subsubsection}{\numberline {29.1.3}Proto-Central Salish to Cowichan Halkomelem}{270}{subsubsection.29.1.3}}
\@writefile{toc}{\contentsline {subsubsection}{\numberline {29.1.4}Proto-Central Salish to Musqueam Halkomelem}{270}{subsubsection.29.1.4}}
\@writefile{toc}{\contentsline {subsubsection}{\numberline {29.1.5}Proto-Central Salish to Klallam}{271}{subsubsection.29.1.5}}
\@writefile{toc}{\contentsline {subsubsection}{\numberline {29.1.6}Proto-Central Salish to Lushootseed}{271}{subsubsection.29.1.6}}
\@writefile{toc}{\contentsline {subsubsection}{\numberline {29.1.7}Proto-Central Salish to Nooksack}{272}{subsubsection.29.1.7}}
\@writefile{toc}{\contentsline {subsubsection}{\numberline {29.1.8}Proto-Central Salish to Lummi Northern Straits}{273}{subsubsection.29.1.8}}
\@writefile{toc}{\contentsline {subsubsection}{\numberline {29.1.9}Proto-Central Salish to Saanich Northern Straits}{273}{subsubsection.29.1.9}}
\@writefile{toc}{\contentsline {subsubsection}{\numberline {29.1.10}Proto-Central Salish to Songish Northern Straits}{274}{subsubsection.29.1.10}}
\@writefile{toc}{\contentsline {subsubsection}{\numberline {29.1.11}Proto-Central Salish to Sooke Northern Straits}{275}{subsubsection.29.1.11}}
\@writefile{toc}{\contentsline {subsubsection}{\numberline {29.1.12}Proto-Central Salish to Pentlatch}{275}{subsubsection.29.1.12}}
\@writefile{toc}{\contentsline {subsubsection}{\numberline {29.1.13}Proto-Central Salish to Sechelt}{276}{subsubsection.29.1.13}}
\@writefile{toc}{\contentsline {subsubsection}{\numberline {29.1.14}Proto-Central Salish to Sqamish}{276}{subsubsection.29.1.14}}
\@writefile{toc}{\contentsline {subsubsection}{\numberline {29.1.15}Proto-Central Salish to Twana}{277}{subsubsection.29.1.15}}
\@writefile{toc}{\contentsline {subsection}{\numberline {29.2}Interior Salish}{277}{subsection.29.2}}
\@writefile{toc}{\contentsline {subsubsection}{\numberline {29.2.1}Proto-Interior Salish to Columbian and Okanagan Nasal-to-Vowel Shifts}{277}{subsubsection.29.2.1}}
\@writefile{toc}{\contentsline {subsubsection}{\numberline {29.2.2}Proto-Interior Salish to Thompson Nasal-to-Vowel Shifts}{277}{subsubsection.29.2.2}}
\@writefile{toc}{\contentsline {subsection}{\numberline {29.3}Shuswap to Eastern Shuswap Nasal-to-Vowel Shifts}{278}{subsection.29.3}}
\@writefile{toc}{\contentsline {subsection}{\numberline {29.4}Shuswap to Spokane-Kalispel Shuswap Nasal-to-Vowel Shifts}{278}{subsection.29.4}}
\@writefile{toc}{\contentsline {section}{\numberline {30}Sino-Tibetan}{279}{section.30}}
\@writefile{toc}{\contentsline {subsection}{\numberline {30.1}Proto-Sino-Tibetan to Middle Chinese}{279}{subsection.30.1}}
\@writefile{toc}{\contentsline {subsubsection}{\numberline {30.1.1}Late Middle Chinese to Old Mandarin}{279}{subsubsection.30.1.1}}
\@writefile{toc}{\contentsline {paragraph}{\numberline {30.1.1.1}Old Mandarin to Modern Pekingese}{281}{paragraph.30.1.1.1}}
\@writefile{toc}{\contentsline {subsection}{\numberline {30.2}Sin Sukchu to Gu\={a}nhu\`{a}}{281}{subsection.30.2}}
\@writefile{toc}{\contentsline {subsection}{\numberline {30.3}Tibeto-Burman}{283}{subsection.30.3}}
\@writefile{toc}{\contentsline {subsubsection}{\numberline {30.3.1}Qiangic}{283}{subsubsection.30.3.1}}
\@writefile{toc}{\contentsline {paragraph}{\numberline {30.3.1.1}Proto-Naish to Laze}{283}{paragraph.30.3.1.1}}
\@writefile{toc}{\contentsline {paragraph}{\numberline {30.3.1.2}Proto-Naish to Mosuo (Na)}{284}{paragraph.30.3.1.2}}
\@writefile{toc}{\contentsline {paragraph}{\numberline {30.3.1.3}Proto-Naish to Naxi}{285}{paragraph.30.3.1.3}}
\@writefile{toc}{\contentsline {section}{\numberline {31}Siouan-Iroquoian}{286}{section.31}}
\@writefile{toc}{\contentsline {subsection}{\numberline {31.1}Proto-Siouan-Iroquoian to Proto-Iroquoian}{286}{subsection.31.1}}
\@writefile{toc}{\contentsline {subsubsection}{\numberline {31.1.1}Proto-Iroquoian to Cherokee}{287}{subsubsection.31.1.1}}
\@writefile{toc}{\contentsline {subsubsection}{\numberline {31.1.2}Proto-Iroquoian to Proto-Northern Iroquoian}{288}{subsubsection.31.1.2}}
\@writefile{toc}{\contentsline {paragraph}{\numberline {31.1.2.1}Proto-Northern Iroquoian to Cayuga}{288}{paragraph.31.1.2.1}}
\@writefile{toc}{\contentsline {subparagraph}{\numberline {31.1.2.1.1}Cayuga to Upper Cayuga}{289}{subparagraph.31.1.2.1.1}}
\@writefile{toc}{\contentsline {subparagraph}{\numberline {31.1.2.1.2}Cayuga to Lower Cayuga}{290}{subparagraph.31.1.2.1.2}}
\@writefile{toc}{\contentsline {paragraph}{\numberline {31.1.2.2}Proto-Northern Iroquoian to Huron}{290}{paragraph.31.1.2.2}}
\@writefile{toc}{\contentsline {subparagraph}{\numberline {31.1.2.2.1}Huron to Wyandot}{291}{subparagraph.31.1.2.2.1}}
\@writefile{toc}{\contentsline {paragraph}{\numberline {31.1.2.3}Proto-Northern Iroquoian to Onondaga}{291}{paragraph.31.1.2.3}}
\@writefile{toc}{\contentsline {paragraph}{\numberline {31.1.2.4}Proto-Northern Iroquoian to Proto-Mohawk-Oneida}{292}{paragraph.31.1.2.4}}
\@writefile{toc}{\contentsline {subparagraph}{\numberline {31.1.2.4.1}Proto-Mohawk-Oneida to Mohawk}{293}{subparagraph.31.1.2.4.1}}
\@writefile{toc}{\contentsline {subparagraph}{\numberline {31.1.2.4.2}Proto-Mohawk-Oneida to Oneida}{293}{subparagraph.31.1.2.4.2}}
\@writefile{toc}{\contentsline {paragraph}{\numberline {31.1.2.5}Proto-Northern Iroquoian to Seneca}{294}{paragraph.31.1.2.5}}
\@writefile{toc}{\contentsline {paragraph}{\numberline {31.1.2.6}Proto-Northern Iroquoian to Tuscarora}{296}{paragraph.31.1.2.6}}
\@writefile{toc}{\contentsline {subparagraph}{\numberline {31.1.2.6.1}Tuscarora to Western Tuscarora}{297}{subparagraph.31.1.2.6.1}}
\@writefile{toc}{\contentsline {subparagraph}{\numberline {31.1.2.6.2}Tuscarora to Eastern Tuscarora}{297}{subparagraph.31.1.2.6.2}}
\@writefile{toc}{\contentsline {subsection}{\numberline {31.2}Proto-Siouan-Iroquoian to Proto-Siouan}{297}{subsection.31.2}}
\@writefile{toc}{\contentsline {subsubsection}{\numberline {31.2.1}Proto-Siouan to Catawba}{297}{subsubsection.31.2.1}}
\@writefile{toc}{\contentsline {subsubsection}{\numberline {31.2.2}Proto-Siouan to Dakota}{298}{subsubsection.31.2.2}}
\@writefile{toc}{\contentsline {paragraph}{\numberline {31.2.2.1}Dakota to Santee Dakota}{299}{paragraph.31.2.2.1}}
\@writefile{toc}{\contentsline {paragraph}{\numberline {31.2.2.2}Dakota to Teton Dakota}{299}{paragraph.31.2.2.2}}
\@writefile{toc}{\contentsline {paragraph}{\numberline {31.2.2.3}Dakota to Yankton Dakota}{299}{paragraph.31.2.2.3}}
\@writefile{toc}{\contentsline {subsubsection}{\numberline {31.2.3}Proto-Siouan to Mandan}{300}{subsubsection.31.2.3}}
\@writefile{toc}{\contentsline {subsubsection}{\numberline {31.2.4}Proto-Siouan to Proto-\v {C}iwere-Winnebago}{300}{subsubsection.31.2.4}}
\@writefile{toc}{\contentsline {paragraph}{\numberline {31.2.4.1}Proto-\v {C}iwere-Winnebago to \v {C}iwere}{301}{paragraph.31.2.4.1}}
\@writefile{toc}{\contentsline {paragraph}{\numberline {31.2.4.2}Proto-\v {C}iwere-Winnebago to Winnebago}{302}{paragraph.31.2.4.2}}
\@writefile{toc}{\contentsline {subsubsection}{\numberline {31.2.5}Proto-Siouan to Proto-Crow-Hidatsa}{302}{subsubsection.31.2.5}}
\@writefile{toc}{\contentsline {paragraph}{\numberline {31.2.5.1}Proto-Crow-Hidatsa to Crow}{303}{paragraph.31.2.5.1}}
\@writefile{toc}{\contentsline {paragraph}{\numberline {31.2.5.2}Proto-Crow-Hidatsa to Hidatsa}{303}{paragraph.31.2.5.2}}
\@writefile{toc}{\contentsline {subsubsection}{\numberline {31.2.6}Proto-Siouan to Proto-Dhegiha}{304}{subsubsection.31.2.6}}
\@writefile{toc}{\contentsline {paragraph}{\numberline {31.2.6.1}Proto-Dhegiha to Kansa}{304}{paragraph.31.2.6.1}}
\@writefile{toc}{\contentsline {paragraph}{\numberline {31.2.6.2}Proto-Dhegiha to Omaha-Ponca}{305}{paragraph.31.2.6.2}}
\@writefile{toc}{\contentsline {paragraph}{\numberline {31.2.6.3}Proto-Dhegiha to Osage}{306}{paragraph.31.2.6.3}}
\@writefile{toc}{\contentsline {paragraph}{\numberline {31.2.6.4}Proto-Dhegiha to Quapaw}{306}{paragraph.31.2.6.4}}
\@writefile{toc}{\contentsline {subsubsection}{\numberline {31.2.7}Proto-Siouan to Proto-Ohio-Valley}{307}{subsubsection.31.2.7}}
\@writefile{toc}{\contentsline {paragraph}{\numberline {31.2.7.1}Proto-Ohio-Valley to Biloxi}{307}{paragraph.31.2.7.1}}
\@writefile{toc}{\contentsline {paragraph}{\numberline {31.2.7.2}Proto-Ohio-Valley to Ofo}{308}{paragraph.31.2.7.2}}
\@writefile{toc}{\contentsline {paragraph}{\numberline {31.2.7.3}Proto-Ohio-Valley to Tutelo}{308}{paragraph.31.2.7.3}}
\@writefile{toc}{\contentsline {section}{\numberline {32}Tanoan}{310}{section.32}}
\@writefile{toc}{\contentsline {subsection}{\numberline {32.1}Proto-Tanoan to Jimez}{310}{subsection.32.1}}
\@writefile{toc}{\contentsline {subsection}{\numberline {32.2}Proto-Tanoan to Kiowa}{310}{subsection.32.2}}
\@writefile{toc}{\contentsline {subsection}{\numberline {32.3}Proto-Tanoan to Taos}{311}{subsection.32.3}}
\@writefile{toc}{\contentsline {subsection}{\numberline {32.4}Proto-Tanoan to Tewa}{311}{subsection.32.4}}
\@writefile{toc}{\contentsline {section}{\numberline {33}Trans-New Guinea}{312}{section.33}}
\@writefile{toc}{\contentsline {subsection}{\numberline {33.1}Proto-Trans New Guinea to Apal{\fontencoding  {T3}\selectfont  1}}{312}{subsection.33.1}}
\@writefile{toc}{\contentsline {subsection}{\numberline {33.2}Proto-Trans New Guinea to Asmat}{312}{subsection.33.2}}
\@writefile{toc}{\contentsline {subsection}{\numberline {33.3}Proto-Trans New Guinea to Binandere}{313}{subsection.33.3}}
\@writefile{toc}{\contentsline {subsection}{\numberline {33.4}Proto-Trans New Guinea to Kaeti}{313}{subsection.33.4}}
\@writefile{toc}{\contentsline {subsection}{\numberline {33.5}Proto-Trans New Guinea to Kalam}{313}{subsection.33.5}}
\@writefile{toc}{\contentsline {subsection}{\numberline {33.6}Proto-Trans New Guinea to K\^{a}te}{314}{subsection.33.6}}
\@writefile{toc}{\contentsline {subsection}{\numberline {33.7}Proto-Trans New Guinea to Kiwai}{314}{subsection.33.7}}
\@writefile{toc}{\contentsline {subsection}{\numberline {33.8}Proto-Trans New Guinea to Selepet}{314}{subsection.33.8}}
\@writefile{toc}{\contentsline {subsection}{\numberline {33.9}Proto-Trans New Guinea to Telefol}{314}{subsection.33.9}}
\@writefile{toc}{\contentsline {subsection}{\numberline {33.10}Proto-Trans New Guinea to Middle Wahgi}{315}{subsection.33.10}}
\@writefile{toc}{\contentsline {section}{\numberline {34}Uralic}{316}{section.34}}
\@writefile{toc}{\contentsline {subsection}{\numberline {34.1}Proto-Uralic to Pre-Finnic}{317}{subsection.34.1}}
\@writefile{toc}{\contentsline {subsubsection}{\numberline {34.1.1}Pre-Finnic to Proto-Finnic}{317}{subsubsection.34.1.1}}
\@writefile{toc}{\contentsline {paragraph}{\numberline {34.1.1.1}Proto-Finnic to Proto-Finnish}{318}{paragraph.34.1.1.1}}
\@writefile{toc}{\contentsline {subparagraph}{\numberline {34.1.1.1.1}Proto-Finnish to Standard Finnish}{319}{subparagraph.34.1.1.1.1}}
\@writefile{toc}{\contentsline {subparagraph}{\numberline {34.1.1.1.2}Standard Finnish to Modern Standard Finnish}{320}{subparagraph.34.1.1.1.2}}
\@writefile{toc}{\contentsline {subsubsection}{\numberline {34.1.2}Proto-Finnic to Livonian}{321}{subsubsection.34.1.2}}
\@writefile{toc}{\contentsline {section}{\numberline {35}Uto-Aztecan}{323}{section.35}}
\@writefile{toc}{\contentsline {subsection}{\numberline {35.1}Proto-Uto-Aztecan to Comanche}{323}{subsection.35.1}}
\@writefile{toc}{\contentsline {subsection}{\numberline {35.2}Proto-Uto-Aztecan to Hopi}{324}{subsection.35.2}}
\@writefile{toc}{\contentsline {subsection}{\numberline {35.3}Proto-Uto-Aztecan to Luise\~{n}o}{324}{subsection.35.3}}
\@writefile{toc}{\contentsline {subsection}{\numberline {35.4}Proto-Uto-Aztecan to Nahuatl}{325}{subsection.35.4}}
\@writefile{toc}{\contentsline {subsection}{\numberline {35.5}Proto-Uto-Aztecan to Tohono O'odham}{325}{subsection.35.5}}
\@writefile{toc}{\contentsline {section}{\numberline {36}Vasconic}{327}{section.36}}
\@writefile{toc}{\contentsline {subsection}{\numberline {36.1}Proto-Vasconic to Aquitanian}{327}{subsection.36.1}}
\@writefile{toc}{\contentsline {subsection}{\numberline {36.2}Proto-Basque to Basque}{328}{subsection.36.2}}
\@writefile{toc}{\contentsline {section}{\numberline {37}Vowel Shifts}{333}{section.37}}
\@writefile{toc}{\contentsline {subsection}{\numberline {37.1}7-to-5 Vowel Merger (Bantu)}{333}{subsection.37.1}}
\@writefile{toc}{\contentsline {subsection}{\numberline {37.2}California Vowel Shift (English)}{333}{subsection.37.2}}
\@writefile{toc}{\contentsline {subsection}{\numberline {37.3}Belgian and Netherlandish Dutch Monophthongization}{333}{subsection.37.3}}
\@writefile{toc}{\contentsline {subsection}{\numberline {37.4}Polder Dutch Vowel Shift}{334}{subsection.37.4}}
\@writefile{toc}{\contentsline {subsection}{\numberline {37.5}Old-English-to-Scots Vowel Shifts}{334}{subsection.37.5}}
\@writefile{toc}{\contentsline {subsection}{\numberline {37.6}Great Ngamo Tone Shift}{334}{subsection.37.6}}
\@writefile{toc}{\contentsline {subsection}{\numberline {37.7}Great Vowel Shift (English)}{335}{subsection.37.7}}
\@writefile{toc}{\contentsline {subsection}{\numberline {37.8}Greek Vowel Shift}{335}{subsection.37.8}}
\@writefile{toc}{\contentsline {subsection}{\numberline {37.9}Kikuyu Tone Shift}{335}{subsection.37.9}}
\@writefile{toc}{\contentsline {subsection}{\numberline {37.10}Late Proto-Finnic to Savonian Vowel Shift}{335}{subsection.37.10}}
\@writefile{toc}{\contentsline {subsection}{\numberline {37.11}Middle Chinese to Cantonese Vowel Shift (``The Inner-Outer Flip'')}{336}{subsection.37.11}}
\@writefile{toc}{\contentsline {subsection}{\numberline {37.12}Old Norse to Early Faroese Vowel Shift}{337}{subsection.37.12}}
\@writefile{toc}{\contentsline {subsubsection}{\numberline {37.12.1}Early Faroese to Old North Faroese Vowel Shift}{337}{subsubsection.37.12.1}}
\@writefile{toc}{\contentsline {paragraph}{\numberline {37.12.1.1}Old North Faroese to Late Old North Faroese Vowel Shift}{337}{paragraph.37.12.1.1}}
\@writefile{toc}{\contentsline {subparagraph}{\numberline {37.12.1.1.1}Late Old North Faroese to New North Faroese Vowel Shift}{337}{subparagraph.37.12.1.1.1}}
\@writefile{toc}{\contentsline {subsubsection}{\numberline {37.12.2}Early Faroese to Old South Faroese Vowel Shift}{338}{subsubsection.37.12.2}}
\@writefile{toc}{\contentsline {paragraph}{\numberline {37.12.2.1}Old South Faroese to Late Old South Faroese Vowel Shift}{338}{paragraph.37.12.2.1}}
\@writefile{toc}{\contentsline {subparagraph}{\numberline {37.12.2.1.1}Late Old South Faroese to New South Faroese Vowel Shift}{338}{subparagraph.37.12.2.1.1}}
\@writefile{toc}{\contentsline {subsection}{\numberline {37.13}Northern Cities Vowel Shift (English)}{339}{subsection.37.13}}
\@writefile{toc}{\contentsline {subsection}{\numberline {37.14}Old Norse to Faroese Vowel Shift}{339}{subsection.37.14}}
\@writefile{toc}{\contentsline {subsection}{\numberline {37.15}Pre-Slavic Vowel Changes}{339}{subsection.37.15}}
\@writefile{toc}{\contentsline {subsection}{\numberline {37.16}Proto-Japanese to Old Japanese Vowel Shift}{340}{subsection.37.16}}
\@writefile{toc}{\contentsline {subsection}{\numberline {37.17}Development of Proto-Lolo-Burmese -i(C)\# and -u(C)\# to Lahu}{340}{subsection.37.17}}
\@writefile{toc}{\contentsline {subsection}{\numberline {37.18}Proto-Maidun to Nisenian Vowel Shift}{340}{subsection.37.18}}
\@writefile{toc}{\contentsline {subsection}{\numberline {37.19}South African Chain Shift (English)}{340}{subsection.37.19}}
\@writefile{toc}{\contentsline {subsection}{\numberline {37.20}Southern [United States] Shift (English)}{341}{subsection.37.20}}
\@writefile{toc}{\contentsline {section}{\numberline {38}Most-Wanted Sound Changes}{342}{section.38}}
\@writefile{toc}{\contentsline {subsection}{\numberline {38.1}List 1: Simple Consonant Changes}{342}{subsection.38.1}}
\@writefile{toc}{\contentsline {subsection}{\numberline {38.2}List 2: Conditional or complex consonant changes}{343}{subsection.38.2}}
\@writefile{toc}{\contentsline {subsection}{\numberline {38.3}List 3: Vowels}{343}{subsection.38.3}}
\@writefile{toc}{\contentsline {subsection}{\numberline {38.4}List 4: Other}{343}{subsection.38.4}}
