# Fdb version 3
["pdflatex"] 1496388878 "html/index-diachronica.tex" "index-diachronica.pdf" "index-diachronica" 1496388890
  "/usr/local/texlive/2014/texmf-dist/fonts/map/fontname/texfonts.map" 1272929888 3287 e6b82fe08f5336d4d5ebc73fb1152e87 ""
  "/usr/local/texlive/2014/texmf-dist/fonts/tfm/adobe/zapfding/pzdr.tfm" 1136768653 1528 f853c4d1b4e0550255e02831fdc8496f ""
  "/usr/local/texlive/2014/texmf-dist/fonts/tfm/public/amsfonts/cmextra/cmex7.tfm" 1246382020 1004 54797486969f23fa377b128694d548df ""
  "/usr/local/texlive/2014/texmf-dist/fonts/tfm/public/amsfonts/cmextra/cmex8.tfm" 1246382020 988 bdf658c3bfc2d96d3c8b02cfc1c94c20 ""
  "/usr/local/texlive/2014/texmf-dist/fonts/tfm/public/amsfonts/symbols/msam10.tfm" 1246382020 916 f87d7c45f9c908e672703b83b72241a3 ""
  "/usr/local/texlive/2014/texmf-dist/fonts/tfm/public/amsfonts/symbols/msam7.tfm" 1246382020 928 2dc8d444221b7a635bb58038579b861a ""
  "/usr/local/texlive/2014/texmf-dist/fonts/tfm/public/amsfonts/symbols/msbm10.tfm" 1246382020 908 2921f8a10601f252058503cc6570e581 ""
  "/usr/local/texlive/2014/texmf-dist/fonts/tfm/public/amsfonts/symbols/msbm7.tfm" 1246382020 940 228d6584342e91276bf566bcf9716b83 ""
  "/usr/local/texlive/2014/texmf-dist/fonts/tfm/public/cm/cmbx10.tfm" 1136768653 1328 c834bbb027764024c09d3d2bf908b5f0 ""
  "/usr/local/texlive/2014/texmf-dist/fonts/tfm/public/cm/cmex10.tfm" 1136768653 992 662f679a0b3d2d53c1b94050fdaa3f50 ""
  "/usr/local/texlive/2014/texmf-dist/fonts/tfm/public/cm/cmmi10.tfm" 1136768653 1528 abec98dbc43e172678c11b3b9031252a ""
  "/usr/local/texlive/2014/texmf-dist/fonts/tfm/public/cm/cmmi12.tfm" 1136768653 1524 4414a8315f39513458b80dfc63bff03a ""
  "/usr/local/texlive/2014/texmf-dist/fonts/tfm/public/cm/cmmi6.tfm" 1136768653 1512 f21f83efb36853c0b70002322c1ab3ad ""
  "/usr/local/texlive/2014/texmf-dist/fonts/tfm/public/cm/cmmi8.tfm" 1136768653 1520 eccf95517727cb11801f4f1aee3a21b4 ""
  "/usr/local/texlive/2014/texmf-dist/fonts/tfm/public/cm/cmr10.tfm" 1136768653 1296 45809c5a464d5f32c8f98ba97c1bb47f ""
  "/usr/local/texlive/2014/texmf-dist/fonts/tfm/public/cm/cmr12.tfm" 1136768653 1288 655e228510b4c2a1abe905c368440826 ""
  "/usr/local/texlive/2014/texmf-dist/fonts/tfm/public/cm/cmr6.tfm" 1136768653 1300 b62933e007d01cfd073f79b963c01526 ""
  "/usr/local/texlive/2014/texmf-dist/fonts/tfm/public/cm/cmr8.tfm" 1136768653 1292 21c1c5bfeaebccffdb478fd231a0997d ""
  "/usr/local/texlive/2014/texmf-dist/fonts/tfm/public/cm/cmsl10.tfm" 1136768653 1508 efecb4a315fe0975509670a272d75ef5 ""
  "/usr/local/texlive/2014/texmf-dist/fonts/tfm/public/cm/cmss10.tfm" 1136768653 1316 b636689f1933f24d1294acdf6041daaa ""
  "/usr/local/texlive/2014/texmf-dist/fonts/tfm/public/cm/cmsy10.tfm" 1136768653 1124 6c73e740cf17375f03eec0ee63599741 ""
  "/usr/local/texlive/2014/texmf-dist/fonts/tfm/public/cm/cmsy6.tfm" 1136768653 1116 933a60c408fc0a863a92debe84b2d294 ""
  "/usr/local/texlive/2014/texmf-dist/fonts/tfm/public/cm/cmsy8.tfm" 1136768653 1120 8b7d695260f3cff42e636090a8002094 ""
  "/usr/local/texlive/2014/texmf-dist/fonts/tfm/public/cm/cmti10.tfm" 1136768653 1480 aa8e34af0eb6a2941b776984cf1dfdc4 ""
  "/usr/local/texlive/2014/texmf-dist/fonts/tfm/public/latex-fonts/lasy6.tfm" 1136768653 520 4889cce2180234b97cad636b6039c722 ""
  "/usr/local/texlive/2014/texmf-dist/fonts/tfm/public/tipa/tipa10.tfm" 1136768653 1920 8604b12a16d79ccdaa2f671dda04ba87 ""
  "/usr/local/texlive/2014/texmf-dist/tex/generic/ifxetex/ifxetex.sty" 1284331290 1458 43ab4710dc82f3edeabecd0d099626b2 ""
  "/usr/local/texlive/2014/texmf-dist/tex/generic/oberdiek/etexcmds.sty" 1335995445 7612 c47308d923ec19888707b0f1792b326a ""
  "/usr/local/texlive/2014/texmf-dist/tex/generic/oberdiek/gettitlestring.sty" 1303254447 8237 52810bdb4db2270e717422560a104aea ""
  "/usr/local/texlive/2014/texmf-dist/tex/generic/oberdiek/hobsub-generic.sty" 1338332114 189108 8b3553a56c83ff61acecb36b75d817e2 ""
  "/usr/local/texlive/2014/texmf-dist/tex/generic/oberdiek/hobsub-hyperref.sty" 1338332114 70752 45fa392800e07da61fa13446ad46b34d ""
  "/usr/local/texlive/2014/texmf-dist/tex/generic/oberdiek/ifluatex.sty" 1303254447 7324 11d14f318d865f420e692d4e6c9c18c3 ""
  "/usr/local/texlive/2014/texmf-dist/tex/generic/oberdiek/ifpdf.sty" 1303254447 7140 ece2cc23d9f20e1f53975ac167f42d3e ""
  "/usr/local/texlive/2014/texmf-dist/tex/generic/oberdiek/ifvtex.sty" 1335995445 6797 68c89f65e01894df882dd523d3fc0a8f ""
  "/usr/local/texlive/2014/texmf-dist/tex/generic/oberdiek/infwarerr.sty" 1335995445 8253 3bdedc8409aa5d290a2339be6f09af03 ""
  "/usr/local/texlive/2014/texmf-dist/tex/generic/oberdiek/kvdefinekeys.sty" 1335995445 5152 387d9200f396b498d5fd679ae44ed898 ""
  "/usr/local/texlive/2014/texmf-dist/tex/generic/oberdiek/kvsetkeys.sty" 1335995445 14040 8de9f47fabc4ca3bd69b6d795e32751c ""
  "/usr/local/texlive/2014/texmf-dist/tex/generic/oberdiek/ltxcmds.sty" 1335995445 18425 775b341047ce304520cc7c11ca41392e ""
  "/usr/local/texlive/2014/texmf-dist/tex/generic/oberdiek/pdftexcmds.sty" 1335995445 19987 01cb2f3c1d21e5f05711b7fd50b17f2a ""
  "/usr/local/texlive/2014/texmf-dist/tex/generic/oberdiek/se-ascii-print.def" 1335995445 3154 c8d7dcc61fa68a383356ee2a1d23927e ""
  "/usr/local/texlive/2014/texmf-dist/tex/generic/oberdiek/stringenc.sty" 1335995445 21411 70ecd8a9f06f9e1b670126554a62ea3e ""
  "/usr/local/texlive/2014/texmf-dist/tex/generic/ulem/ulem.sty" 1338588421 23756 854c01b779030ff5b2aad88ba7a119f2 ""
  "/usr/local/texlive/2014/texmf-dist/tex/latex/amsfonts/amsfonts.sty" 1359763108 5949 3f3fd50a8cc94c3d4cbf4fc66cd3df1c ""
  "/usr/local/texlive/2014/texmf-dist/tex/latex/amsfonts/amssymb.sty" 1359763108 13829 94730e64147574077f8ecfea9bb69af4 ""
  "/usr/local/texlive/2014/texmf-dist/tex/latex/amsfonts/umsa.fd" 1359763108 961 6518c6525a34feb5e8250ffa91731cff ""
  "/usr/local/texlive/2014/texmf-dist/tex/latex/amsfonts/umsb.fd" 1359763108 961 d02606146ba5601b5645f987c92e6193 ""
  "/usr/local/texlive/2014/texmf-dist/tex/latex/base/article.cls" 1399675188 20496 66dd832c447553f6776fbeac03bb0580 ""
  "/usr/local/texlive/2014/texmf-dist/tex/latex/base/fixltx2e.sty" 1400196978 15780 3cddba9d640cae856fe88aaf6de22e6d ""
  "/usr/local/texlive/2014/texmf-dist/tex/latex/base/fontenc.sty" 1399675188 4360 ff7a73ddc57baaf1815161c4698e9fb4 ""
  "/usr/local/texlive/2014/texmf-dist/tex/latex/base/ot1enc.def" 1399675188 4139 b9775b4f55a183bc4f4b291814bf3c90 ""
  "/usr/local/texlive/2014/texmf-dist/tex/latex/base/size11.clo" 1399675188 8983 e08a9a7009d9a8f8c6507333f96e336e ""
  "/usr/local/texlive/2014/texmf-dist/tex/latex/base/textcomp.sty" 1399675188 15434 59b1a030889f675367b0e0e6a06a3905 ""
  "/usr/local/texlive/2014/texmf-dist/tex/latex/base/ts1cmr.fd" 1399675188 2005 93bd6bd567069079fb8ff3cfd3ec04bb ""
  "/usr/local/texlive/2014/texmf-dist/tex/latex/base/ts1enc.def" 1399675188 7555 e1df58a0e9b617dc46ac9dd0ca2a0fbb ""
  "/usr/local/texlive/2014/texmf-dist/tex/latex/etex-pkg/etex.sty" 1214928088 15274 9f6a2469ac8ebe6168e12b8f32cbe599 ""
  "/usr/local/texlive/2014/texmf-dist/tex/latex/euenc/eu1enc.def" 1284849341 1115 6f8850603672e58af2cd599bee6ade7d ""
  "/usr/local/texlive/2014/texmf-dist/tex/latex/euenc/eu1lmr.fd" 1266195411 2284 11da099e92da4724f712149045c96354 ""
  "/usr/local/texlive/2014/texmf-dist/tex/latex/euenc/eu1lmss.fd" 1266195411 1546 f73305b0ca2520efb4953d14dfcb9cb7 ""
  "/usr/local/texlive/2014/texmf-dist/tex/latex/euenc/eu1lmtt.fd" 1266195411 2375 048018091c9aef586c688eaf2feff1a1 ""
  "/usr/local/texlive/2014/texmf-dist/tex/latex/fontspec/fontspec-patches.sty" 1369177509 3776 ae6208118ce42d8edee845bfcbbfba85 ""
  "/usr/local/texlive/2014/texmf-dist/tex/latex/fontspec/fontspec-xetex.sty" 1369177509 85048 a760b1cc28a1f64bca53e4ddd1adb4ef ""
  "/usr/local/texlive/2014/texmf-dist/tex/latex/fontspec/fontspec.cfg" 1284849391 216 8835bd68d0b21e3df98697b681d8364f ""
  "/usr/local/texlive/2014/texmf-dist/tex/latex/fontspec/fontspec.sty" 1369177509 9565 f9ec1d8d5e5344cdfa4f4e6c30e6dd3e ""
  "/usr/local/texlive/2014/texmf-dist/tex/latex/geometry/geometry.sty" 1284422013 40502 e003406220954b0716679d7928aedd8a ""
  "/usr/local/texlive/2014/texmf-dist/tex/latex/graphics/graphics.sty" 1254151804 14183 42a8fc761b806986eef292369afc2988 ""
  "/usr/local/texlive/2014/texmf-dist/tex/latex/graphics/graphicx.sty" 1399675188 7911 bf0a64f89bfb668c239ddf6324bf4afb ""
  "/usr/local/texlive/2014/texmf-dist/tex/latex/graphics/keyval.sty" 1399675188 2317 0ace13e225e9d95dd9defe947adc9fbb ""
  "/usr/local/texlive/2014/texmf-dist/tex/latex/graphics/trig.sty" 1156702488 3153 c50e6bd54d2dd3933fc52bcf369bec4a ""
  "/usr/local/texlive/2014/texmf-dist/tex/latex/hyperref/hxetex.def" 1352416072 44958 bfa1a9a3364a325e541cf3ab22104dc1 ""
  "/usr/local/texlive/2014/texmf-dist/tex/latex/hyperref/hyperref.sty" 1352416072 231792 5fc9dc7dd667e773a766ecc63bba7f4b ""
  "/usr/local/texlive/2014/texmf-dist/tex/latex/hyperref/nameref.sty" 1351899753 12847 25b617d63258c4f72870c883493a3cf8 ""
  "/usr/local/texlive/2014/texmf-dist/tex/latex/hyperref/pd1enc.def" 1352416072 14005 155ac8fad2e5dd7c2cdd130fabd96633 ""
  "/usr/local/texlive/2014/texmf-dist/tex/latex/hyperref/puenc.def" 1352416072 122263 ec12fdd2044f1507e5ae92ee7a5bbfae ""
  "/usr/local/texlive/2014/texmf-dist/tex/latex/l3kernel/expl3-code.tex" 1400796003 589597 cef0f6cce5c067eebc83177983c9795f ""
  "/usr/local/texlive/2014/texmf-dist/tex/latex/l3kernel/expl3.sty" 1400796003 9091 cd531ae9ee5b15009f98115826324e39 ""
  "/usr/local/texlive/2014/texmf-dist/tex/latex/l3packages/xparse/xparse.sty" 1399327278 56501 3c9d53f139ab519c8408566ed091704d ""
  "/usr/local/texlive/2014/texmf-dist/tex/latex/latexconfig/graphics.cfg" 1278958963 3563 d35e897cae3b8c6848f6677b73370b54 ""
  "/usr/local/texlive/2014/texmf-dist/tex/latex/latexconfig/hyperref.cfg" 1254097189 235 6031e5765137be07eed51a510b2b8fb7 ""
  "/usr/local/texlive/2014/texmf-dist/tex/latex/oberdiek/auxhook.sty" 1303254447 3834 707ef09f31d7d2ea47ba89974755dfe0 ""
  "/usr/local/texlive/2014/texmf-dist/tex/latex/oberdiek/epstopdf-base.sty" 1303254447 12029 04d7fdf76e0464c23b5aa3a727952d7c ""
  "/usr/local/texlive/2014/texmf-dist/tex/latex/oberdiek/epstopdf.sty" 1303254447 4167 66162eac0c3ee2df73bb1973084305c9 ""
  "/usr/local/texlive/2014/texmf-dist/tex/latex/oberdiek/grfext.sty" 1335995445 7075 bd0c34fbf1ae8fd1debd2a554e41b2d5 ""
  "/usr/local/texlive/2014/texmf-dist/tex/latex/oberdiek/kvoptions.sty" 1335995445 22417 c74ff4af6a1aa2b65d1924020edbbe11 ""
  "/usr/local/texlive/2014/texmf-dist/tex/latex/oberdiek/rerunfilecheck.sty" 1303254447 9581 1158efc648bc09d5064db5703c882159 ""
  "/usr/local/texlive/2014/texmf-dist/tex/latex/parskip/parskip.sty" 1285887441 2763 02a40cc5a32805c41d919cfbdba7e99a ""
  "/usr/local/texlive/2014/texmf-dist/tex/latex/tipa/t3cmr.fd" 1137110956 1257 fd5b1c2f0106f9cf12cdb2ff961987c5 ""
  "/usr/local/texlive/2014/texmf-dist/tex/latex/tipa/t3enc.def" 1137110956 26483 c461a68c34040cb0d96c43e86c012a6d ""
  "/usr/local/texlive/2014/texmf-dist/tex/latex/tipa/tipa.sty" 1137110956 21394 82fa9965637ca62399434739ae5998f6 ""
  "/usr/local/texlive/2014/texmf-dist/tex/latex/underscore/underscore.sty" 1273862289 10722 1e2a550b7f07af2b195b71b3fc7bf3ff ""
  "/usr/local/texlive/2014/texmf-dist/tex/latex/url/url.sty" 1388531844 12796 8edb7d69a20b857904dd0ea757c14ec9 ""
  "/usr/local/texlive/2014/texmf-dist/tex/xelatex/xetex-def/xetex.def" 1399065204 17159 a477269947c644113bd414c39e6f0de3 ""
  "/usr/local/texlive/2014/texmf-dist/tex/xelatex/xunicode/xunicode.sty" 1315783907 205722 8027ed7ab2230086d647802c25f3ee42 ""
  "/usr/local/texlive/2014/texmf-dist/web2c/texmf.cnf" 1398200874 31722 4f52421e59a4b9e910cf18e64c1f2b4a ""
  "/usr/local/texlive/2014/texmf-var/web2c/xetex/xelatex.fmt" 1401026031 3170295 e39db88238db0131fe0d64f8a6d7f7da ""
  "/usr/local/texlive/2014/texmf.cnf" 1401025936 577 a59edbde8d3a8c549d0eeaab1739e2ff ""
  "html/index-diachronica.tex" 1496388871 795013 e4903913596a16d54b7ca4f64f8ae303 ""
  "index-diachronica.aux" 1496388889 99706 3dff612f77bde56a31a2105674103175 ""
  "index-diachronica.out" 1496388889 77386 d2483d308abf06846a897c0001f1204b ""
  "index-diachronica.toc" 1496388889 84437 f602a5dcb9f69bcc0eee468e41a370a4 ""
  (generated)
  "index-diachronica.out"
  "index-diachronica.aux"
  "index-diachronica.log"
  "index-diachronica.toc"
  "index-diachronica.pdf"
