PWD /Users/chri/Documents/Programs/diachronica
INPUT /usr/local/texlive/2014/texmf.cnf
INPUT /usr/local/texlive/2014/texmf-dist/web2c/texmf.cnf
INPUT /usr/local/texlive/2014/texmf-var/web2c/xetex/xelatex.fmt
INPUT html/index-diachronica.tex
OUTPUT index-diachronica.log
INPUT /usr/local/texlive/2014/texmf-dist/tex/latex/base/article.cls
INPUT /usr/local/texlive/2014/texmf-dist/tex/latex/base/article.cls
INPUT /usr/local/texlive/2014/texmf-dist/tex/latex/base/size11.clo
INPUT /usr/local/texlive/2014/texmf-dist/tex/latex/base/size11.clo
INPUT /usr/local/texlive/2014/texmf-dist/fonts/map/fontname/texfonts.map
INPUT /usr/local/texlive/2014/texmf-dist/fonts/map/fontname/texfonts.map
INPUT /usr/local/texlive/2014/texmf-dist/fonts/tfm/public/cm/cmr10.tfm
INPUT /usr/local/texlive/2014/texmf-dist/tex/latex/geometry/geometry.sty
INPUT /usr/local/texlive/2014/texmf-dist/tex/latex/geometry/geometry.sty
INPUT /usr/local/texlive/2014/texmf-dist/tex/latex/graphics/keyval.sty
INPUT /usr/local/texlive/2014/texmf-dist/tex/latex/graphics/keyval.sty
INPUT /usr/local/texlive/2014/texmf-dist/tex/generic/oberdiek/ifpdf.sty
INPUT /usr/local/texlive/2014/texmf-dist/tex/generic/oberdiek/ifpdf.sty
INPUT /usr/local/texlive/2014/texmf-dist/tex/generic/oberdiek/ifvtex.sty
INPUT /usr/local/texlive/2014/texmf-dist/tex/generic/oberdiek/ifvtex.sty
INPUT /usr/local/texlive/2014/texmf-dist/tex/generic/ifxetex/ifxetex.sty
INPUT /usr/local/texlive/2014/texmf-dist/tex/generic/ifxetex/ifxetex.sty
INPUT /usr/local/texlive/2014/texmf-dist/tex/latex/parskip/parskip.sty
INPUT /usr/local/texlive/2014/texmf-dist/tex/latex/parskip/parskip.sty
INPUT /usr/local/texlive/2014/texmf-dist/tex/latex/graphics/graphicx.sty
INPUT /usr/local/texlive/2014/texmf-dist/tex/latex/graphics/graphicx.sty
INPUT /usr/local/texlive/2014/texmf-dist/tex/latex/graphics/graphics.sty
INPUT /usr/local/texlive/2014/texmf-dist/tex/latex/graphics/graphics.sty
INPUT /usr/local/texlive/2014/texmf-dist/tex/latex/graphics/trig.sty
INPUT /usr/local/texlive/2014/texmf-dist/tex/latex/graphics/trig.sty
INPUT /usr/local/texlive/2014/texmf-dist/tex/latex/latexconfig/graphics.cfg
INPUT /usr/local/texlive/2014/texmf-dist/tex/latex/latexconfig/graphics.cfg
INPUT /usr/local/texlive/2014/texmf-dist/tex/xelatex/xetex-def/xetex.def
INPUT /usr/local/texlive/2014/texmf-dist/tex/xelatex/xetex-def/xetex.def
INPUT /usr/local/texlive/2014/texmf-dist/tex/latex/amsfonts/amssymb.sty
INPUT /usr/local/texlive/2014/texmf-dist/tex/latex/amsfonts/amssymb.sty
INPUT /usr/local/texlive/2014/texmf-dist/tex/latex/amsfonts/amsfonts.sty
INPUT /usr/local/texlive/2014/texmf-dist/tex/latex/amsfonts/amsfonts.sty
INPUT /usr/local/texlive/2014/texmf-dist/tex/latex/oberdiek/epstopdf.sty
INPUT /usr/local/texlive/2014/texmf-dist/tex/latex/oberdiek/epstopdf.sty
INPUT /usr/local/texlive/2014/texmf-dist/tex/latex/oberdiek/epstopdf-base.sty
INPUT /usr/local/texlive/2014/texmf-dist/tex/latex/oberdiek/epstopdf-base.sty
INPUT /usr/local/texlive/2014/texmf-dist/tex/generic/oberdiek/infwarerr.sty
INPUT /usr/local/texlive/2014/texmf-dist/tex/generic/oberdiek/infwarerr.sty
INPUT /usr/local/texlive/2014/texmf-dist/tex/latex/oberdiek/grfext.sty
INPUT /usr/local/texlive/2014/texmf-dist/tex/latex/oberdiek/grfext.sty
INPUT /usr/local/texlive/2014/texmf-dist/tex/generic/oberdiek/kvdefinekeys.sty
INPUT /usr/local/texlive/2014/texmf-dist/tex/generic/oberdiek/kvdefinekeys.sty
INPUT /usr/local/texlive/2014/texmf-dist/tex/generic/oberdiek/ltxcmds.sty
INPUT /usr/local/texlive/2014/texmf-dist/tex/generic/oberdiek/ltxcmds.sty
INPUT /usr/local/texlive/2014/texmf-dist/tex/latex/oberdiek/kvoptions.sty
INPUT /usr/local/texlive/2014/texmf-dist/tex/latex/oberdiek/kvoptions.sty
INPUT /usr/local/texlive/2014/texmf-dist/tex/generic/oberdiek/kvsetkeys.sty
INPUT /usr/local/texlive/2014/texmf-dist/tex/generic/oberdiek/kvsetkeys.sty
INPUT /usr/local/texlive/2014/texmf-dist/tex/generic/oberdiek/etexcmds.sty
INPUT /usr/local/texlive/2014/texmf-dist/tex/generic/oberdiek/etexcmds.sty
INPUT /usr/local/texlive/2014/texmf-dist/tex/generic/oberdiek/ifluatex.sty
INPUT /usr/local/texlive/2014/texmf-dist/tex/generic/oberdiek/ifluatex.sty
INPUT /usr/local/texlive/2014/texmf-dist/tex/generic/oberdiek/pdftexcmds.sty
INPUT /usr/local/texlive/2014/texmf-dist/tex/generic/oberdiek/pdftexcmds.sty
INPUT /usr/local/texlive/2014/texmf-dist/tex/latex/base/textcomp.sty
INPUT /usr/local/texlive/2014/texmf-dist/tex/latex/base/textcomp.sty
INPUT /usr/local/texlive/2014/texmf-dist/tex/latex/base/ts1enc.def
INPUT /usr/local/texlive/2014/texmf-dist/tex/latex/base/ts1enc.def
INPUT /usr/local/texlive/2014/texmf-dist/tex/latex/tipa/tipa.sty
INPUT /usr/local/texlive/2014/texmf-dist/tex/latex/tipa/tipa.sty
INPUT /usr/local/texlive/2014/texmf-dist/tex/latex/base/fontenc.sty
INPUT /usr/local/texlive/2014/texmf-dist/tex/latex/base/fontenc.sty
INPUT /usr/local/texlive/2014/texmf-dist/tex/latex/tipa/t3enc.def
INPUT /usr/local/texlive/2014/texmf-dist/tex/latex/tipa/t3enc.def
INPUT /usr/local/texlive/2014/texmf-dist/fonts/tfm/public/cm/cmsl10.tfm
INPUT /usr/local/texlive/2014/texmf-dist/fonts/tfm/public/cm/cmti10.tfm
INPUT /usr/local/texlive/2014/texmf-dist/fonts/tfm/public/cm/cmbx10.tfm
INPUT /usr/local/texlive/2014/texmf-dist/fonts/tfm/public/cm/cmss10.tfm
INPUT /usr/local/texlive/2014/texmf-dist/tex/latex/base/ot1enc.def
INPUT /usr/local/texlive/2014/texmf-dist/tex/latex/base/ot1enc.def
INPUT /usr/local/texlive/2014/texmf-dist/tex/latex/hyperref/hyperref.sty
INPUT /usr/local/texlive/2014/texmf-dist/tex/latex/hyperref/hyperref.sty
INPUT /usr/local/texlive/2014/texmf-dist/tex/generic/oberdiek/hobsub-hyperref.sty
INPUT /usr/local/texlive/2014/texmf-dist/tex/generic/oberdiek/hobsub-hyperref.sty
INPUT /usr/local/texlive/2014/texmf-dist/tex/generic/oberdiek/hobsub-hyperref.sty
INPUT /usr/local/texlive/2014/texmf-dist/tex/generic/oberdiek/hobsub-generic.sty
INPUT /usr/local/texlive/2014/texmf-dist/tex/generic/oberdiek/hobsub-generic.sty
INPUT /usr/local/texlive/2014/texmf-dist/tex/latex/oberdiek/auxhook.sty
INPUT /usr/local/texlive/2014/texmf-dist/tex/latex/oberdiek/auxhook.sty
INPUT /usr/local/texlive/2014/texmf-dist/tex/latex/hyperref/pd1enc.def
INPUT /usr/local/texlive/2014/texmf-dist/tex/latex/hyperref/pd1enc.def
INPUT /usr/local/texlive/2014/texmf-dist/tex/latex/latexconfig/hyperref.cfg
INPUT /usr/local/texlive/2014/texmf-dist/tex/latex/latexconfig/hyperref.cfg
INPUT /usr/local/texlive/2014/texmf-dist/tex/latex/url/url.sty
INPUT /usr/local/texlive/2014/texmf-dist/tex/latex/url/url.sty
INPUT /usr/local/texlive/2014/texmf-dist/fonts/tfm/adobe/zapfding/pzdr.tfm
INPUT /usr/local/texlive/2014/texmf-dist/tex/latex/hyperref/hxetex.def
INPUT /usr/local/texlive/2014/texmf-dist/tex/latex/hyperref/hxetex.def
INPUT /usr/local/texlive/2014/texmf-dist/tex/latex/hyperref/puenc.def
INPUT /usr/local/texlive/2014/texmf-dist/tex/latex/hyperref/puenc.def
INPUT /usr/local/texlive/2014/texmf-dist/tex/generic/oberdiek/stringenc.sty
INPUT /usr/local/texlive/2014/texmf-dist/tex/generic/oberdiek/stringenc.sty
INPUT /usr/local/texlive/2014/texmf-dist/tex/latex/oberdiek/rerunfilecheck.sty
INPUT /usr/local/texlive/2014/texmf-dist/tex/latex/oberdiek/rerunfilecheck.sty
INPUT /usr/local/texlive/2014/texmf-dist/tex/generic/ulem/ulem.sty
INPUT /usr/local/texlive/2014/texmf-dist/tex/generic/ulem/ulem.sty
INPUT /usr/local/texlive/2014/texmf-dist/fonts/tfm/public/latex-fonts/lasy6.tfm
INPUT /usr/local/texlive/2014/texmf-dist/tex/latex/underscore/underscore.sty
INPUT /usr/local/texlive/2014/texmf-dist/tex/latex/underscore/underscore.sty
INPUT /usr/local/texlive/2014/texmf-dist/tex/latex/fontspec/fontspec.sty
INPUT /usr/local/texlive/2014/texmf-dist/tex/latex/fontspec/fontspec.sty
INPUT /usr/local/texlive/2014/texmf-dist/tex/latex/l3kernel/expl3.sty
INPUT /usr/local/texlive/2014/texmf-dist/tex/latex/l3kernel/expl3.sty
INPUT /usr/local/texlive/2014/texmf-dist/tex/latex/l3kernel/expl3-code.tex
INPUT /usr/local/texlive/2014/texmf-dist/tex/latex/l3kernel/expl3-code.tex
INPUT /usr/local/texlive/2014/texmf-dist/tex/latex/etex-pkg/etex.sty
INPUT /usr/local/texlive/2014/texmf-dist/tex/latex/etex-pkg/etex.sty
INPUT /usr/local/texlive/2014/texmf-dist/tex/latex/l3packages/xparse/xparse.sty
INPUT /usr/local/texlive/2014/texmf-dist/tex/latex/l3packages/xparse/xparse.sty
INPUT /usr/local/texlive/2014/texmf-dist/tex/latex/fontspec/fontspec-patches.sty
INPUT /usr/local/texlive/2014/texmf-dist/tex/latex/fontspec/fontspec-patches.sty
INPUT /usr/local/texlive/2014/texmf-dist/tex/latex/base/fixltx2e.sty
INPUT /usr/local/texlive/2014/texmf-dist/tex/latex/base/fixltx2e.sty
INPUT /usr/local/texlive/2014/texmf-dist/tex/latex/fontspec/fontspec-xetex.sty
INPUT /usr/local/texlive/2014/texmf-dist/tex/latex/fontspec/fontspec-xetex.sty
INPUT /usr/local/texlive/2014/texmf-dist/tex/latex/base/fontenc.sty
INPUT /usr/local/texlive/2014/texmf-dist/tex/latex/base/fontenc.sty
INPUT /usr/local/texlive/2014/texmf-dist/tex/latex/euenc/eu1enc.def
INPUT /usr/local/texlive/2014/texmf-dist/tex/latex/euenc/eu1enc.def
INPUT /usr/local/texlive/2014/texmf-dist/tex/latex/euenc/eu1lmr.fd
INPUT /usr/local/texlive/2014/texmf-dist/tex/latex/euenc/eu1lmr.fd
INPUT /usr/local/texlive/2014/texmf-dist/tex/xelatex/xunicode/xunicode.sty
INPUT /usr/local/texlive/2014/texmf-dist/tex/xelatex/xunicode/xunicode.sty
INPUT /usr/local/texlive/2014/texmf-dist/tex/latex/tipa/t3enc.def
INPUT /usr/local/texlive/2014/texmf-dist/tex/latex/euenc/eu1lmss.fd
INPUT /usr/local/texlive/2014/texmf-dist/tex/latex/euenc/eu1lmss.fd
INPUT /usr/local/texlive/2014/texmf-dist/tex/latex/fontspec/fontspec.cfg
INPUT /usr/local/texlive/2014/texmf-dist/tex/latex/fontspec/fontspec.cfg
INPUT index-diachronica.aux
INPUT index-diachronica.aux
OUTPUT index-diachronica.aux
INPUT /usr/local/texlive/2014/texmf-dist/tex/latex/base/ts1cmr.fd
INPUT /usr/local/texlive/2014/texmf-dist/tex/latex/base/ts1cmr.fd
INPUT /usr/local/texlive/2014/texmf-dist/tex/latex/tipa/t3cmr.fd
INPUT /usr/local/texlive/2014/texmf-dist/tex/latex/tipa/t3cmr.fd
INPUT /usr/local/texlive/2014/texmf-dist/tex/latex/hyperref/nameref.sty
INPUT /usr/local/texlive/2014/texmf-dist/tex/latex/hyperref/nameref.sty
INPUT /usr/local/texlive/2014/texmf-dist/tex/generic/oberdiek/gettitlestring.sty
INPUT /usr/local/texlive/2014/texmf-dist/tex/generic/oberdiek/gettitlestring.sty
INPUT index-diachronica.out
INPUT index-diachronica.out
INPUT index-diachronica.out
INPUT index-diachronica.out
OUTPUT index-diachronica.out
INPUT /usr/local/texlive/2014/texmf-dist/fonts/tfm/public/cm/cmmi12.tfm
INPUT /usr/local/texlive/2014/texmf-dist/fonts/tfm/public/cm/cmmi8.tfm
INPUT /usr/local/texlive/2014/texmf-dist/fonts/tfm/public/cm/cmmi6.tfm
INPUT /usr/local/texlive/2014/texmf-dist/fonts/tfm/public/cm/cmsy10.tfm
INPUT /usr/local/texlive/2014/texmf-dist/fonts/tfm/public/cm/cmsy8.tfm
INPUT /usr/local/texlive/2014/texmf-dist/fonts/tfm/public/cm/cmsy6.tfm
INPUT /usr/local/texlive/2014/texmf-dist/fonts/tfm/public/cm/cmex10.tfm
INPUT /usr/local/texlive/2014/texmf-dist/fonts/tfm/public/amsfonts/cmextra/cmex8.tfm
INPUT /usr/local/texlive/2014/texmf-dist/fonts/tfm/public/amsfonts/cmextra/cmex7.tfm
INPUT /usr/local/texlive/2014/texmf-dist/tex/latex/amsfonts/umsa.fd
INPUT /usr/local/texlive/2014/texmf-dist/tex/latex/amsfonts/umsa.fd
INPUT /usr/local/texlive/2014/texmf-dist/fonts/tfm/public/amsfonts/symbols/msam10.tfm
INPUT /usr/local/texlive/2014/texmf-dist/fonts/tfm/public/amsfonts/symbols/msam10.tfm
INPUT /usr/local/texlive/2014/texmf-dist/fonts/tfm/public/amsfonts/symbols/msam7.tfm
INPUT /usr/local/texlive/2014/texmf-dist/tex/latex/amsfonts/umsb.fd
INPUT /usr/local/texlive/2014/texmf-dist/tex/latex/amsfonts/umsb.fd
INPUT /usr/local/texlive/2014/texmf-dist/fonts/tfm/public/amsfonts/symbols/msbm10.tfm
INPUT /usr/local/texlive/2014/texmf-dist/fonts/tfm/public/amsfonts/symbols/msbm10.tfm
INPUT /usr/local/texlive/2014/texmf-dist/fonts/tfm/public/amsfonts/symbols/msbm7.tfm
INPUT /usr/local/texlive/2014/texmf-dist/fonts/tfm/public/cm/cmr12.tfm
INPUT /usr/local/texlive/2014/texmf-dist/fonts/tfm/public/cm/cmr8.tfm
INPUT /usr/local/texlive/2014/texmf-dist/fonts/tfm/public/cm/cmr6.tfm
INPUT index-diachronica.toc
INPUT index-diachronica.toc
INPUT /usr/local/texlive/2014/texmf-dist/fonts/tfm/public/cm/cmmi10.tfm
INPUT /usr/local/texlive/2014/texmf-dist/fonts/tfm/public/cm/cmsy10.tfm
INPUT /usr/local/texlive/2014/texmf-dist/fonts/tfm/public/cm/cmex10.tfm
INPUT /usr/local/texlive/2014/texmf-dist/fonts/tfm/public/amsfonts/symbols/msam10.tfm
INPUT /usr/local/texlive/2014/texmf-dist/fonts/tfm/public/amsfonts/symbols/msbm10.tfm
INPUT /usr/local/texlive/2014/texmf-dist/tex/generic/oberdiek/se-ascii-print.def
INPUT /usr/local/texlive/2014/texmf-dist/tex/generic/oberdiek/se-ascii-print.def
INPUT /usr/local/texlive/2014/texmf-dist/tex/generic/oberdiek/se-ascii-print.def
OUTPUT index-diachronica.toc
INPUT /usr/local/texlive/2014/texmf-dist/tex/latex/euenc/eu1lmtt.fd
INPUT /usr/local/texlive/2014/texmf-dist/tex/latex/euenc/eu1lmtt.fd
INPUT /usr/local/texlive/2014/texmf-dist/fonts/tfm/public/tipa/tipa10.tfm
INPUT index-diachronica.aux
