\relax 
\providecommand\hyper@newdestlabel[2]{}
\providecommand\HyperFirstAtBeginDocument{\AtBeginDocument}
\HyperFirstAtBeginDocument{\ifx\hyper@anchor\@undefined
\global\let\oldcontentsline\contentsline
\gdef\contentsline#1#2#3#4{\oldcontentsline{#1}{#2}{#3}}
\global\let\oldnewlabel\newlabel
\gdef\newlabel#1#2{\newlabelxx{#1}#2}
\gdef\newlabelxx#1#2#3#4#5#6{\oldnewlabel{#1}{{#2}{#3}}}
\AtEndDocument{\ifx\hyper@anchor\@undefined
\let\contentsline\oldcontentsline
\let\newlabel\oldnewlabel
\fi}
\fi}
\global\let\hyper@last\relax 
\gdef\HyperFirstAtBeginDocument#1{#1}
\providecommand*\HyPL@Entry[1]{}
\catcode 95\active
\HyPL@Entry{0<</S/r>>}
\HyPL@Entry{22<</S/D>>}
\@writefile{toc}{\contentsline {section}{\numberline {1}Preface}{1}{section.1}}
\@writefile{toc}{\contentsline {section}{\numberline {2}Licensing and Legal Information}{1}{section.2}}
\@writefile{toc}{\contentsline {section}{\numberline {3}Contact Information}{2}{section.3}}
\@writefile{toc}{\contentsline {section}{\numberline {4}Changelog}{3}{section.4}}
\@writefile{toc}{\contentsline {section}{\numberline {5}Key to Abbreviations}{6}{section.5}}
\@writefile{toc}{\contentsline {section}{\numberline {6}Afro-Asiatic}{7}{section.6}}
\@writefile{toc}{\contentsline {subsection}{\numberline {6.1}Proto-Afro-Asiatic to Proto-Omotic}{7}{subsection.6.1}}
\@writefile{toc}{\contentsline {subsubsection}{\numberline {6.1.1}Proto-Omotic to North Omotic}{8}{subsubsection.6.1.1}}
\@writefile{toc}{\contentsline {paragraph}{\numberline {6.1.1.1}North Omotic to Bench}{8}{paragraph.6.1.1.1}}
\@writefile{toc}{\contentsline {paragraph}{\numberline {6.1.1.2}North Omotic to Dizin}{9}{paragraph.6.1.1.2}}
\@writefile{toc}{\contentsline {paragraph}{\numberline {6.1.1.3}North Omotic to Kafa}{9}{paragraph.6.1.1.3}}
\@writefile{toc}{\contentsline {paragraph}{\numberline {6.1.1.4}North Omotic to Maale}{10}{paragraph.6.1.1.4}}
\@writefile{toc}{\contentsline {paragraph}{\numberline {6.1.1.5}North Omotic to Shekkacho}{10}{paragraph.6.1.1.5}}
\@writefile{toc}{\contentsline {paragraph}{\numberline {6.1.1.6}North Omotic to Wolaytta}{11}{paragraph.6.1.1.6}}
\@writefile{toc}{\contentsline {paragraph}{\numberline {6.1.1.7}North Omotic to Yemsa}{11}{paragraph.6.1.1.7}}
\@writefile{toc}{\contentsline {paragraph}{\numberline {6.1.1.8}North Omotic to Zayse-Zergulla}{12}{paragraph.6.1.1.8}}
\@writefile{toc}{\contentsline {subsubsection}{\numberline {6.1.2}South Omotic}{12}{subsubsection.6.1.2}}
\@writefile{toc}{\contentsline {paragraph}{\numberline {6.1.2.1}South Omotic to Aari}{12}{paragraph.6.1.2.1}}
\@writefile{toc}{\contentsline {paragraph}{\numberline {6.1.2.2}South Omotic to Dime}{13}{paragraph.6.1.2.2}}
\@writefile{toc}{\contentsline {subsection}{\numberline {6.2}Proto-Afro-Asiatic to Proto-Erythrean}{13}{subsection.6.2}}
\@writefile{toc}{\contentsline {subsubsection}{\numberline {6.2.1}Proto-Erythrean to Proto-Cushitic}{13}{subsubsection.6.2.1}}
\@writefile{toc}{\contentsline {paragraph}{\numberline {6.2.1.1}Agaw}{13}{paragraph.6.2.1.1}}
\@writefile{toc}{\contentsline {subparagraph}{\numberline {6.2.1.1.1}Proto-Agaw to Awngi}{13}{subparagraph.6.2.1.1.1}}
\@writefile{toc}{\contentsline {subparagraph}{\numberline {6.2.1.1.2}Proto-Agaw to Blin}{14}{subparagraph.6.2.1.1.2}}
\@writefile{toc}{\contentsline {subparagraph}{\numberline {6.2.1.1.3}Proto-Agaw to Kemantney}{14}{subparagraph.6.2.1.1.3}}
\@writefile{toc}{\contentsline {subparagraph}{\numberline {6.2.1.1.4}Proto-Agaw to Xamtanga}{15}{subparagraph.6.2.1.1.4}}
\@writefile{toc}{\contentsline {subsubsection}{\numberline {6.2.2}Proto-Erythrean to Proto-North Erythrean}{15}{subsubsection.6.2.2}}
\@writefile{toc}{\contentsline {paragraph}{\numberline {6.2.2.1}Proto-North Erythrean to Proto-Chadic}{15}{paragraph.6.2.2.1}}
\@writefile{toc}{\contentsline {subparagraph}{\numberline {6.2.2.1.1}Proto-North Erythrean to Proto-Boreafrasian}{15}{subparagraph.6.2.2.1.1}}
\@writefile{toc}{\contentsline {subparagraph}{\numberline {6.2.2.1.2}Proto-Boreafrasian to Egypto-Berber}{16}{subparagraph.6.2.2.1.2}}
\@writefile{toc}{\contentsline {subparagraph}{\numberline {6.2.2.1.3}Ancient Egyptian to Coptic}{17}{subparagraph.6.2.2.1.3}}
\@writefile{toc}{\contentsline {subparagraph}{\numberline {6.2.2.1.4}Proto-Boreafrasian to Proto-Semitic}{17}{subparagraph.6.2.2.1.4}}
\@writefile{toc}{\contentsline {subparagraph}{\numberline {6.2.2.1.5}Proto-Semitic to Classical Arabic}{17}{subparagraph.6.2.2.1.5}}
\@writefile{toc}{\contentsline {subparagraph}{\numberline {6.2.2.1.6}Classical Arabic to Cypriot Arabic}{18}{subparagraph.6.2.2.1.6}}
\@writefile{toc}{\contentsline {subparagraph}{\numberline {6.2.2.1.7}Classical Arabic to Egyptian Arabic}{19}{subparagraph.6.2.2.1.7}}
\@writefile{toc}{\contentsline {subparagraph}{\numberline {6.2.2.1.8}Classical Arabic to Coastal Hadhrami Arabic}{20}{subparagraph.6.2.2.1.8}}
\@writefile{toc}{\contentsline {subparagraph}{\numberline {6.2.2.1.9}Classical Arabic to W\={a}d\={\i } Hadhrami Arabic}{20}{subparagraph.6.2.2.1.9}}
\@writefile{toc}{\contentsline {subparagraph}{\numberline {6.2.2.1.10}Classical Arabic to Hass\={a}niyya Arabic}{20}{subparagraph.6.2.2.1.10}}
\@writefile{toc}{\contentsline {subparagraph}{\numberline {6.2.2.1.11}Classical Arabic to Iraqi Arabic}{21}{subparagraph.6.2.2.1.11}}
\@writefile{toc}{\contentsline {subparagraph}{\numberline {6.2.2.1.12}Classical Arabic to Eastern Libyan Arabic}{21}{subparagraph.6.2.2.1.12}}
\@writefile{toc}{\contentsline {subparagraph}{\numberline {6.2.2.1.13}Classical Arabic to Western Libyan Arabic}{21}{subparagraph.6.2.2.1.13}}
\@writefile{toc}{\contentsline {subparagraph}{\numberline {6.2.2.1.14}Classical Arabic to Moroccan Arabic}{21}{subparagraph.6.2.2.1.14}}
\@writefile{toc}{\contentsline {subparagraph}{\numberline {6.2.2.1.15}Classical Arabic to Sa`idi Arabic}{22}{subparagraph.6.2.2.1.15}}
\@writefile{toc}{\contentsline {subparagraph}{\numberline {6.2.2.1.16}Classical Arabic to Sudanese Arabic}{22}{subparagraph.6.2.2.1.16}}
\@writefile{toc}{\contentsline {subparagraph}{\numberline {6.2.2.1.17}Classical Arabic to Tunisian Arabic}{22}{subparagraph.6.2.2.1.17}}
\@writefile{toc}{\contentsline {subparagraph}{\numberline {6.2.2.1.18}Proto-Semitic to Biblical Hebrew}{23}{subparagraph.6.2.2.1.18}}
\@writefile{toc}{\contentsline {subparagraph}{\numberline {6.2.2.1.19}Biblical Hebrew to Modern Israeli Hebrew}{24}{subparagraph.6.2.2.1.19}}
\@writefile{toc}{\contentsline {section}{\numberline {7}Algonquian}{25}{section.7}}
\@writefile{toc}{\contentsline {subsection}{\numberline {7.1}Proto-Algonquian to Kennebec River Abenaki}{25}{subsection.7.1}}
\@writefile{toc}{\contentsline {subsection}{\numberline {7.2}Proto-Algonquian to St. Francis Abenaki}{26}{subsection.7.2}}
\@writefile{toc}{\contentsline {subsection}{\numberline {7.3}Proto-Algonquian to Proto-Arapaho-Atsina}{27}{subsection.7.3}}
\@writefile{toc}{\contentsline {subsubsection}{\numberline {7.3.1}Proto-Arapaho-Atsina to Arapaho}{27}{subsubsection.7.3.1}}
\@writefile{toc}{\contentsline {subsubsection}{\numberline {7.3.2}Proto-Arapaho-Atsina to Gros Ventre}{28}{subsubsection.7.3.2}}
\@writefile{toc}{\contentsline {subsection}{\numberline {7.4}Proto-Algonquian to Blackfoot}{28}{subsection.7.4}}
\@writefile{toc}{\contentsline {subsection}{\numberline {7.5}Proto-Algonquian to Cheyenne}{30}{subsection.7.5}}
\@writefile{toc}{\contentsline {subsection}{\numberline {7.6}Proto-Algonquian to Northern East Cree}{30}{subsection.7.6}}
\@writefile{toc}{\contentsline {subsection}{\numberline {7.7}Proto-Algonquian to Southern East Cree}{31}{subsection.7.7}}
\@writefile{toc}{\contentsline {subsection}{\numberline {7.8}Proto-Algonquian to Plains Cree}{32}{subsection.7.8}}
\@writefile{toc}{\contentsline {subsection}{\numberline {7.9}Proto-Algonquian to Swampy Cree}{32}{subsection.7.9}}
\@writefile{toc}{\contentsline {subsection}{\numberline {7.10}Proto-Algonquian to Woods Cree}{33}{subsection.7.10}}
\@writefile{toc}{\contentsline {subsection}{\numberline {7.11}Proto-Algonquian to Munsee Delaware}{33}{subsection.7.11}}
\@writefile{toc}{\contentsline {subsection}{\numberline {7.12}Proto-Algonquian to Menominee}{34}{subsection.7.12}}
\@writefile{toc}{\contentsline {subsection}{\numberline {7.13}Proto-Algonquian to Miami-Illinois}{36}{subsection.7.13}}
\@writefile{toc}{\contentsline {subsection}{\numberline {7.14}Proto-Algonquian to Mi'kmaq}{36}{subsection.7.14}}
\@writefile{toc}{\contentsline {subsection}{\numberline {7.15}Proto-Algonquian to Ojibwe}{37}{subsection.7.15}}
\@writefile{toc}{\contentsline {subsection}{\numberline {7.16}Proto-Algonquian to Piscataway}{37}{subsection.7.16}}
\@writefile{toc}{\contentsline {subsection}{\numberline {7.17}Proto-Algonquian to Shawnee}{38}{subsection.7.17}}
\@writefile{toc}{\contentsline {section}{\numberline {8}Altaic}{40}{section.8}}
\@writefile{toc}{\contentsline {subsection}{\numberline {8.1}Proto-Altaic to Proto-Japonic}{40}{subsection.8.1}}
\@writefile{toc}{\contentsline {subsubsection}{\numberline {8.1.1}Early Middle Japanese to Modern Japanese}{41}{subsubsection.8.1.1}}
\@writefile{toc}{\contentsline {subsection}{\numberline {8.2}Proto-Altaic to Proto-Korean}{42}{subsection.8.2}}
\@writefile{toc}{\contentsline {subsection}{\numberline {8.3}Proto-Altaic to Proto-Mongolic}{42}{subsection.8.3}}
\@writefile{toc}{\contentsline {subsection}{\numberline {8.4}Proto-Altaic to Proto-Tungusic}{44}{subsection.8.4}}
\@writefile{toc}{\contentsline {subsection}{\numberline {8.5}Proto-Altaic to Proto-Turkic}{45}{subsection.8.5}}
\@writefile{toc}{\contentsline {subsubsection}{\numberline {8.5.1}Proto-Turkic to Proto-Kypchak}{46}{subsubsection.8.5.1}}
\@writefile{toc}{\contentsline {paragraph}{\numberline {8.5.1.1}Proto-Kypchak to Kazakh}{46}{paragraph.8.5.1.1}}
\@writefile{toc}{\contentsline {paragraph}{\numberline {8.5.1.2}Proto-Kypchak to Kyrgyz}{47}{paragraph.8.5.1.2}}
\@writefile{toc}{\contentsline {subsubsection}{\numberline {8.5.2}Proto-Turkic to Sakha}{47}{subsubsection.8.5.2}}
\@writefile{toc}{\contentsline {section}{\numberline {9}Austroasiatic}{48}{section.9}}
\@writefile{toc}{\contentsline {subsection}{\numberline {9.1}Vietic}{48}{subsection.9.1}}
\@writefile{toc}{\contentsline {subsubsection}{\numberline {9.1.1}Proto-Vietic to Muong Khen}{49}{subsubsection.9.1.1}}
\@writefile{toc}{\contentsline {subsubsection}{\numberline {9.1.2}Proto-Vietic to Middle Vietnamese}{49}{subsubsection.9.1.2}}
\@writefile{toc}{\contentsline {paragraph}{\numberline {9.1.2.1}Middle Vietnamese to Hanoi Vietnamese}{50}{paragraph.9.1.2.1}}
\@writefile{toc}{\contentsline {paragraph}{\numberline {9.1.2.2}Middle Vietnamese to Saigon Vietnamese}{51}{paragraph.9.1.2.2}}
\@writefile{toc}{\contentsline {section}{\numberline {10}Austronesian}{53}{section.10}}
\@writefile{toc}{\contentsline {subsection}{\numberline {10.1}Proto-Austronesian to Proto-Malayo-Polynesian}{53}{subsection.10.1}}
\@writefile{toc}{\contentsline {subsubsection}{\numberline {10.1.1}Proto-Malayo-Polynesian to Proto-Bali-Sasak-Sumbawan}{53}{subsubsection.10.1.1}}
\@writefile{toc}{\contentsline {paragraph}{\numberline {10.1.1.1}Proto-Bali-Sasak-Sumbawan to Balinese}{54}{paragraph.10.1.1.1}}
\@writefile{toc}{\contentsline {paragraph}{\numberline {10.1.1.2}Proto-Bali-Sasak-Sumbawan to Sasak}{54}{paragraph.10.1.1.2}}
\@writefile{toc}{\contentsline {paragraph}{\numberline {10.1.1.3}Proto-Bali-Sasak-Sumbawan to Sumbawan}{54}{paragraph.10.1.1.3}}
\@writefile{toc}{\contentsline {paragraph}{\numberline {10.1.1.4}Polynesian}{55}{paragraph.10.1.1.4}}
\@writefile{toc}{\contentsline {paragraph}{\numberline {10.1.1.5}Proto-Polynesian to Luangiua}{55}{paragraph.10.1.1.5}}
\@writefile{toc}{\contentsline {subsubsection}{\numberline {10.1.2}Proto-Austronesian to Proto-Philippine}{55}{subsubsection.10.1.2}}
\@writefile{toc}{\contentsline {paragraph}{\numberline {10.1.2.1}Proto-Philippine to Bicol}{55}{paragraph.10.1.2.1}}
\@writefile{toc}{\contentsline {paragraph}{\numberline {10.1.2.2}Proto-Philippine to Cebuano}{56}{paragraph.10.1.2.2}}
\@writefile{toc}{\contentsline {paragraph}{\numberline {10.1.2.3}Proto-Philippine to Hiligaynon}{56}{paragraph.10.1.2.3}}
\@writefile{toc}{\contentsline {paragraph}{\numberline {10.1.2.4}Proto-Philippine to Ibanag}{56}{paragraph.10.1.2.4}}
\@writefile{toc}{\contentsline {paragraph}{\numberline {10.1.2.5}Proto-Philippine to Ifugao}{57}{paragraph.10.1.2.5}}
\@writefile{toc}{\contentsline {paragraph}{\numberline {10.1.2.6}Proto-Philippine to Ilocano}{57}{paragraph.10.1.2.6}}
\@writefile{toc}{\contentsline {paragraph}{\numberline {10.1.2.7}Proto-Philippine to Proto-Kalamian}{58}{paragraph.10.1.2.7}}
\@writefile{toc}{\contentsline {subparagraph}{\numberline {10.1.2.7.1}Proto-Kalamian to Agutaynen}{58}{subparagraph.10.1.2.7.1}}
\@writefile{toc}{\contentsline {subparagraph}{\numberline {10.1.2.7.2}Proto-Kalamian to Karamiananen}{58}{subparagraph.10.1.2.7.2}}
\@writefile{toc}{\contentsline {subparagraph}{\numberline {10.1.2.7.3}Proto-Kalamian to Kalamian Tagbanwa}{59}{subparagraph.10.1.2.7.3}}
\@writefile{toc}{\contentsline {paragraph}{\numberline {10.1.2.8}Proto-Philippine to Kankanay}{59}{paragraph.10.1.2.8}}
\@writefile{toc}{\contentsline {paragraph}{\numberline {10.1.2.9}Proto-Philippine to Tagalog}{60}{paragraph.10.1.2.9}}
\@writefile{toc}{\contentsline {paragraph}{\numberline {10.1.2.10}Proto-Philippine to Waray}{60}{paragraph.10.1.2.10}}
\@writefile{toc}{\contentsline {subsection}{\numberline {10.2}Proto-Austronesian to Proto-Batak}{60}{subsection.10.2}}
\@writefile{toc}{\contentsline {subsubsection}{\numberline {10.2.1}Proto-Malayo-Polynesian to Proto-Chamic}{61}{subsubsection.10.2.1}}
\@writefile{toc}{\contentsline {subsubsection}{\numberline {10.2.2}Proto-Malayo-Polynesian to Chamorro}{61}{subsubsection.10.2.2}}
\@writefile{toc}{\contentsline {subsubsection}{\numberline {10.2.3}Proto-Malayo-Polynesian to Proto-Malayic}{62}{subsubsection.10.2.3}}
\@writefile{toc}{\contentsline {paragraph}{\numberline {10.2.3.1}Proto-Malayic to (Standard) Malay}{62}{paragraph.10.2.3.1}}
\@writefile{toc}{\contentsline {subsubsection}{\numberline {10.2.4}Proto-Malayo-Polynesian to Proto-Malayo-Javanic}{63}{subsubsection.10.2.4}}
\@writefile{toc}{\contentsline {paragraph}{\numberline {10.2.4.1}Proto-Malayo-Javanic to Javanese}{63}{paragraph.10.2.4.1}}
\@writefile{toc}{\contentsline {paragraph}{\numberline {10.2.4.2}Proto-Malayo-Polynesian to Madurese}{63}{paragraph.10.2.4.2}}
\@writefile{toc}{\contentsline {paragraph}{\numberline {10.2.4.3}Proto-Malayo-Javanic to Sundanese}{64}{paragraph.10.2.4.3}}
\@writefile{toc}{\contentsline {subsubsection}{\numberline {10.2.5}Proto-Malayo-Polynesian to Palauan}{64}{subsubsection.10.2.5}}
\@writefile{toc}{\contentsline {subsubsection}{\numberline {10.2.6}Proto-Malayo-Polynesian to Proto-North Sarawak}{65}{subsubsection.10.2.6}}
\@writefile{toc}{\contentsline {paragraph}{\numberline {10.2.6.1}Proto-North Sarawak to Kiput}{66}{paragraph.10.2.6.1}}
\@writefile{toc}{\contentsline {paragraph}{\numberline {10.2.6.2}Proto-North Sarawak to Proto-Kenyah}{67}{paragraph.10.2.6.2}}
\@writefile{toc}{\contentsline {subparagraph}{\numberline {10.2.6.2.1}Proto-Kenyah to \`{O}ma L\'{o}ngh}{67}{subparagraph.10.2.6.2.1}}
\@writefile{toc}{\contentsline {paragraph}{\numberline {10.2.6.3}Proto-Malayic to Minangkabau}{68}{paragraph.10.2.6.3}}
\@writefile{toc}{\contentsline {subsection}{\numberline {10.3}Proto-Austronesian to Proto-Oceanic}{69}{subsection.10.3}}
\@writefile{toc}{\contentsline {subsubsection}{\numberline {10.3.1}Proto-Oceanic to Hawai'ian}{69}{subsubsection.10.3.1}}
\@writefile{toc}{\contentsline {subsubsection}{\numberline {10.3.2}Proto-Oceanic to Hiw}{69}{subsubsection.10.3.2}}
\@writefile{toc}{\contentsline {subsubsection}{\numberline {10.3.3}Proto-Oceanic to Lemerig}{70}{subsubsection.10.3.3}}
\@writefile{toc}{\contentsline {subsubsection}{\numberline {10.3.4}Proto-Oceanic to Mwotlap}{71}{subsubsection.10.3.4}}
\@writefile{toc}{\contentsline {subsubsection}{\numberline {10.3.5}Proto-Oceanic to Proto-New Caledonia}{72}{subsubsection.10.3.5}}
\@writefile{toc}{\contentsline {paragraph}{\numberline {10.3.5.1}Proto-New Caledonia to Caa\`{a}c}{72}{paragraph.10.3.5.1}}
\@writefile{toc}{\contentsline {paragraph}{\numberline {10.3.5.2}Proto-New Caledonia to Jaw\'{e}}{72}{paragraph.10.3.5.2}}
\@writefile{toc}{\contentsline {paragraph}{\numberline {10.3.5.3}Proto-New Caledonia to Nemi-Pije-Fwai}{73}{paragraph.10.3.5.3}}
\@writefile{toc}{\contentsline {paragraph}{\numberline {10.3.5.4}Proto-New Caledonia to Proto-Northern}{73}{paragraph.10.3.5.4}}
\@writefile{toc}{\contentsline {subparagraph}{\numberline {10.3.5.4.1}Proto-Northern to Nixumwak-N\^{e}l\^{e}mwa}{74}{subparagraph.10.3.5.4.1}}
\@writefile{toc}{\contentsline {paragraph}{\numberline {10.3.5.5}Proto-New Caledonia to Nyel\^{a}yu}{74}{paragraph.10.3.5.5}}
\@writefile{toc}{\contentsline {paragraph}{\numberline {10.3.5.6}Proto-New Caledonia to Pwaamei}{75}{paragraph.10.3.5.6}}
\@writefile{toc}{\contentsline {paragraph}{\numberline {10.3.5.7}Proto-New Caledonia to Pwapw\^{a}}{75}{paragraph.10.3.5.7}}
\@writefile{toc}{\contentsline {paragraph}{\numberline {10.3.5.8}Proto-New Caledonia to Proto-Yunaga}{76}{paragraph.10.3.5.8}}
\@writefile{toc}{\contentsline {subparagraph}{\numberline {10.3.5.8.1}Proto-Yunaga to Yunaga 1}{76}{subparagraph.10.3.5.8.1}}
\@writefile{toc}{\contentsline {subparagraph}{\numberline {10.3.5.8.2}Proto-Yunaga to Yunaga 2}{76}{subparagraph.10.3.5.8.2}}
\@writefile{toc}{\contentsline {subsubsection}{\numberline {10.3.6}Proto-Oceanic to Proto-Reefs/Santa Cruz}{77}{subsubsection.10.3.6}}
\@writefile{toc}{\contentsline {paragraph}{\numberline {10.3.6.1}Proto-Reefs/Santa Cruz to \"{A}iwoo}{77}{paragraph.10.3.6.1}}
\@writefile{toc}{\contentsline {paragraph}{\numberline {10.3.6.2}Proto-Reefs/Santa Cruz to Nagu}{77}{paragraph.10.3.6.2}}
\@writefile{toc}{\contentsline {paragraph}{\numberline {10.3.6.3}Proto-Reefs/Santa Cruz to Nat\"{u}gu}{77}{paragraph.10.3.6.3}}
\@writefile{toc}{\contentsline {subsubsection}{\numberline {10.3.7}Proto-Oceanic to Shark Bay}{78}{subsubsection.10.3.7}}
\@writefile{toc}{\contentsline {subsubsection}{\numberline {10.3.8}Proto-Oceanic to Tolomako}{78}{subsubsection.10.3.8}}
\@writefile{toc}{\contentsline {subsubsection}{\numberline {10.3.9}Proto-Oceanic to Proto-Utupua}{79}{subsubsection.10.3.9}}
\@writefile{toc}{\contentsline {paragraph}{\numberline {10.3.9.1}Proto-Utupua to Asuboa}{79}{paragraph.10.3.9.1}}
\@writefile{toc}{\contentsline {paragraph}{\numberline {10.3.9.2}Proto-Utupua to Nebao}{79}{paragraph.10.3.9.2}}
\@writefile{toc}{\contentsline {paragraph}{\numberline {10.3.9.3}Proto-Utupua to Tanibili}{80}{paragraph.10.3.9.3}}
\@writefile{toc}{\contentsline {subsubsection}{\numberline {10.3.10}Proto-Oceanic to Proto-Vanikoro}{80}{subsubsection.10.3.10}}
\@writefile{toc}{\contentsline {paragraph}{\numberline {10.3.10.1}Proto-Vanikoro to Buma}{81}{paragraph.10.3.10.1}}
\@writefile{toc}{\contentsline {paragraph}{\numberline {10.3.10.2}Proto-Vanikoro to Tanema}{81}{paragraph.10.3.10.2}}
\@writefile{toc}{\contentsline {paragraph}{\numberline {10.3.10.3}Proto-Vanikoro to Vano}{81}{paragraph.10.3.10.3}}
\@writefile{toc}{\contentsline {subsubsection}{\numberline {10.3.11}Proto-Oceanic to Proto-Southern Vanuatu}{81}{subsubsection.10.3.11}}
\@writefile{toc}{\contentsline {paragraph}{\numberline {10.3.11.1}Proto-Southern Vanuatu to Anejom}{82}{paragraph.10.3.11.1}}
\@writefile{toc}{\contentsline {paragraph}{\numberline {10.3.11.2}Proto-Southern Vanuatu to Proto-Erromango}{83}{paragraph.10.3.11.2}}
\@writefile{toc}{\contentsline {subparagraph}{\numberline {10.3.11.2.1}Proto-Erromango to Sye}{83}{subparagraph.10.3.11.2.1}}
\@writefile{toc}{\contentsline {subparagraph}{\numberline {10.3.11.2.2}Proto-Erromango to Ura}{84}{subparagraph.10.3.11.2.2}}
\@writefile{toc}{\contentsline {paragraph}{\numberline {10.3.11.3}Proto-Southern Vanuatu to Proto-Tanna}{84}{paragraph.10.3.11.3}}
\@writefile{toc}{\contentsline {subparagraph}{\numberline {10.3.11.3.1}Proto-Tanna to Kwamera}{84}{subparagraph.10.3.11.3.1}}
\@writefile{toc}{\contentsline {subparagraph}{\numberline {10.3.11.3.2}Proto-Tanna to Lenakel}{85}{subparagraph.10.3.11.3.2}}
\@writefile{toc}{\contentsline {subparagraph}{\numberline {10.3.11.3.3}Proto-Tanna to North Tanna}{85}{subparagraph.10.3.11.3.3}}
\@writefile{toc}{\contentsline {subparagraph}{\numberline {10.3.11.3.4}Proto-Tanna to Southwest Tanna}{86}{subparagraph.10.3.11.3.4}}
\@writefile{toc}{\contentsline {subparagraph}{\numberline {10.3.11.3.5}Proto-Tanna to Whitesands}{86}{subparagraph.10.3.11.3.5}}
\@writefile{toc}{\contentsline {subsubsection}{\numberline {10.3.12}Proto-Oceanic to Vera'a}{86}{subsubsection.10.3.12}}
\@writefile{toc}{\contentsline {subsection}{\numberline {10.4}Micronesian}{87}{subsection.10.4}}
\@writefile{toc}{\contentsline {subsubsection}{\numberline {10.4.1}Proto-Micronesian to Marshallese}{87}{subsubsection.10.4.1}}
\@writefile{toc}{\contentsline {subsection}{\numberline {10.5}Proto-Austronesian to Proto-Ongan}{88}{subsection.10.5}}
\@writefile{toc}{\contentsline {subsubsection}{\numberline {10.5.1}Proto-Ongan to Jarawa}{89}{subsubsection.10.5.1}}
\@writefile{toc}{\contentsline {subsubsection}{\numberline {10.5.2}Proto-Ongan to Onge}{89}{subsubsection.10.5.2}}
\@writefile{toc}{\contentsline {subsection}{\numberline {10.6}Proto-Austronesian to Proto-Paiwan}{89}{subsection.10.6}}
\@writefile{toc}{\contentsline {subsubsection}{\numberline {10.6.1}Proto-Paiwan to Northern Paiwan}{90}{subsubsection.10.6.1}}
\@writefile{toc}{\contentsline {subsubsection}{\numberline {10.6.2}Proto-Paiwan to Central Paiwan}{90}{subsubsection.10.6.2}}
\@writefile{toc}{\contentsline {subsubsection}{\numberline {10.6.3}Proto-Paiwan to Southern Paiwan}{90}{subsubsection.10.6.3}}
\@writefile{toc}{\contentsline {subsection}{\numberline {10.7}Proto-Austronesian to Proto-Rukai}{90}{subsection.10.7}}
\@writefile{toc}{\contentsline {subsubsection}{\numberline {10.7.1}Proto-Rukai to Budai Rukai}{91}{subsubsection.10.7.1}}
\@writefile{toc}{\contentsline {subsection}{\numberline {10.8}Proto-Austronesian to Proto-Tsouic}{91}{subsection.10.8}}
\@writefile{toc}{\contentsline {section}{\numberline {11}Northeast Caucasian}{92}{section.11}}
\@writefile{toc}{\contentsline {subsection}{\numberline {11.1}Proto-Northeast Caucasian to Proto-Avar-Andic}{92}{subsection.11.1}}
\@writefile{toc}{\contentsline {subsubsection}{\numberline {11.1.1}Proto-Avar-Andic to Akhvakh}{93}{subsubsection.11.1.1}}
\@writefile{toc}{\contentsline {subsubsection}{\numberline {11.1.2}Proto-Avar-Andic to Andi}{93}{subsubsection.11.1.2}}
\@writefile{toc}{\contentsline {subsubsection}{\numberline {11.1.3}Proto-Avar-Andic to Avar}{94}{subsubsection.11.1.3}}
\@writefile{toc}{\contentsline {subsection}{\numberline {11.2}Proto-Northeast Caucasian to Dargi}{94}{subsection.11.2}}
\@writefile{toc}{\contentsline {subsection}{\numberline {11.3}Proto-Northeast Caucasian to Khinalug}{94}{subsection.11.3}}
\@writefile{toc}{\contentsline {subsection}{\numberline {11.4}Proto-Northeast Caucasian to Lak}{95}{subsection.11.4}}
\@writefile{toc}{\contentsline {subsection}{\numberline {11.5}Proto-Northeast Caucasian to Proto-Lezgic}{95}{subsection.11.5}}
\@writefile{toc}{\contentsline {subsubsection}{\numberline {11.5.1}Proto-Lezgic to Agul}{96}{subsubsection.11.5.1}}
\@writefile{toc}{\contentsline {subsubsection}{\numberline {11.5.2}Proto-Lezgic to Archi}{96}{subsubsection.11.5.2}}
\@writefile{toc}{\contentsline {subsubsection}{\numberline {11.5.3}Proto-Lezgic to Lezghi}{97}{subsubsection.11.5.3}}
\@writefile{toc}{\contentsline {subsubsection}{\numberline {11.5.4}Proto-Lezgic to Rutul}{97}{subsubsection.11.5.4}}
\@writefile{toc}{\contentsline {subsubsection}{\numberline {11.5.5}Proto-Lezgic to Tabassaran}{98}{subsubsection.11.5.5}}
\@writefile{toc}{\contentsline {subsubsection}{\numberline {11.5.6}Proto-Lezgic to Udi}{98}{subsubsection.11.5.6}}
\@writefile{toc}{\contentsline {subsection}{\numberline {11.6}Proto-Northeast Caucasian to Nakh}{98}{subsection.11.6}}
\@writefile{toc}{\contentsline {subsection}{\numberline {11.7}Proto-Northeast Caucasian to Proto-Tsezic}{99}{subsection.11.7}}
\@writefile{toc}{\contentsline {subsubsection}{\numberline {11.7.1}Proto-Tsezic to Bezhta}{99}{subsubsection.11.7.1}}
\@writefile{toc}{\contentsline {subsubsection}{\numberline {11.7.2}Proto-Tsezic to Tsez}{100}{subsubsection.11.7.2}}
\@writefile{toc}{\contentsline {section}{\numberline {12}Northwest Caucasian}{101}{section.12}}
\@writefile{toc}{\contentsline {subsection}{\numberline {12.1}Proto-Northwest Caucasian to Proto-Abazgi}{102}{subsection.12.1}}
\@writefile{toc}{\contentsline {subsubsection}{\numberline {12.1.1}Proto-Abazgi to Ashkharywa Abaza}{103}{subsubsection.12.1.1}}
\@writefile{toc}{\contentsline {subsubsection}{\numberline {12.1.2}Proto-Abazgi to Tapanta Abaza}{103}{subsubsection.12.1.2}}
\@writefile{toc}{\contentsline {subsubsection}{\numberline {12.1.3}Proto-Abazgi to Ahchypsy Abkhaz}{103}{subsubsection.12.1.3}}
\@writefile{toc}{\contentsline {subsubsection}{\numberline {12.1.4}Proto-Abazgi to Bzyp Abkhaz}{104}{subsubsection.12.1.4}}
\@writefile{toc}{\contentsline {subsubsection}{\numberline {12.1.5}Proto-Abazgi to Abzhywa Proper}{104}{subsubsection.12.1.5}}
\@writefile{toc}{\contentsline {subsubsection}{\numberline {12.1.6}Proto-Abazgi to Tsabal Abzhywa}{104}{subsubsection.12.1.6}}
\@writefile{toc}{\contentsline {subsubsection}{\numberline {12.1.7}Proto-Abazgi to Khaltsys Sadz}{105}{subsubsection.12.1.7}}
\@writefile{toc}{\contentsline {subsubsection}{\numberline {12.1.8}Proto-Abazgi to Tswydzhy Sadz}{105}{subsubsection.12.1.8}}
\@writefile{toc}{\contentsline {subsection}{\numberline {12.2}Proto-Northwest Caucasian to Proto-Circassian}{105}{subsection.12.2}}
\@writefile{toc}{\contentsline {subsubsection}{\numberline {12.2.1}Proto-Circassian to Adyghe}{106}{subsubsection.12.2.1}}
\@writefile{toc}{\contentsline {paragraph}{\numberline {12.2.1.1}Adyghe to Abadzekh Adyghe}{107}{paragraph.12.2.1.1}}
\@writefile{toc}{\contentsline {paragraph}{\numberline {12.2.1.2}Adyghe to Bzhedug Adyghe}{107}{paragraph.12.2.1.2}}
\@writefile{toc}{\contentsline {paragraph}{\numberline {12.2.1.3}Adyghe to Shapsug Adyghe}{108}{paragraph.12.2.1.3}}
\@writefile{toc}{\contentsline {paragraph}{\numberline {12.2.1.4}Adyghe to Temirgoy Adyghe}{108}{paragraph.12.2.1.4}}
\@writefile{toc}{\contentsline {subsubsection}{\numberline {12.2.2}Proto-Circassian to Kabardian}{109}{subsubsection.12.2.2}}
\@writefile{toc}{\contentsline {subsection}{\numberline {12.3}Proto-Northwest Caucasian to Ubykh}{109}{subsection.12.3}}
\@writefile{toc}{\contentsline {section}{\numberline {13}Chumashan}{111}{section.13}}
\@writefile{toc}{\contentsline {subsection}{\numberline {13.1}Proto-Chumash to Barbare\~{n}o}{111}{subsection.13.1}}
\@writefile{toc}{\contentsline {subsection}{\numberline {13.2}Proto-Chumash to Cruze\~{n}o}{111}{subsection.13.2}}
\@writefile{toc}{\contentsline {subsection}{\numberline {13.3}Proto-Chumash to Inse\~{n}o}{111}{subsection.13.3}}
\@writefile{toc}{\contentsline {subsection}{\numberline {13.4}Proto-Chumash to Obispe\~{n}o}{112}{subsection.13.4}}
\@writefile{toc}{\contentsline {subsection}{\numberline {13.5}Proto-Chumash to Purisime\~{n}o}{112}{subsection.13.5}}
\@writefile{toc}{\contentsline {subsection}{\numberline {13.6}Proto-Chumash to Venture\~{n}o}{112}{subsection.13.6}}
\@writefile{toc}{\contentsline {section}{\numberline {14}Elamo-Dravidian}{113}{section.14}}
\@writefile{toc}{\contentsline {subsection}{\numberline {14.1}Proto-Elamo-Dravidian to Proto-Dravidian}{113}{subsection.14.1}}
\@writefile{toc}{\contentsline {subsection}{\numberline {14.2}Proto-Elamo-Dravidian to Achaemanid Elamite}{114}{subsection.14.2}}
\@writefile{toc}{\contentsline {subsection}{\numberline {14.3}Tamil}{114}{subsection.14.3}}
\@writefile{toc}{\contentsline {subsubsection}{\numberline {14.3.1}Standard Tamil to Colloquial Tamil}{114}{subsubsection.14.3.1}}
\@writefile{toc}{\contentsline {section}{\numberline {15}Eskimo-Aleut}{116}{section.15}}
\@writefile{toc}{\contentsline {subsection}{\numberline {15.1}Proto-Eskimo-Aleut to Proto-Aleut}{116}{subsection.15.1}}
\@writefile{toc}{\contentsline {subsection}{\numberline {15.2}Proto-Eskimo-Aleut to Proto-Eskimo}{117}{subsection.15.2}}
\@writefile{toc}{\contentsline {subsubsection}{\numberline {15.2.1}Proto-Eskimo to Barrow I\~{n}upiaq}{117}{subsubsection.15.2.1}}
\@writefile{toc}{\contentsline {subsubsection}{\numberline {15.2.2}Proto-Eskimo to Greenlandic I\~{n}upiaq}{118}{subsubsection.15.2.2}}
\@writefile{toc}{\contentsline {subsubsection}{\numberline {15.2.3}Proto-Eskimo to Mackenzie I\~{n}upiaq}{119}{subsubsection.15.2.3}}
\@writefile{toc}{\contentsline {subsubsection}{\numberline {15.2.4}Proto-Eskimo to Wales I\~{n}upiaq}{119}{subsubsection.15.2.4}}
\@writefile{toc}{\contentsline {subsubsection}{\numberline {15.2.5}Proto-Eskimo to Kuskokwim Yup'ik}{120}{subsubsection.15.2.5}}
\@writefile{toc}{\contentsline {subsubsection}{\numberline {15.2.6}Proto-Eskimo to Nunivak Yup'ik}{121}{subsubsection.15.2.6}}
\@writefile{toc}{\contentsline {subsubsection}{\numberline {15.2.7}Proto-Eskimo to Siberian Yup'ik}{121}{subsubsection.15.2.7}}
\@writefile{toc}{\contentsline {subsubsection}{\numberline {15.2.8}Proto-Eskimo to Unaaliq Yup'ik}{122}{subsubsection.15.2.8}}
\@writefile{toc}{\contentsline {section}{\numberline {16}Extended West Papuan}{124}{section.16}}
\@writefile{toc}{\contentsline {subsection}{\numberline {16.1}Tabla-Sentani}{124}{subsection.16.1}}
\@writefile{toc}{\contentsline {subsubsection}{\numberline {16.1.1}Proto-Tabla-Sentani to Nafri}{124}{subsubsection.16.1.1}}
\@writefile{toc}{\contentsline {subsubsection}{\numberline {16.1.2}Proto-Tabla-Sentani to Central Sentani}{125}{subsubsection.16.1.2}}
\@writefile{toc}{\contentsline {subsubsection}{\numberline {16.1.3}Proto-Tabla-Sentani to Eastern Sentani}{125}{subsubsection.16.1.3}}
\@writefile{toc}{\contentsline {subsubsection}{\numberline {16.1.4}Proto-Tabla-Sentani to Western Sentani}{126}{subsubsection.16.1.4}}
\@writefile{toc}{\contentsline {subsubsection}{\numberline {16.1.5}Proto-Tabla-Sentani to Tabla}{126}{subsubsection.16.1.5}}
\@writefile{toc}{\contentsline {section}{\numberline {17}Indo-European}{127}{section.17}}
\@writefile{toc}{\contentsline {subsection}{\numberline {17.1}Albanian}{127}{subsection.17.1}}
\@writefile{toc}{\contentsline {subsubsection}{\numberline {17.1.1}Proto-Indo-European to Gheg Albanian}{127}{subsubsection.17.1.1}}
\@writefile{toc}{\contentsline {subsubsection}{\numberline {17.1.2}Proto-Indo-European to Tosk Albanian}{129}{subsubsection.17.1.2}}
\@writefile{toc}{\contentsline {subsection}{\numberline {17.2}Proto-Indo-European to Common Anatolian}{130}{subsection.17.2}}
\@writefile{toc}{\contentsline {subsubsection}{\numberline {17.2.1}Common Anatolian to Hittite}{130}{subsubsection.17.2.1}}
\@writefile{toc}{\contentsline {subsubsection}{\numberline {17.2.2}Common Anatolian to Luwian}{131}{subsubsection.17.2.2}}
\@writefile{toc}{\contentsline {subsubsection}{\numberline {17.2.3}Common Anatolian to Lycian}{131}{subsubsection.17.2.3}}
\@writefile{toc}{\contentsline {subsubsection}{\numberline {17.2.4}Common Anatolian to Lydian}{132}{subsubsection.17.2.4}}
\@writefile{toc}{\contentsline {subsubsection}{\numberline {17.2.5}Common Anatolian to Palaic}{133}{subsubsection.17.2.5}}
\@writefile{toc}{\contentsline {subsection}{\numberline {17.3}Armenian}{133}{subsection.17.3}}
\@writefile{toc}{\contentsline {subsubsection}{\numberline {17.3.1}Proto-Indo-European to Artsakh Armenian}{133}{subsubsection.17.3.1}}
\@writefile{toc}{\contentsline {subsubsection}{\numberline {17.3.2}Proto-Indo-European to Erevan Armenian}{134}{subsubsection.17.3.2}}
\@writefile{toc}{\contentsline {subsubsection}{\numberline {17.3.3}Proto-Indo-European to Istanbul Armenian}{135}{subsubsection.17.3.3}}
\@writefile{toc}{\contentsline {subsubsection}{\numberline {17.3.4}Proto-Indo-European to Kharpert Armenian}{137}{subsubsection.17.3.4}}
\@writefile{toc}{\contentsline {subsubsection}{\numberline {17.3.5}Proto-Indo-European to Sebastia Armenian}{138}{subsubsection.17.3.5}}
\@writefile{toc}{\contentsline {subsubsection}{\numberline {17.3.6}Proto-Indo-European to Southeast Armenian}{139}{subsubsection.17.3.6}}
\@writefile{toc}{\contentsline {subsubsection}{\numberline {17.3.7}Proto-Indo-European to Southwest Armenian}{140}{subsubsection.17.3.7}}
\@writefile{toc}{\contentsline {subsection}{\numberline {17.4}Avestan}{141}{subsection.17.4}}
\@writefile{toc}{\contentsline {subsubsection}{\numberline {17.4.1}Proto-Indo-European to Avestan}{141}{subsubsection.17.4.1}}
\@writefile{toc}{\contentsline {subsection}{\numberline {17.5}Proto-Indo-European to Proto-Celtic}{141}{subsection.17.5}}
\@writefile{toc}{\contentsline {subsubsection}{\numberline {17.5.1}Proto-Indo-European to Old Irish}{142}{subsubsection.17.5.1}}
\@writefile{toc}{\contentsline {subsubsection}{\numberline {17.5.2}Proto-Celtic to Middle Welsh}{145}{subsubsection.17.5.2}}
\@writefile{toc}{\contentsline {subsection}{\numberline {17.6}Proto-Indo-European to Dacian}{146}{subsection.17.6}}
\@writefile{toc}{\contentsline {subsection}{\numberline {17.7}Proto-Indo-European to Common Germanic}{146}{subsection.17.7}}
\@writefile{toc}{\contentsline {subsubsection}{\numberline {17.7.1}Common Germanic to Gothic}{147}{subsubsection.17.7.1}}
\@writefile{toc}{\contentsline {subsubsection}{\numberline {17.7.2}Common Germanic to West Germanic}{148}{subsubsection.17.7.2}}
\@writefile{toc}{\contentsline {paragraph}{\numberline {17.7.2.1}West Germanic to Anglo-Frisian}{148}{paragraph.17.7.2.1}}
\@writefile{toc}{\contentsline {subparagraph}{\numberline {17.7.2.1.1}Anglo-Frisian to Old English}{149}{subparagraph.17.7.2.1.1}}
\@writefile{toc}{\contentsline {subparagraph}{\numberline {17.7.2.1.2}Old English to Kentish Middle English}{149}{subparagraph.17.7.2.1.2}}
\@writefile{toc}{\contentsline {subparagraph}{\numberline {17.7.2.1.3}Old English to Midlands Middle English}{150}{subparagraph.17.7.2.1.3}}
\@writefile{toc}{\contentsline {subparagraph}{\numberline {17.7.2.1.4}Midlands Middle English to Early Modern English}{150}{subparagraph.17.7.2.1.4}}
\@writefile{toc}{\contentsline {subparagraph}{\numberline {17.7.2.1.5}Early Modern English to American English}{151}{subparagraph.17.7.2.1.5}}
\@writefile{toc}{\contentsline {subparagraph}{\numberline {17.7.2.1.6}Early Modern English to Australian English}{152}{subparagraph.17.7.2.1.6}}
\@writefile{toc}{\contentsline {subparagraph}{\numberline {17.7.2.1.7}Early Modern English to British English}{152}{subparagraph.17.7.2.1.7}}
\@writefile{toc}{\contentsline {subparagraph}{\numberline {17.7.2.1.8}Old English to Northern Middle English}{153}{subparagraph.17.7.2.1.8}}
\@writefile{toc}{\contentsline {subparagraph}{\numberline {17.7.2.1.9}Early Northern Middle English to Scots}{154}{subparagraph.17.7.2.1.9}}
\@writefile{toc}{\contentsline {subparagraph}{\numberline {17.7.2.1.10}Old English to Scots}{154}{subparagraph.17.7.2.1.10}}
\@writefile{toc}{\contentsline {subparagraph}{\numberline {17.7.2.1.11}Scots to Falkirk Scots}{156}{subparagraph.17.7.2.1.11}}
\@writefile{toc}{\contentsline {subparagraph}{\numberline {17.7.2.1.12}Old English to Southern Middle English}{156}{subparagraph.17.7.2.1.12}}
\@writefile{toc}{\contentsline {subparagraph}{\numberline {17.7.2.1.13}Middle English to Yola}{157}{subparagraph.17.7.2.1.13}}
\@writefile{toc}{\contentsline {subparagraph}{\numberline {17.7.2.1.14}Anglo-Frisian to Old Frisian}{157}{subparagraph.17.7.2.1.14}}
\@writefile{toc}{\contentsline {subparagraph}{\numberline {17.7.2.1.15}North Frisian Lenition}{158}{subparagraph.17.7.2.1.15}}
\@writefile{toc}{\contentsline {paragraph}{\numberline {17.7.2.2}West Germanic to Old Low Franconian}{158}{paragraph.17.7.2.2}}
\@writefile{toc}{\contentsline {subparagraph}{\numberline {17.7.2.2.1}Old Low Franconian to Middle Dutch}{158}{subparagraph.17.7.2.2.1}}
\@writefile{toc}{\contentsline {subparagraph}{\numberline {17.7.2.2.2}Middle Dutch to Modern Dutch}{159}{subparagraph.17.7.2.2.2}}
\@writefile{toc}{\contentsline {subparagraph}{\numberline {17.7.2.2.3}Modern Dutch to Polder Dutch Vowel Shift}{159}{subparagraph.17.7.2.2.3}}
\@writefile{toc}{\contentsline {subparagraph}{\numberline {17.7.2.2.4}Belgian and Netherlandish Dutch Monophthongization}{160}{subparagraph.17.7.2.2.4}}
\@writefile{toc}{\contentsline {paragraph}{\numberline {17.7.2.3}Middle High German to Standard German}{160}{paragraph.17.7.2.3}}
\@writefile{toc}{\contentsline {paragraph}{\numberline {17.7.2.4}High German Cosonant Shift and Umlaut}{161}{paragraph.17.7.2.4}}
\@writefile{toc}{\contentsline {paragraph}{\numberline {17.7.2.5}West Germanic to Old Low German}{161}{paragraph.17.7.2.5}}
\@writefile{toc}{\contentsline {subsubsection}{\numberline {17.7.3}Common Germanic to Proto-Norse}{162}{subsubsection.17.7.3}}
\@writefile{toc}{\contentsline {paragraph}{\numberline {17.7.3.1}Proto-Norse to Old Norse}{162}{paragraph.17.7.3.1}}
\@writefile{toc}{\contentsline {subparagraph}{\numberline {17.7.3.1.1}Old Norse to Early Icelandic}{166}{subparagraph.17.7.3.1.1}}
\@writefile{toc}{\contentsline {subparagraph}{\numberline {17.7.3.1.2}Old Norse to Orkney Norn}{168}{subparagraph.17.7.3.1.2}}
\@writefile{toc}{\contentsline {subparagraph}{\numberline {17.7.3.1.3}Old Norse to Shetland Norn}{170}{subparagraph.17.7.3.1.3}}
\@writefile{toc}{\contentsline {subsubsection}{\numberline {17.7.4}Common Germanic to Vandalic}{171}{subsubsection.17.7.4}}
\@writefile{toc}{\contentsline {subsection}{\numberline {17.8}Greek}{172}{subsection.17.8}}
\@writefile{toc}{\contentsline {subsubsection}{\numberline {17.8.1}Proto-Indo-European to Aeolian Greek}{172}{subsubsection.17.8.1}}
\@writefile{toc}{\contentsline {subsubsection}{\numberline {17.8.2}Proto-Indo-European to Attic Greek}{172}{subsubsection.17.8.2}}
\@writefile{toc}{\contentsline {subsubsection}{\numberline {17.8.3}Proto-Indo-European to Boeotian Greek}{174}{subsubsection.17.8.3}}
\@writefile{toc}{\contentsline {subsubsection}{\numberline {17.8.4}Proto-Indo-European to Coan Greek}{174}{subsubsection.17.8.4}}
\@writefile{toc}{\contentsline {subsubsection}{\numberline {17.8.5}Proto-Indo-European to Cretan Greek}{175}{subsubsection.17.8.5}}
\@writefile{toc}{\contentsline {subsubsection}{\numberline {17.8.6}Proto-Indo-European to Doric Greek}{176}{subsubsection.17.8.6}}
\@writefile{toc}{\contentsline {subsubsection}{\numberline {17.8.7}Proto-Indo-European to Elian Greek}{176}{subsubsection.17.8.7}}
\@writefile{toc}{\contentsline {subsubsection}{\numberline {17.8.8}Proto-Indo-European to Ionic Greek}{177}{subsubsection.17.8.8}}
\@writefile{toc}{\contentsline {subsubsection}{\numberline {17.8.9}Proto-Indo-European to Laconian Greek}{178}{subsubsection.17.8.9}}
\@writefile{toc}{\contentsline {subsubsection}{\numberline {17.8.10}Proto-Indo-European to Mycenaean Greek}{178}{subsubsection.17.8.10}}
\@writefile{toc}{\contentsline {subsection}{\numberline {17.9}Proto-Indo-European to Hittite}{179}{subsection.17.9}}
\@writefile{toc}{\contentsline {subsection}{\numberline {17.10}Proto-Indo-European to Proto-Indo-Iranian}{180}{subsection.17.10}}
\@writefile{toc}{\contentsline {subsubsection}{\numberline {17.10.1}Proto-Indo-Iranian to Proto-Indo-Aryan}{180}{subsubsection.17.10.1}}
\@writefile{toc}{\contentsline {paragraph}{\numberline {17.10.1.1}Proto-Indo-Aryan to Central Middle Indo-Aryan}{181}{paragraph.17.10.1.1}}
\@writefile{toc}{\contentsline {paragraph}{\numberline {17.10.1.2}Proto-Indo-Aryan to Eastern Middle Indo-Aryan}{182}{paragraph.17.10.1.2}}
\@writefile{toc}{\contentsline {paragraph}{\numberline {17.10.1.3}Proto-Indo-Aryan to Northwestern Middle Indo-Aryan}{182}{paragraph.17.10.1.3}}
\@writefile{toc}{\contentsline {paragraph}{\numberline {17.10.1.4}Proto-Indo-Aryan to Western Middle Indo-Aryan}{183}{paragraph.17.10.1.4}}
\@writefile{toc}{\contentsline {paragraph}{\numberline {17.10.1.5}Proto-Indo-Aryan to Vedic Sanskrit}{183}{paragraph.17.10.1.5}}
\@writefile{toc}{\contentsline {subparagraph}{\numberline {17.10.1.5.1}Vedic Sanskrit to Classical Sanskrit}{184}{subparagraph.17.10.1.5.1}}
\@writefile{toc}{\contentsline {subsection}{\numberline {17.11}Proto-Indo-European to Proto-Slavic}{184}{subsection.17.11}}
\@writefile{toc}{\contentsline {subsubsection}{\numberline {17.11.1}Proto-Slavic to Polish}{185}{subsubsection.17.11.1}}
\@writefile{toc}{\contentsline {subsubsection}{\numberline {17.11.2}Proto-Slavic to Old Russian}{189}{subsubsection.17.11.2}}
\@writefile{toc}{\contentsline {subsection}{\numberline {17.12}Proto-Indo-European to Proto-Italic}{189}{subsection.17.12}}
\@writefile{toc}{\contentsline {subsubsection}{\numberline {17.12.1}Proto-Italic to Proto-Latino-Falsican}{190}{subsubsection.17.12.1}}
\@writefile{toc}{\contentsline {paragraph}{\numberline {17.12.1.1}Proto-Indo-European to Latin}{190}{paragraph.17.12.1.1}}
\@writefile{toc}{\contentsline {subparagraph}{\numberline {17.12.1.1.1}Classical Latin vs. Vulgar Latin}{193}{subparagraph.17.12.1.1.1}}
\@writefile{toc}{\contentsline {subparagraph}{\numberline {17.12.1.1.2}Latin to Catalan}{193}{subparagraph.17.12.1.1.2}}
\@writefile{toc}{\contentsline {subparagraph}{\numberline {17.12.1.1.3}Latin to French}{196}{subparagraph.17.12.1.1.3}}
\@writefile{toc}{\contentsline {subparagraph}{\numberline {17.12.1.1.4}Vulgar Latin to Italian}{200}{subparagraph.17.12.1.1.4}}
\@writefile{toc}{\contentsline {subparagraph}{\numberline {17.12.1.1.5}Latin to Portuguese}{201}{subparagraph.17.12.1.1.5}}
\@writefile{toc}{\contentsline {subparagraph}{\numberline {17.12.1.1.6}Vulgar Latin to Old Proven\c {c}al}{204}{subparagraph.17.12.1.1.6}}
\@writefile{toc}{\contentsline {subparagraph}{\numberline {17.12.1.1.7}Vulgar Latin to Rhaeto-Romance}{211}{subparagraph.17.12.1.1.7}}
\@writefile{toc}{\contentsline {subparagraph}{\numberline {17.12.1.1.8}Latin to Romanian}{211}{subparagraph.17.12.1.1.8}}
\@writefile{toc}{\contentsline {subparagraph}{\numberline {17.12.1.1.9}Latin to Sardinian}{213}{subparagraph.17.12.1.1.9}}
\@writefile{toc}{\contentsline {subparagraph}{\numberline {17.12.1.1.10}Vulgar Latin to Spanish}{214}{subparagraph.17.12.1.1.10}}
\@writefile{toc}{\contentsline {subsubsection}{\numberline {17.12.2}Proto-Italic to Proto-Sibellian}{217}{subsubsection.17.12.2}}
\@writefile{toc}{\contentsline {paragraph}{\numberline {17.12.2.1}Proto-Sibellian to Oscan}{217}{paragraph.17.12.2.1}}
\@writefile{toc}{\contentsline {paragraph}{\numberline {17.12.2.2}Proto-Sibellian to Umbrian}{218}{paragraph.17.12.2.2}}
\@writefile{toc}{\contentsline {subsection}{\numberline {17.13}Proto-Indo-European to Proto-Tocharian}{218}{subsection.17.13}}
\@writefile{toc}{\contentsline {subsubsection}{\numberline {17.13.1}Proto-Tocharian to Tocharian A}{219}{subsubsection.17.13.1}}
\@writefile{toc}{\contentsline {subsubsection}{\numberline {17.13.2}Proto-Tocharian to Tocharian B}{219}{subsubsection.17.13.2}}
\@writefile{toc}{\contentsline {section}{\numberline {18}Je-Tup\'{\i }-Carib}{221}{section.18}}
\@writefile{toc}{\contentsline {subsection}{\numberline {18.1}Cariban}{221}{subsection.18.1}}
\@writefile{toc}{\contentsline {subsubsection}{\numberline {18.1.1}Pre-Bakairi to Eastern Bakairi}{221}{subsubsection.18.1.1}}
\@writefile{toc}{\contentsline {subsubsection}{\numberline {18.1.2}Pre-Bakairi to Western Bakairi}{221}{subsubsection.18.1.2}}
\@writefile{toc}{\contentsline {subsection}{\numberline {18.2}Ofai\'{e}-J\^{e}}{221}{subsection.18.2}}
\@writefile{toc}{\contentsline {subsubsection}{\numberline {18.2.1}Proto-Ofai\'{e}-J\^{e} to Proto-J\^{e}}{221}{subsubsection.18.2.1}}
\@writefile{toc}{\contentsline {subsubsection}{\numberline {18.2.2}Proto-Ofai\'{e}-J\^{e} to Ofai\'{e}-Xavante}{222}{subsubsection.18.2.2}}
\@writefile{toc}{\contentsline {subsection}{\numberline {18.3}Tupar\'{i}}{222}{subsection.18.3}}
\@writefile{toc}{\contentsline {subsubsection}{\numberline {18.3.1}Proto-Tupar\'{i} to Makur\'{a}p}{223}{subsubsection.18.3.1}}
\@writefile{toc}{\contentsline {subsubsection}{\numberline {18.3.2}Proto-Tupar\'{i} to Mekens}{223}{subsubsection.18.3.2}}
\@writefile{toc}{\contentsline {subsubsection}{\numberline {18.3.3}Proto-Tupar\'{i} to Tupar\'{i}}{224}{subsubsection.18.3.3}}
\@writefile{toc}{\contentsline {subsubsection}{\numberline {18.3.4}Proto-Tupar\'{i} to Wayor\'{o}}{225}{subsubsection.18.3.4}}
\@writefile{toc}{\contentsline {subsection}{\numberline {18.4}Tup\'{i}-Guaran\'{i}}{225}{subsection.18.4}}
\@writefile{toc}{\contentsline {subsubsection}{\numberline {18.4.1}Proto-Tup\'{i}-Guaran\'{i} to Akw\'{a}ra}{225}{subsubsection.18.4.1}}
\@writefile{toc}{\contentsline {subsubsection}{\numberline {18.4.2}Proto-Tup\'{i}-Guaran\'{i} to Cocama}{226}{subsubsection.18.4.2}}
\@writefile{toc}{\contentsline {subsubsection}{\numberline {18.4.3}Proto-Tup\'{i}-Guaran\'{i} to Guajajara}{226}{subsubsection.18.4.3}}
\@writefile{toc}{\contentsline {subsubsection}{\numberline {18.4.4}Proto-Tup\'{i}-Guaran\'{i} to Guaran\'{i}}{227}{subsubsection.18.4.4}}
\@writefile{toc}{\contentsline {subsubsection}{\numberline {18.4.5}Proto-Tup\'{i}-Guaran\'{i} to Guarayo}{227}{subsubsection.18.4.5}}
\@writefile{toc}{\contentsline {subsubsection}{\numberline {18.4.6}Proto-Tup\'{i}-Guaran\'{i} to Kamayur\'{a}}{227}{subsubsection.18.4.6}}
\@writefile{toc}{\contentsline {subsubsection}{\numberline {18.4.7}Proto-Tup\'{i}-Guaran\'{i} to Parintint\'{i}n}{228}{subsubsection.18.4.7}}
\@writefile{toc}{\contentsline {subsubsection}{\numberline {18.4.8}Proto-Tup\'{i}-Guaran\'{i} to Sirion\'{o}}{228}{subsubsection.18.4.8}}
\@writefile{toc}{\contentsline {subsubsection}{\numberline {18.4.9}Proto-Tup\'{i}-Guaran\'{i} to Classical Tupi}{229}{subsubsection.18.4.9}}
\@writefile{toc}{\contentsline {paragraph}{\numberline {18.4.9.1}Tupian}{229}{paragraph.18.4.9.1}}
\@writefile{toc}{\contentsline {subparagraph}{\numberline {18.4.9.1.1}Proto-Monde to Gavi\~{a}o}{229}{subparagraph.18.4.9.1.1}}
\@writefile{toc}{\contentsline {subparagraph}{\numberline {18.4.9.1.2}Proto-Monde to Proto-Cinta Larga-Suru\'{i}-Zor\'{o}}{229}{subparagraph.18.4.9.1.2}}
\@writefile{toc}{\contentsline {subparagraph}{\numberline {18.4.9.1.3}Proto-Cinta Larga-Suru\'{i}-Zor\'{o} to Cinta Larga}{230}{subparagraph.18.4.9.1.3}}
\@writefile{toc}{\contentsline {subparagraph}{\numberline {18.4.9.1.4}Proto-Cinta Larga-Suru\'{i}-Zor\'{o} to Suru\'{i}}{230}{subparagraph.18.4.9.1.4}}
\@writefile{toc}{\contentsline {subparagraph}{\numberline {18.4.9.1.5}Proto-Cinta Larga-Suru\'{i}-Zor\'{o} to Zor\'{o}}{230}{subparagraph.18.4.9.1.5}}
\@writefile{toc}{\contentsline {subsubsection}{\numberline {18.4.10}Proto-Tup\'{i}-Guaran\'{i} to Urubu}{230}{subsubsection.18.4.10}}
\@writefile{toc}{\contentsline {section}{\numberline {19}Kartvelian}{232}{section.19}}
\@writefile{toc}{\contentsline {subsection}{\numberline {19.1}Proto-Kartvelian to Georgian}{232}{subsection.19.1}}
\@writefile{toc}{\contentsline {subsection}{\numberline {19.2}Proto-Kartvellian to Svan}{233}{subsection.19.2}}
\@writefile{toc}{\contentsline {subsection}{\numberline {19.3}Proto-Kartvelian to Zan}{233}{subsection.19.3}}
\@writefile{toc}{\contentsline {section}{\numberline {20}Khoisan}{234}{section.20}}
\@writefile{toc}{\contentsline {subsection}{\numberline {20.1}Khoe}{234}{subsection.20.1}}
\@writefile{toc}{\contentsline {subsubsection}{\numberline {20.1.1}Proto-Khoe to \v *{ǁ}Ana}{234}{subsubsection.20.1.1}}
\@writefile{toc}{\contentsline {subsubsection}{\numberline {20.1.2}Proto-Khoe to ǁAni}{234}{subsubsection.20.1.2}}
\@writefile{toc}{\contentsline {subsubsection}{\numberline {20.1.3}Proto-Khoe to Buga}{234}{subsubsection.20.1.3}}
\@writefile{toc}{\contentsline {subsubsection}{\numberline {20.1.4}Proto-Khoe to Kxoe}{235}{subsubsection.20.1.4}}
\@writefile{toc}{\contentsline {subsubsection}{\numberline {20.1.5}Proto-Khoe to Nama}{235}{subsubsection.20.1.5}}
\@writefile{toc}{\contentsline {subsubsection}{\numberline {20.1.6}Proto-Khoe to Naro}{235}{subsubsection.20.1.6}}
\@writefile{toc}{\contentsline {subsubsection}{\numberline {20.1.7}Proto-Khoe to !Ora}{236}{subsubsection.20.1.7}}
\@writefile{toc}{\contentsline {subsubsection}{\numberline {20.1.8}Proto-Khoe to Teti}{236}{subsubsection.20.1.8}}
\@writefile{toc}{\contentsline {subsubsection}{\numberline {20.1.9}Proto-Khoe to Tsʔixa}{236}{subsubsection.20.1.9}}
\@writefile{toc}{\contentsline {subsubsection}{\numberline {20.1.10}Proto-Khoe to \v *{ǀ}Ui}{237}{subsubsection.20.1.10}}
\@writefile{toc}{\contentsline {subsection}{\numberline {20.2}Kx'a}{237}{subsection.20.2}}
\@writefile{toc}{\contentsline {subsubsection}{\numberline {20.2.1}Proto-Kx'a to ǂHoan}{237}{subsubsection.20.2.1}}
\@writefile{toc}{\contentsline {subsubsection}{\numberline {20.2.2}Proto-Kx'a to Northwestern !Xun}{237}{subsubsection.20.2.2}}
\@writefile{toc}{\contentsline {subsubsection}{\numberline {20.2.3}Proto-Kx'a to Southeastern !Xun}{238}{subsubsection.20.2.3}}
\@writefile{toc}{\contentsline {section}{\numberline {21}Lakes Plain}{239}{section.21}}
\@writefile{toc}{\contentsline {subsection}{\numberline {21.1}Proto-Lakes Plain to Proto-Far West}{239}{subsection.21.1}}
\@writefile{toc}{\contentsline {subsubsection}{\numberline {21.1.1}Proto-Far West to Awera}{239}{subsubsection.21.1.1}}
\@writefile{toc}{\contentsline {subsubsection}{\numberline {21.1.2}Proto-Far West to Saponi}{240}{subsubsection.21.1.2}}
\@writefile{toc}{\contentsline {subsubsection}{\numberline {21.1.3}Proto-Far West to Rasawa}{240}{subsubsection.21.1.3}}
\@writefile{toc}{\contentsline {subsection}{\numberline {21.2}Proto-Lakes Plain to Proto-Tariku}{240}{subsection.21.2}}
\@writefile{toc}{\contentsline {subsubsection}{\numberline {21.2.1}Proto-Tariku to Proto-Central Tariku}{240}{subsubsection.21.2.1}}
\@writefile{toc}{\contentsline {paragraph}{\numberline {21.2.1.1}Proto-Central Tariku to Edopi}{241}{paragraph.21.2.1.1}}
\@writefile{toc}{\contentsline {paragraph}{\numberline {21.2.1.2}Proto-Central Tariku to Iau}{241}{paragraph.21.2.1.2}}
\@writefile{toc}{\contentsline {subsubsection}{\numberline {21.2.2}Proto-Tariku to Proto-East Tariku}{241}{subsubsection.21.2.2}}
\@writefile{toc}{\contentsline {paragraph}{\numberline {21.2.2.1}Proto-East Tariku to Biritai}{242}{paragraph.21.2.2.1}}
\@writefile{toc}{\contentsline {paragraph}{\numberline {21.2.2.2}Proto-East Tariku to Doutai}{242}{paragraph.21.2.2.2}}
\@writefile{toc}{\contentsline {paragraph}{\numberline {21.2.2.3}Proto-East Tariku to Eritai}{242}{paragraph.21.2.2.3}}
\@writefile{toc}{\contentsline {paragraph}{\numberline {21.2.2.4}Proto-East Tariku to Kai}{242}{paragraph.21.2.2.4}}
\@writefile{toc}{\contentsline {paragraph}{\numberline {21.2.2.5}Proto-East Tariku to Obokuitai}{243}{paragraph.21.2.2.5}}
\@writefile{toc}{\contentsline {paragraph}{\numberline {21.2.2.6}Proto-East Tariku to Sikaritai}{243}{paragraph.21.2.2.6}}
\@writefile{toc}{\contentsline {paragraph}{\numberline {21.2.2.7}Proto-East Tariku to Waritai}{243}{paragraph.21.2.2.7}}
\@writefile{toc}{\contentsline {subsubsection}{\numberline {21.2.3}Proto-Tariku to Proto-West Tariku}{243}{subsubsection.21.2.3}}
\@writefile{toc}{\contentsline {paragraph}{\numberline {21.2.3.1}Proto-West Tariku to Deirate}{244}{paragraph.21.2.3.1}}
\@writefile{toc}{\contentsline {paragraph}{\numberline {21.2.3.2}Proto-West Tariku to Faia}{244}{paragraph.21.2.3.2}}
\@writefile{toc}{\contentsline {paragraph}{\numberline {21.2.3.3}Proto-West Tariku to Fayu}{244}{paragraph.21.2.3.3}}
\@writefile{toc}{\contentsline {paragraph}{\numberline {21.2.3.4}Proto-West Tariku to Kirikiri}{244}{paragraph.21.2.3.4}}
\@writefile{toc}{\contentsline {paragraph}{\numberline {21.2.3.5}Proto-West Tariku to Sehudate}{245}{paragraph.21.2.3.5}}
\@writefile{toc}{\contentsline {paragraph}{\numberline {21.2.3.6}Proto-West Tariku to Tause}{245}{paragraph.21.2.3.6}}
\@writefile{toc}{\contentsline {paragraph}{\numberline {21.2.3.7}Proto-West Tariku to Weirate}{245}{paragraph.21.2.3.7}}
\@writefile{toc}{\contentsline {section}{\numberline {22}Macro-Arawakan}{246}{section.22}}
\@writefile{toc}{\contentsline {subsection}{\numberline {22.1}Proto-Araw\'{a} to Araw\'{a}}{246}{subsection.22.1}}
\@writefile{toc}{\contentsline {subsection}{\numberline {22.2}Proto-Araw\'{a} to Banaw\'{a}-Jamamadi}{247}{subsection.22.2}}
\@writefile{toc}{\contentsline {subsection}{\numberline {22.3}Proto-Araw\'{a} to Hypothetical Araw\'{a}n Substrate}{247}{subsection.22.3}}
\@writefile{toc}{\contentsline {subsection}{\numberline {22.4}Proto-Araw\'{a} to Jarawara}{247}{subsection.22.4}}
\@writefile{toc}{\contentsline {subsection}{\numberline {22.5}Proto-Araw\'{a} to Kul\'{i}na-Den\'{i}}{248}{subsection.22.5}}
\@writefile{toc}{\contentsline {subsection}{\numberline {22.6}Proto-Araw\'{a} to Sorowah\'{a}}{248}{subsection.22.6}}
\@writefile{toc}{\contentsline {subsection}{\numberline {22.7}Proto-Araw\'{a} to Paumar\'{i}}{248}{subsection.22.7}}
\@writefile{toc}{\contentsline {section}{\numberline {23}Macro-Chibchan}{249}{section.23}}
\@writefile{toc}{\contentsline {subsection}{\numberline {23.1}Lenmichian}{249}{subsection.23.1}}
\@writefile{toc}{\contentsline {subsubsection}{\numberline {23.1.1}Proto-Lenmichian to Proto-Chibchan}{249}{subsubsection.23.1.1}}
\@writefile{toc}{\contentsline {paragraph}{\numberline {23.1.1.1}Chibchan}{249}{paragraph.23.1.1.1}}
\@writefile{toc}{\contentsline {subparagraph}{\numberline {23.1.1.1.1}Proto-Chibchan to Arhuaco}{250}{subparagraph.23.1.1.1.1}}
\@writefile{toc}{\contentsline {subparagraph}{\numberline {23.1.1.1.2}Proto-Chibchan to Chibcha}{250}{subparagraph.23.1.1.1.2}}
\@writefile{toc}{\contentsline {subparagraph}{\numberline {23.1.1.1.3}Proto-Chibchan to Kogi}{251}{subparagraph.23.1.1.1.3}}
\@writefile{toc}{\contentsline {subparagraph}{\numberline {23.1.1.1.4}Proto-Chibchan to Marocacero}{251}{subparagraph.23.1.1.1.4}}
\@writefile{toc}{\contentsline {subparagraph}{\numberline {23.1.1.1.5}Proto-Chibchan to Motil\'on}{252}{subparagraph.23.1.1.1.5}}
\@writefile{toc}{\contentsline {subparagraph}{\numberline {23.1.1.1.6}Proto-Chibchan to Tunebo}{252}{subparagraph.23.1.1.1.6}}
\@writefile{toc}{\contentsline {subsubsection}{\numberline {23.1.2}Proto-Lenmichian to Proto-Lencan}{253}{subsubsection.23.1.2}}
\@writefile{toc}{\contentsline {subsubsection}{\numberline {23.1.3}Proto-Lenmichian to Proto-Misumalpan}{253}{subsubsection.23.1.3}}
\@writefile{toc}{\contentsline {section}{\numberline {24}Macro-Pama-Nyungan}{254}{section.24}}
\@writefile{toc}{\contentsline {subsection}{\numberline {24.1}Paman}{254}{subsection.24.1}}
\@writefile{toc}{\contentsline {subsubsection}{\numberline {24.1.1}Proto-Paman to Aritinŋitiɣ}{254}{subsubsection.24.1.1}}
\@writefile{toc}{\contentsline {subsubsection}{\numberline {24.1.2}Proto-Paman to Awŋtim}{255}{subsubsection.24.1.2}}
\@writefile{toc}{\contentsline {subsubsection}{\numberline {24.1.3}Proto-Paman to Linŋitiɣ}{255}{subsubsection.24.1.3}}
\@writefile{toc}{\contentsline {subsubsection}{\numberline {24.1.4}Proto-Paman to Mbiywom}{255}{subsubsection.24.1.4}}
\@writefile{toc}{\contentsline {subsubsection}{\numberline {24.1.5}Proto-Paman to Mpalican}{256}{subsubsection.24.1.5}}
\@writefile{toc}{\contentsline {subsubsection}{\numberline {24.1.6}Proto-Paman to Uraði}{256}{subsubsection.24.1.6}}
\@writefile{toc}{\contentsline {subsubsection}{\numberline {24.1.7}Proto-Paman to Yinwum}{256}{subsubsection.24.1.7}}
\@writefile{toc}{\contentsline {section}{\numberline {25}Macro-Panoan}{257}{section.25}}
\@writefile{toc}{\contentsline {subsection}{\numberline {25.1}Tacanan}{257}{subsection.25.1}}
\@writefile{toc}{\contentsline {subsubsection}{\numberline {25.1.1}Proto-Tacanan to Cavine\~{n}a}{257}{subsubsection.25.1.1}}
\@writefile{toc}{\contentsline {subsubsection}{\numberline {25.1.2}Proto-Tacanan to Chama}{257}{subsubsection.25.1.2}}
\@writefile{toc}{\contentsline {subsubsection}{\numberline {25.1.3}Proto-Tacanan to Reyesano}{258}{subsubsection.25.1.3}}
\@writefile{toc}{\contentsline {subsubsection}{\numberline {25.1.4}Proto-Tacanan to Tacana}{258}{subsubsection.25.1.4}}
\@writefile{toc}{\contentsline {section}{\numberline {26}Mande}{259}{section.26}}
\@writefile{toc}{\contentsline {subsection}{\numberline {26.1}Proto-Mande to Bobo}{259}{subsection.26.1}}
\@writefile{toc}{\contentsline {subsection}{\numberline {26.2}Proto-Mande to Busa}{259}{subsection.26.2}}
\@writefile{toc}{\contentsline {subsection}{\numberline {26.3}Proto-Mande to Dan}{260}{subsection.26.3}}
\@writefile{toc}{\contentsline {subsection}{\numberline {26.4}Proto-Mande to Guro}{260}{subsection.26.4}}
\@writefile{toc}{\contentsline {subsection}{\numberline {26.5}Proto-Mande to Kono-Vai}{260}{subsection.26.5}}
\@writefile{toc}{\contentsline {subsection}{\numberline {26.6}Proto-Mande to Southwest Mande}{261}{subsection.26.6}}
\@writefile{toc}{\contentsline {subsection}{\numberline {26.7}Proto-Mande to Mandekan}{261}{subsection.26.7}}
\@writefile{toc}{\contentsline {subsection}{\numberline {26.8}Proto-Mande to Mano}{261}{subsection.26.8}}
\@writefile{toc}{\contentsline {subsection}{\numberline {26.9}Proto-Mande to Mwa}{262}{subsection.26.9}}
\@writefile{toc}{\contentsline {subsection}{\numberline {26.10}Proto-Mande to San}{262}{subsection.26.10}}
\@writefile{toc}{\contentsline {subsection}{\numberline {26.11}Proto-Mande to Sembla}{262}{subsection.26.11}}
\@writefile{toc}{\contentsline {subsection}{\numberline {26.12}Proto-Mande to Soninka}{263}{subsection.26.12}}
\@writefile{toc}{\contentsline {subsection}{\numberline {26.13}Proto-Mande to Susu}{263}{subsection.26.13}}
\@writefile{toc}{\contentsline {section}{\numberline {27}Mayan}{264}{section.27}}
\@writefile{toc}{\contentsline {subsection}{\numberline {27.1}Proto-Mayan to Ch'olan}{264}{subsection.27.1}}
\@writefile{toc}{\contentsline {subsection}{\numberline {27.2}Proto-Mayan to Chujean}{264}{subsection.27.2}}
\@writefile{toc}{\contentsline {subsection}{\numberline {27.3}Proto-Mayan to Huastecan}{265}{subsection.27.3}}
\@writefile{toc}{\contentsline {subsection}{\numberline {27.4}Proto-Mayan to Ixilean}{265}{subsection.27.4}}
\@writefile{toc}{\contentsline {subsection}{\numberline {27.5}Proto-Mayan to Kaqchikel-Tz'utujil}{265}{subsection.27.5}}
\@writefile{toc}{\contentsline {subsection}{\numberline {27.6}Proto-Mayan to Core K'iche'}{266}{subsection.27.6}}
\@writefile{toc}{\contentsline {subsection}{\numberline {27.7}Proto-Mayan to Mamean}{266}{subsection.27.7}}
\@writefile{toc}{\contentsline {subsection}{\numberline {27.8}Proto-Mayan to Q'anjob'alan}{266}{subsection.27.8}}
\@writefile{toc}{\contentsline {subsection}{\numberline {27.9}Proto-Mayan to Tzeltalan}{267}{subsection.27.9}}
\@writefile{toc}{\contentsline {subsection}{\numberline {27.10}Proto-Mayan to Yucatecan}{267}{subsection.27.10}}
\@writefile{toc}{\contentsline {section}{\numberline {28}Muskogean}{268}{section.28}}
\@writefile{toc}{\contentsline {subsection}{\numberline {28.1}Proto-Muskogean to Proto-Eastern Muskogean}{269}{subsection.28.1}}
\@writefile{toc}{\contentsline {subsubsection}{\numberline {28.1.1}Proto-Eastern Muskogean to Alabama}{269}{subsubsection.28.1.1}}
\@writefile{toc}{\contentsline {subsubsection}{\numberline {28.1.2}Proto-Eastern Muskogean to Creek}{269}{subsubsection.28.1.2}}
\@writefile{toc}{\contentsline {subsubsection}{\numberline {28.1.3}Proto-Eastern Muskogean to Hitchiti}{270}{subsubsection.28.1.3}}
\@writefile{toc}{\contentsline {subsubsection}{\numberline {28.1.4}Proto-Eastern Muskogean to Korasati}{270}{subsubsection.28.1.4}}
\@writefile{toc}{\contentsline {subsubsection}{\numberline {28.1.5}Proto-Eastern Muskogean to Mikasuri}{270}{subsubsection.28.1.5}}
\@writefile{toc}{\contentsline {subsubsection}{\numberline {28.1.6}Proto-Eastern Muskogean to Seminole}{271}{subsubsection.28.1.6}}
\@writefile{toc}{\contentsline {subsection}{\numberline {28.2}Proto-Muskogean to Proto-Western Muskogean}{271}{subsection.28.2}}
\@writefile{toc}{\contentsline {subsubsection}{\numberline {28.2.1}Proto-Western Muskogean to Chickasaw}{271}{subsubsection.28.2.1}}
\@writefile{toc}{\contentsline {subsubsection}{\numberline {28.2.2}Proto-Western Muskogean to Choctaw}{271}{subsubsection.28.2.2}}
\@writefile{toc}{\contentsline {section}{\numberline {29}Na-Dene}{273}{section.29}}
\@writefile{toc}{\contentsline {subsection}{\numberline {29.1}Proto-Na-Dene to Proto-Athabaskan-Eyak}{273}{subsection.29.1}}
\@writefile{toc}{\contentsline {subsubsection}{\numberline {29.1.1}Proto-Athabaskan-Eyak to Proto-Athabaskan}{273}{subsubsection.29.1.1}}
\@writefile{toc}{\contentsline {paragraph}{\numberline {29.1.1.1}Athabaskan}{273}{paragraph.29.1.1.1}}
\@writefile{toc}{\contentsline {subparagraph}{\numberline {29.1.1.1.1}Proto-Athabaskan to Ahtna}{275}{subparagraph.29.1.1.1.1}}
\@writefile{toc}{\contentsline {subparagraph}{\numberline {29.1.1.1.2}Proto-Athabaskan to Babine}{275}{subparagraph.29.1.1.1.2}}
\@writefile{toc}{\contentsline {subparagraph}{\numberline {29.1.1.1.3}Proto-Athabaskan to Beaver}{275}{subparagraph.29.1.1.1.3}}
\@writefile{toc}{\contentsline {subparagraph}{\numberline {29.1.1.1.4}Proto-Athabaskan to Chilcotin}{275}{subparagraph.29.1.1.1.4}}
\@writefile{toc}{\contentsline {subparagraph}{\numberline {29.1.1.1.5}Proto-Athabaskan to Chipewyan}{276}{subparagraph.29.1.1.1.5}}
\@writefile{toc}{\contentsline {subparagraph}{\numberline {29.1.1.1.6}Proto-Athabaskan to Dakelh}{276}{subparagraph.29.1.1.1.6}}
\@writefile{toc}{\contentsline {subparagraph}{\numberline {29.1.1.1.7}Proto-Athabaskan to Deg Hit'an}{276}{subparagraph.29.1.1.1.7}}
\@writefile{toc}{\contentsline {subparagraph}{\numberline {29.1.1.1.8}Proto-Athabaskan to Dena'ina}{276}{subparagraph.29.1.1.1.8}}
\@writefile{toc}{\contentsline {subparagraph}{\numberline {29.1.1.1.9}Proto-Athabaskan to Dogrib}{277}{subparagraph.29.1.1.1.9}}
\@writefile{toc}{\contentsline {subparagraph}{\numberline {29.1.1.1.10}Proto-Athabaskan to Easter Gwich'in}{277}{subparagraph.29.1.1.1.10}}
\@writefile{toc}{\contentsline {subparagraph}{\numberline {29.1.1.1.11}Proto-Athabaskan to Han}{277}{subparagraph.29.1.1.1.11}}
\@writefile{toc}{\contentsline {subparagraph}{\numberline {29.1.1.1.12}Proto-Athabaskan to Holikachuk}{278}{subparagraph.29.1.1.1.12}}
\@writefile{toc}{\contentsline {subparagraph}{\numberline {29.1.1.1.13}Proto-Athabaskan to Hupa}{278}{subparagraph.29.1.1.1.13}}
\@writefile{toc}{\contentsline {subparagraph}{\numberline {29.1.1.1.14}Proto-Athabaskan to Lower Koyukon}{278}{subparagraph.29.1.1.1.14}}
\@writefile{toc}{\contentsline {subparagraph}{\numberline {29.1.1.1.15}Proto-Athabaskan to Upper Koyukon}{279}{subparagraph.29.1.1.1.15}}
\@writefile{toc}{\contentsline {subparagraph}{\numberline {29.1.1.1.16}Proto-Athabaskan to Upper Kuskokwim Kolchan}{279}{subparagraph.29.1.1.1.16}}
\@writefile{toc}{\contentsline {subparagraph}{\numberline {29.1.1.1.17}Proto-Athabaskan to Sarcee}{279}{subparagraph.29.1.1.1.17}}
\@writefile{toc}{\contentsline {subparagraph}{\numberline {29.1.1.1.18}Proto-Athabaskan to Sekani}{279}{subparagraph.29.1.1.1.18}}
\@writefile{toc}{\contentsline {subparagraph}{\numberline {29.1.1.1.19}Proto-Athabaskan to Proto-Southern Athabaskan}{280}{subparagraph.29.1.1.1.19}}
\@writefile{toc}{\contentsline {subparagraph}{\numberline {29.1.1.1.20}Proto-Southern Athabaskan to Proto-Eastern Southern Athabaskan}{280}{subparagraph.29.1.1.1.20}}
\@writefile{toc}{\contentsline {subparagraph}{\numberline {29.1.1.1.21}Proto-Eastern Southern Athabaskan to Kiowa Apache}{280}{subparagraph.29.1.1.1.21}}
\@writefile{toc}{\contentsline {subparagraph}{\numberline {29.1.1.1.22}Proto-Eastern Southern Athabaskan to Jicarilla}{280}{subparagraph.29.1.1.1.22}}
\@writefile{toc}{\contentsline {subparagraph}{\numberline {29.1.1.1.23}Proto-Eastern Southern Athabaskan to Lipan}{281}{subparagraph.29.1.1.1.23}}
\@writefile{toc}{\contentsline {subparagraph}{\numberline {29.1.1.1.24}Proto-Southern Athabaskan to Proto-Western Southern Athabaskan}{281}{subparagraph.29.1.1.1.24}}
\@writefile{toc}{\contentsline {subparagraph}{\numberline {29.1.1.1.25}Proto-Western Southern Athabaskan to Chiricahua}{281}{subparagraph.29.1.1.1.25}}
\@writefile{toc}{\contentsline {subparagraph}{\numberline {29.1.1.1.26}Proto-Western Southern Athabaskan to Mescalero}{282}{subparagraph.29.1.1.1.26}}
\@writefile{toc}{\contentsline {subparagraph}{\numberline {29.1.1.1.27}Proto-Western Southern Athabaskan to Navajo}{282}{subparagraph.29.1.1.1.27}}
\@writefile{toc}{\contentsline {subparagraph}{\numberline {29.1.1.1.28}Proto-Western Southern Athabaskan to San Carlos}{282}{subparagraph.29.1.1.1.28}}
\@writefile{toc}{\contentsline {subparagraph}{\numberline {29.1.1.1.29}Proto-Athabaskan to Bearlake Slavey-Hare}{283}{subparagraph.29.1.1.1.29}}
\@writefile{toc}{\contentsline {subparagraph}{\numberline {29.1.1.1.30}Proto-Athabaskan to Hare Slavey-Hare}{283}{subparagraph.29.1.1.1.30}}
\@writefile{toc}{\contentsline {subparagraph}{\numberline {29.1.1.1.31}Proto-Athabaskan to Mountain Slavey-Hare}{283}{subparagraph.29.1.1.1.31}}
\@writefile{toc}{\contentsline {subparagraph}{\numberline {29.1.1.1.32}Proto-Athabaskan to Slavey Slavey-Hare}{283}{subparagraph.29.1.1.1.32}}
\@writefile{toc}{\contentsline {subparagraph}{\numberline {29.1.1.1.33}Proto-Athabaskan to Tahltan-Kaska-Tagish}{283}{subparagraph.29.1.1.1.33}}
\@writefile{toc}{\contentsline {subparagraph}{\numberline {29.1.1.1.34}Tahltan-Kaska-Tagish to Kaska}{284}{subparagraph.29.1.1.1.34}}
\@writefile{toc}{\contentsline {subparagraph}{\numberline {29.1.1.1.35}Tahltan-Kaska-Tagish to Tagish}{284}{subparagraph.29.1.1.1.35}}
\@writefile{toc}{\contentsline {subparagraph}{\numberline {29.1.1.1.36}Tahltan-Kaska-Tagish to Tahltan}{284}{subparagraph.29.1.1.1.36}}
\@writefile{toc}{\contentsline {subparagraph}{\numberline {29.1.1.1.37}Proto-Athabaskan to Tanacross}{284}{subparagraph.29.1.1.1.37}}
\@writefile{toc}{\contentsline {subparagraph}{\numberline {29.1.1.1.38}Proto-Athabaskan to Lower Tanana}{285}{subparagraph.29.1.1.1.38}}
\@writefile{toc}{\contentsline {subparagraph}{\numberline {29.1.1.1.39}Proto-Athabaskan to Upper Tanana}{285}{subparagraph.29.1.1.1.39}}
\@writefile{toc}{\contentsline {subparagraph}{\numberline {29.1.1.1.40}Proto-Athabaskan to Tsetsaut}{285}{subparagraph.29.1.1.1.40}}
\@writefile{toc}{\contentsline {subparagraph}{\numberline {29.1.1.1.41}Proto-Athabaskan to Northern Tutchone}{286}{subparagraph.29.1.1.1.41}}
\@writefile{toc}{\contentsline {subparagraph}{\numberline {29.1.1.1.42}Proto-Athabaskan to Southern Tutchone}{286}{subparagraph.29.1.1.1.42}}
\@writefile{toc}{\contentsline {subsubsection}{\numberline {29.1.2}Proto-Athabaskan-Eyak to Eyak}{286}{subsubsection.29.1.2}}
\@writefile{toc}{\contentsline {subsection}{\numberline {29.2}Proto-Na-Dene to Tlingit}{287}{subsection.29.2}}
\@writefile{toc}{\contentsline {section}{\numberline {30}Niger-Congo}{288}{section.30}}
\@writefile{toc}{\contentsline {subsection}{\numberline {30.1}Proto-Potou-Akanic-Bantu to Proto-Bantu}{288}{subsection.30.1}}
\@writefile{toc}{\contentsline {subsubsection}{\numberline {30.1.1}Pre-Proto-Bantu to Proto-Bantu}{289}{subsubsection.30.1.1}}
\@writefile{toc}{\contentsline {paragraph}{\numberline {30.1.1.1}Proto-Bantu to Sebirwa}{289}{paragraph.30.1.1.1}}
\@writefile{toc}{\contentsline {paragraph}{\numberline {30.1.1.2}Proto-Bantu to Tswana}{290}{paragraph.30.1.1.2}}
\@writefile{toc}{\contentsline {paragraph}{\numberline {30.1.1.3}Sam}{290}{paragraph.30.1.1.3}}
\@writefile{toc}{\contentsline {subparagraph}{\numberline {30.1.1.3.1}Proto-Sam to Amu}{290}{subparagraph.30.1.1.3.1}}
\@writefile{toc}{\contentsline {subparagraph}{\numberline {30.1.1.3.2}Proto-Sam to Bajuni}{290}{subparagraph.30.1.1.3.2}}
\@writefile{toc}{\contentsline {subparagraph}{\numberline {30.1.1.3.3}Proto-Sam to Mwiini}{290}{subparagraph.30.1.1.3.3}}
\@writefile{toc}{\contentsline {subparagraph}{\numberline {30.1.1.3.4}Proto-Sam to Siu-Pate}{291}{subparagraph.30.1.1.3.4}}
\@writefile{toc}{\contentsline {subparagraph}{\numberline {30.1.1.3.5}Proto-Sam to Proto-Aweera}{291}{subparagraph.30.1.1.3.5}}
\@writefile{toc}{\contentsline {subparagraph}{\numberline {30.1.1.3.6}Proto-Sam to Lower Pokomo}{291}{subparagraph.30.1.1.3.6}}
\@writefile{toc}{\contentsline {subsubsection}{\numberline {30.1.2}Pre-Proto-Bantu to Proto-Manenguba}{291}{subsubsection.30.1.2}}
\@writefile{toc}{\contentsline {subsection}{\numberline {30.2}Proto-Potou-Akanic-Bantu to Proto-Potou-Akanic}{292}{subsection.30.2}}
\@writefile{toc}{\contentsline {subsubsection}{\numberline {30.2.1}Proto-Potou-Akanic to Proto-Akanic}{292}{subsubsection.30.2.1}}
\@writefile{toc}{\contentsline {paragraph}{\numberline {30.2.1.1}Proto-Akanic to Akan}{292}{paragraph.30.2.1.1}}
\@writefile{toc}{\contentsline {subsection}{\numberline {30.3}Volta-Congo}{293}{subsection.30.3}}
\@writefile{toc}{\contentsline {subsubsection}{\numberline {30.3.1}Volta-Niger}{293}{subsubsection.30.3.1}}
\@writefile{toc}{\contentsline {paragraph}{\numberline {30.3.1.1}Gbe}{293}{paragraph.30.3.1.1}}
\@writefile{toc}{\contentsline {subparagraph}{\numberline {30.3.1.1.1}Proto-Gbe to Aj\'{a}}{293}{subparagraph.30.3.1.1.1}}
\@writefile{toc}{\contentsline {subparagraph}{\numberline {30.3.1.1.2}Proto-Aj\'{a} to Hwe}{293}{subparagraph.30.3.1.1.2}}
\@writefile{toc}{\contentsline {subparagraph}{\numberline {30.3.1.1.3}Proto-Gbe to Proto-Fon}{294}{subparagraph.30.3.1.1.3}}
\@writefile{toc}{\contentsline {subparagraph}{\numberline {30.3.1.1.4}Proto-Gbe to Proto-Gen}{294}{subparagraph.30.3.1.1.4}}
\@writefile{toc}{\contentsline {subparagraph}{\numberline {30.3.1.1.5}Proto-Gbe to Proto-Phla-Pher\'{a}}{294}{subparagraph.30.3.1.1.5}}
\@writefile{toc}{\contentsline {subparagraph}{\numberline {30.3.1.1.6}Proto-Phla-Pher\'{a} to Alada}{294}{subparagraph.30.3.1.1.6}}
\@writefile{toc}{\contentsline {subparagraph}{\numberline {30.3.1.1.7}Proto-Gbe to Proto-Vhe}{294}{subparagraph.30.3.1.1.7}}
\@writefile{toc}{\contentsline {subparagraph}{\numberline {30.3.1.1.8}Proto-Vhe to Ad\'{a}ngbe}{295}{subparagraph.30.3.1.1.8}}
\@writefile{toc}{\contentsline {subparagraph}{\numberline {30.3.1.1.9}Proto-Vhe to Av\'{e}no}{295}{subparagraph.30.3.1.1.9}}
\@writefile{toc}{\contentsline {subparagraph}{\numberline {30.3.1.1.10}Proto-Vhe to Awalan}{295}{subparagraph.30.3.1.1.10}}
\@writefile{toc}{\contentsline {subparagraph}{\numberline {30.3.1.1.11}Proto-Vhe to Kp\'{a}ndo}{295}{subparagraph.30.3.1.1.11}}
\@writefile{toc}{\contentsline {subparagraph}{\numberline {30.3.1.1.12}Proto-Vhe to Pec\'{\i }}{296}{subparagraph.30.3.1.1.12}}
\@writefile{toc}{\contentsline {subparagraph}{\numberline {30.3.1.1.13}Proto-Vhe to T\d {ɔ}wun}{296}{subparagraph.30.3.1.1.13}}
\@writefile{toc}{\contentsline {subparagraph}{\numberline {30.3.1.1.14}Proto-Vhe to Wac\'{\i }}{296}{subparagraph.30.3.1.1.14}}
\@writefile{toc}{\contentsline {section}{\numberline {31}Nyulnyulan}{297}{section.31}}
\@writefile{toc}{\contentsline {subsection}{\numberline {31.1}Proto-Nyulnyulan to Bardi}{297}{subsection.31.1}}
\@writefile{toc}{\contentsline {section}{\numberline {32}Oto-Manguean}{298}{section.32}}
\@writefile{toc}{\contentsline {subsection}{\numberline {32.1}Chatino}{298}{subsection.32.1}}
\@writefile{toc}{\contentsline {subsubsection}{\numberline {32.1.1}Proto-Chatino to Papabuco Chatino}{298}{subsubsection.32.1.1}}
\@writefile{toc}{\contentsline {subsubsection}{\numberline {32.1.2}Proto-Chatino to Tataltepec Chatino}{299}{subsubsection.32.1.2}}
\@writefile{toc}{\contentsline {subsubsection}{\numberline {32.1.3}Proto-Chatino to Yaitepec Chatino}{300}{subsubsection.32.1.3}}
\@writefile{toc}{\contentsline {subsubsection}{\numberline {32.1.4}Proto-Chatino to Zenzontepec Chatino}{301}{subsubsection.32.1.4}}
\@writefile{toc}{\contentsline {subsection}{\numberline {32.2}Proto-Oto-Manguean to Tlapanec}{301}{subsection.32.2}}
\@writefile{toc}{\contentsline {section}{\numberline {33}Penutian}{302}{section.33}}
\@writefile{toc}{\contentsline {subsection}{\numberline {33.1}Utian}{302}{subsection.33.1}}
\@writefile{toc}{\contentsline {subsubsection}{\numberline {33.1.1}Proto-Utian to Proto-Costanoan (Ohlone)}{302}{subsubsection.33.1.1}}
\@writefile{toc}{\contentsline {paragraph}{\numberline {33.1.1.1}Proto-Costanoan to Chochenyo}{303}{paragraph.33.1.1.1}}
\@writefile{toc}{\contentsline {paragraph}{\numberline {33.1.1.2}Proto-Utian to Proto-Miwok}{303}{paragraph.33.1.1.2}}
\@writefile{toc}{\contentsline {subparagraph}{\numberline {33.1.1.2.1}Proto-Miwok to Proto-Western Miwok}{303}{subparagraph.33.1.1.2.1}}
\@writefile{toc}{\contentsline {paragraph}{\numberline {33.1.1.3}Proto-Costanoan to Mutsun}{303}{paragraph.33.1.1.3}}
\@writefile{toc}{\contentsline {paragraph}{\numberline {33.1.1.4}Proto-Costanoan to Rumsen}{304}{paragraph.33.1.1.4}}
\@writefile{toc}{\contentsline {subsection}{\numberline {33.2}Wintun}{304}{subsection.33.2}}
\@writefile{toc}{\contentsline {subsubsection}{\numberline {33.2.1}Proto-Wintuan to Nomlaki}{305}{subsubsection.33.2.1}}
\@writefile{toc}{\contentsline {subsubsection}{\numberline {33.2.2}Proto-Wintuan to Patwin}{305}{subsubsection.33.2.2}}
\@writefile{toc}{\contentsline {subsubsection}{\numberline {33.2.3}Proto-Wintuan to South Patwin}{305}{subsubsection.33.2.3}}
\@writefile{toc}{\contentsline {subsubsection}{\numberline {33.2.4}Proto-Wintuan to Wintu}{305}{subsubsection.33.2.4}}
\@writefile{toc}{\contentsline {subsection}{\numberline {33.3}Yokutsan}{306}{subsection.33.3}}
\@writefile{toc}{\contentsline {subsubsection}{\numberline {33.3.1}Proto-Yokuts to General Yokuts}{306}{subsubsection.33.3.1}}
\@writefile{toc}{\contentsline {paragraph}{\numberline {33.3.1.1}General Yokuts to Buena Vista Yokuts}{306}{paragraph.33.3.1.1}}
\@writefile{toc}{\contentsline {paragraph}{\numberline {33.3.1.2}Buena Vista Yokuts to Hometwoli}{307}{paragraph.33.3.1.2}}
\@writefile{toc}{\contentsline {paragraph}{\numberline {33.3.1.3}Buena Vista Yokuts to Tulamni}{307}{paragraph.33.3.1.3}}
\@writefile{toc}{\contentsline {subsubsection}{\numberline {33.3.2}Buena Vista Yokuts to Proto-Nim-Yokuts}{307}{subsubsection.33.3.2}}
\@writefile{toc}{\contentsline {paragraph}{\numberline {33.3.2.1}Proto-Nim-Yokuts to Proto-Tule-Kaweah}{307}{paragraph.33.3.2.1}}
\@writefile{toc}{\contentsline {subparagraph}{\numberline {33.3.2.1.1}Proto-Tule-Kaweah to Wikchamni}{307}{subparagraph.33.3.2.1.1}}
\@writefile{toc}{\contentsline {subparagraph}{\numberline {33.3.2.1.2}Proto-Tule-Kaweah to Yawdanchi}{308}{subparagraph.33.3.2.1.2}}
\@writefile{toc}{\contentsline {paragraph}{\numberline {33.3.2.2}Proto-Nim-Yokuts to Northern Yokuts}{308}{paragraph.33.3.2.2}}
\@writefile{toc}{\contentsline {subparagraph}{\numberline {33.3.2.2.1}Northern Yokuts to Gashowu}{308}{subparagraph.33.3.2.2.1}}
\@writefile{toc}{\contentsline {subparagraph}{\numberline {33.3.2.2.2}Northern Yokuts to Kings Valley Yokuts}{308}{subparagraph.33.3.2.2.2}}
\@writefile{toc}{\contentsline {subparagraph}{\numberline {33.3.2.2.3}Northern Yokuts to Valley Yokuts}{308}{subparagraph.33.3.2.2.3}}
\@writefile{toc}{\contentsline {subparagraph}{\numberline {33.3.2.2.4}Valley Yokuts to Chukchansi}{308}{subparagraph.33.3.2.2.4}}
\@writefile{toc}{\contentsline {subparagraph}{\numberline {33.3.2.2.5}Valley Yokuts to Tachi}{309}{subparagraph.33.3.2.2.5}}
\@writefile{toc}{\contentsline {subparagraph}{\numberline {33.3.2.2.6}Valley Yokuts to Yawelmani}{309}{subparagraph.33.3.2.2.6}}
\@writefile{toc}{\contentsline {subsubsection}{\numberline {33.3.3}Proto-Yokuts to Palewyami}{309}{subsubsection.33.3.3}}
\@writefile{toc}{\contentsline {section}{\numberline {34}Quechumaran}{310}{section.34}}
\@writefile{toc}{\contentsline {subsection}{\numberline {34.1}Proto-Quechumaran to Ayachuco}{310}{subsection.34.1}}
\@writefile{toc}{\contentsline {subsection}{\numberline {34.2}Proto-Quechumaran to Bolivia}{310}{subsection.34.2}}
\@writefile{toc}{\contentsline {subsection}{\numberline {34.3}Proto-Quechumaran to Cuzco}{311}{subsection.34.3}}
\@writefile{toc}{\contentsline {subsection}{\numberline {34.4}Proto-Quechumaran to Huar\'{a}s}{312}{subsection.34.4}}
\@writefile{toc}{\contentsline {subsection}{\numberline {34.5}Proto-Quechumaran to Putamayo}{312}{subsection.34.5}}
\@writefile{toc}{\contentsline {subsection}{\numberline {34.6}Proto-Quechumaran to Quito}{313}{subsection.34.6}}
\@writefile{toc}{\contentsline {subsection}{\numberline {34.7}Proto-Quechumaran to Riobamba}{313}{subsection.34.7}}
\@writefile{toc}{\contentsline {subsection}{\numberline {34.8}Proto-Quechumaran to Santiago}{314}{subsection.34.8}}
\@writefile{toc}{\contentsline {subsection}{\numberline {34.9}Proto-Quechumaran to Tena}{315}{subsection.34.9}}
\@writefile{toc}{\contentsline {section}{\numberline {35}Salishan}{316}{section.35}}
\@writefile{toc}{\contentsline {subsection}{\numberline {35.1}Central Salish}{316}{subsection.35.1}}
\@writefile{toc}{\contentsline {subsubsection}{\numberline {35.1.1}Proto-Central Salish to Comox}{316}{subsubsection.35.1.1}}
\@writefile{toc}{\contentsline {subsubsection}{\numberline {35.1.2}Proto-Central Salish to Chilliwack Halkomelem}{317}{subsubsection.35.1.2}}
\@writefile{toc}{\contentsline {subsubsection}{\numberline {35.1.3}Proto-Central Salish to Cowichan Halkomelem}{318}{subsubsection.35.1.3}}
\@writefile{toc}{\contentsline {subsubsection}{\numberline {35.1.4}Proto-Central Salish to Musqueam Halkomelem}{318}{subsubsection.35.1.4}}
\@writefile{toc}{\contentsline {subsubsection}{\numberline {35.1.5}Proto-Central Salish to Klallam}{319}{subsubsection.35.1.5}}
\@writefile{toc}{\contentsline {subsubsection}{\numberline {35.1.6}Proto-Central Salish to Lushootseed}{319}{subsubsection.35.1.6}}
\@writefile{toc}{\contentsline {subsubsection}{\numberline {35.1.7}Proto-Central Salish to Nooksack}{320}{subsubsection.35.1.7}}
\@writefile{toc}{\contentsline {subsubsection}{\numberline {35.1.8}Proto-Central Salish to Lummi Northern Straits}{321}{subsubsection.35.1.8}}
\@writefile{toc}{\contentsline {subsubsection}{\numberline {35.1.9}Proto-Central Salish to Saanich Northern Straits}{321}{subsubsection.35.1.9}}
\@writefile{toc}{\contentsline {subsubsection}{\numberline {35.1.10}Proto-Central Salish to Songish Northern Straits}{322}{subsubsection.35.1.10}}
\@writefile{toc}{\contentsline {subsubsection}{\numberline {35.1.11}Proto-Central Salish to Sooke Northern Straits}{323}{subsubsection.35.1.11}}
\@writefile{toc}{\contentsline {subsubsection}{\numberline {35.1.12}Proto-Central Salish to Pentlatch}{323}{subsubsection.35.1.12}}
\@writefile{toc}{\contentsline {subsubsection}{\numberline {35.1.13}Proto-Central Salish to Sechelt}{324}{subsubsection.35.1.13}}
\@writefile{toc}{\contentsline {subsubsection}{\numberline {35.1.14}Proto-Central Salish to Sqamish}{324}{subsubsection.35.1.14}}
\@writefile{toc}{\contentsline {subsubsection}{\numberline {35.1.15}Proto-Central Salish to Twana}{325}{subsubsection.35.1.15}}
\@writefile{toc}{\contentsline {subsection}{\numberline {35.2}Interior Salish}{325}{subsection.35.2}}
\@writefile{toc}{\contentsline {subsubsection}{\numberline {35.2.1}Proto-Interior Salish to Columbian and Okanagan Nasal-to-Vowel Shifts}{325}{subsubsection.35.2.1}}
\@writefile{toc}{\contentsline {subsubsection}{\numberline {35.2.2}Proto-Interior Salish to Thompson Nasal-to-Vowel Shifts}{326}{subsubsection.35.2.2}}
\@writefile{toc}{\contentsline {subsection}{\numberline {35.3}Shuswap to Eastern Shuswap Nasal-to-Vowel Shifts}{326}{subsection.35.3}}
\@writefile{toc}{\contentsline {subsection}{\numberline {35.4}Shuswap to Spokane-Kalispel Shuswap Nasal-to-Vowel Shifts}{326}{subsection.35.4}}
\@writefile{toc}{\contentsline {section}{\numberline {36}Sino-Tibetan}{327}{section.36}}
\@writefile{toc}{\contentsline {subsection}{\numberline {36.1}Proto-Sino-Tibetan to Middle Chinese}{327}{subsection.36.1}}
\@writefile{toc}{\contentsline {subsubsection}{\numberline {36.1.1}Late Middle Chinese to Old Mandarin}{327}{subsubsection.36.1.1}}
\@writefile{toc}{\contentsline {paragraph}{\numberline {36.1.1.1}Old Mandarin to Modern Pekingese}{329}{paragraph.36.1.1.1}}
\@writefile{toc}{\contentsline {subsection}{\numberline {36.2}Sin Sukchu to Gu\={a}nhu\`{a}}{329}{subsection.36.2}}
\@writefile{toc}{\contentsline {subsection}{\numberline {36.3}Tibeto-Burman}{331}{subsection.36.3}}
\@writefile{toc}{\contentsline {subsubsection}{\numberline {36.3.1}Qiangic}{331}{subsubsection.36.3.1}}
\@writefile{toc}{\contentsline {paragraph}{\numberline {36.3.1.1}Proto-Naish to Laze}{331}{paragraph.36.3.1.1}}
\@writefile{toc}{\contentsline {paragraph}{\numberline {36.3.1.2}Proto-Naish to Mosuo (Na)}{332}{paragraph.36.3.1.2}}
\@writefile{toc}{\contentsline {paragraph}{\numberline {36.3.1.3}Proto-Naish to Naxi}{333}{paragraph.36.3.1.3}}
\@writefile{toc}{\contentsline {subsubsection}{\numberline {36.3.2}rGyalrongic}{333}{subsubsection.36.3.2}}
\@writefile{toc}{\contentsline {paragraph}{\numberline {36.3.2.1}Proto-rGyalrongic to bTshan La}{333}{paragraph.36.3.2.1}}
\@writefile{toc}{\contentsline {subparagraph}{\numberline {36.3.2.1.1}Proto-rGyalrongic to Chos Kia}{334}{subparagraph.36.3.2.1.1}}
\@writefile{toc}{\contentsline {subparagraph}{\numberline {36.3.2.1.2}Proto-rGyalrongic to Hanniu}{335}{subparagraph.36.3.2.1.2}}
\@writefile{toc}{\contentsline {paragraph}{\numberline {36.3.2.2}Proto-rGyalrongic to Japhug}{336}{paragraph.36.3.2.2}}
\@writefile{toc}{\contentsline {subparagraph}{\numberline {36.3.2.2.1}Proto-rGyalrongic to Kham To}{336}{subparagraph.36.3.2.2.1}}
\@writefile{toc}{\contentsline {subparagraph}{\numberline {36.3.2.2.2}Proto-rGyalrongic to lCog Rtse}{337}{subparagraph.36.3.2.2.2}}
\@writefile{toc}{\contentsline {subparagraph}{\numberline {36.3.2.2.3}Proto-rGyalrongic to Pati}{338}{subparagraph.36.3.2.2.3}}
\@writefile{toc}{\contentsline {subparagraph}{\numberline {36.3.2.2.4}Proto-rGyalrongic to Suo Mo}{338}{subparagraph.36.3.2.2.4}}
\@writefile{toc}{\contentsline {subparagraph}{\numberline {36.3.2.2.5}Proto-rGyalrongic to Trung}{339}{subparagraph.36.3.2.2.5}}
\@writefile{toc}{\contentsline {subparagraph}{\numberline {36.3.2.2.6}Proto-rGyalrongic to Tsa Ku Nao}{339}{subparagraph.36.3.2.2.6}}
\@writefile{toc}{\contentsline {subparagraph}{\numberline {36.3.2.2.7}Proto-rGyalrongic to Tzu Ta}{340}{subparagraph.36.3.2.2.7}}
\@writefile{toc}{\contentsline {subparagraph}{\numberline {36.3.2.2.8}Proto-rGyalrongic to Wassu}{341}{subparagraph.36.3.2.2.8}}
\@writefile{toc}{\contentsline {subsubsection}{\numberline {36.3.3}Tibetic}{342}{subsubsection.36.3.3}}
\@writefile{toc}{\contentsline {paragraph}{\numberline {36.3.3.1}Old Tibetan to Amdo dialects}{342}{paragraph.36.3.3.1}}
\@writefile{toc}{\contentsline {section}{\numberline {37}Siouan-Iroquoian}{343}{section.37}}
\@writefile{toc}{\contentsline {subsection}{\numberline {37.1}Proto-Siouan-Iroquoian to Proto-Iroquoian}{343}{subsection.37.1}}
\@writefile{toc}{\contentsline {subsubsection}{\numberline {37.1.1}Proto-Iroquoian to Cherokee}{344}{subsubsection.37.1.1}}
\@writefile{toc}{\contentsline {subsubsection}{\numberline {37.1.2}Proto-Iroquoian to Proto-Northern Iroquoian}{345}{subsubsection.37.1.2}}
\@writefile{toc}{\contentsline {paragraph}{\numberline {37.1.2.1}Proto-Northern Iroquoian to Cayuga}{345}{paragraph.37.1.2.1}}
\@writefile{toc}{\contentsline {subparagraph}{\numberline {37.1.2.1.1}Cayuga to Upper Cayuga}{346}{subparagraph.37.1.2.1.1}}
\@writefile{toc}{\contentsline {subparagraph}{\numberline {37.1.2.1.2}Cayuga to Lower Cayuga}{347}{subparagraph.37.1.2.1.2}}
\@writefile{toc}{\contentsline {paragraph}{\numberline {37.1.2.2}Proto-Northern Iroquoian to Huron}{347}{paragraph.37.1.2.2}}
\@writefile{toc}{\contentsline {subparagraph}{\numberline {37.1.2.2.1}Huron to Wyandot}{348}{subparagraph.37.1.2.2.1}}
\@writefile{toc}{\contentsline {paragraph}{\numberline {37.1.2.3}Proto-Northern Iroquoian to Onondaga}{348}{paragraph.37.1.2.3}}
\@writefile{toc}{\contentsline {paragraph}{\numberline {37.1.2.4}Proto-Northern Iroquoian to Proto-Mohawk-Oneida}{349}{paragraph.37.1.2.4}}
\@writefile{toc}{\contentsline {subparagraph}{\numberline {37.1.2.4.1}Proto-Mohawk-Oneida to Mohawk}{350}{subparagraph.37.1.2.4.1}}
\@writefile{toc}{\contentsline {subparagraph}{\numberline {37.1.2.4.2}Proto-Mohawk-Oneida to Oneida}{350}{subparagraph.37.1.2.4.2}}
\@writefile{toc}{\contentsline {paragraph}{\numberline {37.1.2.5}Proto-Northern Iroquoian to Seneca}{351}{paragraph.37.1.2.5}}
\@writefile{toc}{\contentsline {paragraph}{\numberline {37.1.2.6}Proto-Northern Iroquoian to Tuscarora}{353}{paragraph.37.1.2.6}}
\@writefile{toc}{\contentsline {subparagraph}{\numberline {37.1.2.6.1}Tuscarora to Western Tuscarora}{354}{subparagraph.37.1.2.6.1}}
\@writefile{toc}{\contentsline {subparagraph}{\numberline {37.1.2.6.2}Tuscarora to Eastern Tuscarora}{354}{subparagraph.37.1.2.6.2}}
\@writefile{toc}{\contentsline {subsection}{\numberline {37.2}Proto-Siouan-Iroquoian to Proto-Siouan}{354}{subsection.37.2}}
\@writefile{toc}{\contentsline {subsubsection}{\numberline {37.2.1}Proto-Siouan to Catawba}{354}{subsubsection.37.2.1}}
\@writefile{toc}{\contentsline {subsubsection}{\numberline {37.2.2}Proto-Siouan to Dakota}{355}{subsubsection.37.2.2}}
\@writefile{toc}{\contentsline {paragraph}{\numberline {37.2.2.1}Dakota to Santee Dakota}{356}{paragraph.37.2.2.1}}
\@writefile{toc}{\contentsline {paragraph}{\numberline {37.2.2.2}Dakota to Teton Dakota}{356}{paragraph.37.2.2.2}}
\@writefile{toc}{\contentsline {paragraph}{\numberline {37.2.2.3}Dakota to Yankton Dakota}{356}{paragraph.37.2.2.3}}
\@writefile{toc}{\contentsline {subsubsection}{\numberline {37.2.3}Proto-Siouan to Mandan}{357}{subsubsection.37.2.3}}
\@writefile{toc}{\contentsline {subsubsection}{\numberline {37.2.4}Proto-Siouan to Proto-\v {C}iwere-Winnebago}{357}{subsubsection.37.2.4}}
\@writefile{toc}{\contentsline {paragraph}{\numberline {37.2.4.1}Proto-\v {C}iwere-Winnebago to \v {C}iwere}{358}{paragraph.37.2.4.1}}
\@writefile{toc}{\contentsline {paragraph}{\numberline {37.2.4.2}Proto-\v {C}iwere-Winnebago to Winnebago}{359}{paragraph.37.2.4.2}}
\@writefile{toc}{\contentsline {subsubsection}{\numberline {37.2.5}Proto-Siouan to Proto-Crow-Hidatsa}{359}{subsubsection.37.2.5}}
\@writefile{toc}{\contentsline {paragraph}{\numberline {37.2.5.1}Proto-Crow-Hidatsa to Crow}{360}{paragraph.37.2.5.1}}
\@writefile{toc}{\contentsline {paragraph}{\numberline {37.2.5.2}Proto-Crow-Hidatsa to Hidatsa}{360}{paragraph.37.2.5.2}}
\@writefile{toc}{\contentsline {subsubsection}{\numberline {37.2.6}Proto-Siouan to Proto-Dhegiha}{361}{subsubsection.37.2.6}}
\@writefile{toc}{\contentsline {paragraph}{\numberline {37.2.6.1}Proto-Dhegiha to Kansa}{361}{paragraph.37.2.6.1}}
\@writefile{toc}{\contentsline {paragraph}{\numberline {37.2.6.2}Proto-Dhegiha to Omaha-Ponca}{362}{paragraph.37.2.6.2}}
\@writefile{toc}{\contentsline {paragraph}{\numberline {37.2.6.3}Proto-Dhegiha to Osage}{363}{paragraph.37.2.6.3}}
\@writefile{toc}{\contentsline {paragraph}{\numberline {37.2.6.4}Proto-Dhegiha to Quapaw}{363}{paragraph.37.2.6.4}}
\@writefile{toc}{\contentsline {subsubsection}{\numberline {37.2.7}Proto-Siouan to Proto-Ohio-Valley}{364}{subsubsection.37.2.7}}
\@writefile{toc}{\contentsline {paragraph}{\numberline {37.2.7.1}Proto-Ohio-Valley to Biloxi}{364}{paragraph.37.2.7.1}}
\@writefile{toc}{\contentsline {paragraph}{\numberline {37.2.7.2}Proto-Ohio-Valley to Ofo}{365}{paragraph.37.2.7.2}}
\@writefile{toc}{\contentsline {paragraph}{\numberline {37.2.7.3}Proto-Ohio-Valley to Tutelo}{366}{paragraph.37.2.7.3}}
\@writefile{toc}{\contentsline {section}{\numberline {38}Tai-Kadai}{367}{section.38}}
\@writefile{toc}{\contentsline {subsection}{\numberline {38.1}Kam-Tai}{367}{subsection.38.1}}
\@writefile{toc}{\contentsline {subsubsection}{\numberline {38.1.1}Tai}{367}{subsubsection.38.1.1}}
\@writefile{toc}{\contentsline {paragraph}{\numberline {38.1.1.1}Proto-Tai to Ahom}{367}{paragraph.38.1.1.1}}
\@writefile{toc}{\contentsline {paragraph}{\numberline {38.1.1.2}Proto-Tai to Saek}{367}{paragraph.38.1.1.2}}
\@writefile{toc}{\contentsline {paragraph}{\numberline {38.1.1.3}Proto-Tai to Central Tai}{368}{paragraph.38.1.1.3}}
\@writefile{toc}{\contentsline {subparagraph}{\numberline {38.1.1.3.1}Central Tai to Lungchow}{368}{subparagraph.38.1.1.3.1}}
\@writefile{toc}{\contentsline {subparagraph}{\numberline {38.1.1.3.2}Central Tai to Nung}{369}{subparagraph.38.1.1.3.2}}
\@writefile{toc}{\contentsline {subparagraph}{\numberline {38.1.1.3.3}Central Tai to Tay}{369}{subparagraph.38.1.1.3.3}}
\@writefile{toc}{\contentsline {subparagraph}{\numberline {38.1.1.3.4}Central Tai to Tho}{370}{subparagraph.38.1.1.3.4}}
\@writefile{toc}{\contentsline {subparagraph}{\numberline {38.1.1.3.5}Central Tai to T'ien-Pao}{370}{subparagraph.38.1.1.3.5}}
\@writefile{toc}{\contentsline {paragraph}{\numberline {38.1.1.4}Proto-Tai to North Tai}{370}{paragraph.38.1.1.4}}
\@writefile{toc}{\contentsline {subparagraph}{\numberline {38.1.1.4.1}North Tai to Dioi}{371}{subparagraph.38.1.1.4.1}}
\@writefile{toc}{\contentsline {subparagraph}{\numberline {38.1.1.4.2}North Tai to Po-Ai}{371}{subparagraph.38.1.1.4.2}}
\@writefile{toc}{\contentsline {subparagraph}{\numberline {38.1.1.4.3}North Tai to Wu-Ming}{372}{subparagraph.38.1.1.4.3}}
\@writefile{toc}{\contentsline {paragraph}{\numberline {38.1.1.5}Proto-Tai to Southwest Tai}{372}{paragraph.38.1.1.5}}
\@writefile{toc}{\contentsline {subparagraph}{\numberline {38.1.1.5.1}Southwest Tai to Lao}{373}{subparagraph.38.1.1.5.1}}
\@writefile{toc}{\contentsline {subparagraph}{\numberline {38.1.1.5.2}Southwest Tai to L\"{u}}{373}{subparagraph.38.1.1.5.2}}
\@writefile{toc}{\contentsline {subparagraph}{\numberline {38.1.1.5.3}Southwest Tai to Shan}{374}{subparagraph.38.1.1.5.3}}
\@writefile{toc}{\contentsline {subparagraph}{\numberline {38.1.1.5.4}Southwest Tai to Siamese}{374}{subparagraph.38.1.1.5.4}}
\@writefile{toc}{\contentsline {subparagraph}{\numberline {38.1.1.5.5}Southwest Tai to Black Tai}{375}{subparagraph.38.1.1.5.5}}
\@writefile{toc}{\contentsline {subparagraph}{\numberline {38.1.1.5.6}Southwest Tai to White Tai}{375}{subparagraph.38.1.1.5.6}}
\@writefile{toc}{\contentsline {section}{\numberline {39}Tanoan}{375}{section.39}}
\@writefile{toc}{\contentsline {subsection}{\numberline {39.1}Proto-Tanoan to Jimez}{376}{subsection.39.1}}
\@writefile{toc}{\contentsline {subsection}{\numberline {39.2}Proto-Tanoan to Kiowa}{376}{subsection.39.2}}
\@writefile{toc}{\contentsline {subsection}{\numberline {39.3}Proto-Tanoan to Taos}{377}{subsection.39.3}}
\@writefile{toc}{\contentsline {subsection}{\numberline {39.4}Proto-Tanoan to Tewa}{377}{subsection.39.4}}
\@writefile{toc}{\contentsline {section}{\numberline {40}Totozoquean}{378}{section.40}}
\@writefile{toc}{\contentsline {subsection}{\numberline {40.1}Proto-Totozoquean to Proto-Mixe-Zoquean}{378}{subsection.40.1}}
\@writefile{toc}{\contentsline {subsection}{\numberline {40.2}Proto-Totozoquean to Proto-Totonacan}{379}{subsection.40.2}}
\@writefile{toc}{\contentsline {section}{\numberline {41}Trans-New Guinea}{380}{section.41}}
\@writefile{toc}{\contentsline {subsection}{\numberline {41.1}Proto-Trans New Guinea to Apalɨ}{380}{subsection.41.1}}
\@writefile{toc}{\contentsline {subsection}{\numberline {41.2}Proto-Trans New Guinea to Asmat}{380}{subsection.41.2}}
\@writefile{toc}{\contentsline {subsection}{\numberline {41.3}Proto-Trans New Guinea to Binandere}{381}{subsection.41.3}}
\@writefile{toc}{\contentsline {subsection}{\numberline {41.4}Proto-Trans New Guinea to Kaeti}{381}{subsection.41.4}}
\@writefile{toc}{\contentsline {subsection}{\numberline {41.5}Kainantu-Goroka}{381}{subsection.41.5}}
\@writefile{toc}{\contentsline {subsubsection}{\numberline {41.5.1}Gorokan}{381}{subsubsection.41.5.1}}
\@writefile{toc}{\contentsline {paragraph}{\numberline {41.5.1.1}Proto-Gorokan to Asaro}{381}{paragraph.41.5.1.1}}
\@writefile{toc}{\contentsline {paragraph}{\numberline {41.5.1.2}Proto-Gorokan to North Fore}{382}{paragraph.41.5.1.2}}
\@writefile{toc}{\contentsline {paragraph}{\numberline {41.5.1.3}Proto-Gorokan to South Fore}{382}{paragraph.41.5.1.3}}
\@writefile{toc}{\contentsline {paragraph}{\numberline {41.5.1.4}Proto-Gorokan to Gende}{382}{paragraph.41.5.1.4}}
\@writefile{toc}{\contentsline {paragraph}{\numberline {41.5.1.5}Proto-Gorokan to Gimi}{383}{paragraph.41.5.1.5}}
\@writefile{toc}{\contentsline {paragraph}{\numberline {41.5.1.6}Proto-Gorokan to Hua}{383}{paragraph.41.5.1.6}}
\@writefile{toc}{\contentsline {paragraph}{\numberline {41.5.1.7}Proto-Gorokan to Kamano}{383}{paragraph.41.5.1.7}}
\@writefile{toc}{\contentsline {paragraph}{\numberline {41.5.1.8}Proto-Gorokan to Move}{384}{paragraph.41.5.1.8}}
\@writefile{toc}{\contentsline {paragraph}{\numberline {41.5.1.9}Proto-Gorokan to Siane}{384}{paragraph.41.5.1.9}}
\@writefile{toc}{\contentsline {paragraph}{\numberline {41.5.1.10}Proto-Gorokan to Yagaria}{384}{paragraph.41.5.1.10}}
\@writefile{toc}{\contentsline {subsubsection}{\numberline {41.5.2}Kainantu}{385}{subsubsection.41.5.2}}
\@writefile{toc}{\contentsline {paragraph}{\numberline {41.5.2.1}Proto-Kainantu to Auyana}{385}{paragraph.41.5.2.1}}
\@writefile{toc}{\contentsline {paragraph}{\numberline {41.5.2.2}Proto-Kainantu to Awa}{385}{paragraph.41.5.2.2}}
\@writefile{toc}{\contentsline {paragraph}{\numberline {41.5.2.3}Proto-Kainantu to Gadsup}{385}{paragraph.41.5.2.3}}
\@writefile{toc}{\contentsline {paragraph}{\numberline {41.5.2.4}Proto-Kainantu to Usarufa}{386}{paragraph.41.5.2.4}}
\@writefile{toc}{\contentsline {subsection}{\numberline {41.6}Proto-Trans New Guinea to Kalam}{386}{subsection.41.6}}
\@writefile{toc}{\contentsline {subsection}{\numberline {41.7}Proto-Trans New Guinea to K\^{a}te}{386}{subsection.41.7}}
\@writefile{toc}{\contentsline {subsection}{\numberline {41.8}Proto-Trans New Guinea to Kiwai}{387}{subsection.41.8}}
\@writefile{toc}{\contentsline {subsection}{\numberline {41.9}Proto-Trans New Guinea to Selepet}{387}{subsection.41.9}}
\@writefile{toc}{\contentsline {subsection}{\numberline {41.10}Proto-Trans New Guinea to Telefol}{387}{subsection.41.10}}
\@writefile{toc}{\contentsline {subsection}{\numberline {41.11}Proto-Trans New Guinea to Middle Wahgi}{388}{subsection.41.11}}
\@writefile{toc}{\contentsline {section}{\numberline {42}Uralic}{389}{section.42}}
\@writefile{toc}{\contentsline {subsection}{\numberline {42.1}Proto-Uralic to Pre-Finnic}{390}{subsection.42.1}}
\@writefile{toc}{\contentsline {subsubsection}{\numberline {42.1.1}Pre-Finnic to Proto-Finnic}{390}{subsubsection.42.1.1}}
\@writefile{toc}{\contentsline {paragraph}{\numberline {42.1.1.1}Proto-Finnic to Proto-Finnish}{391}{paragraph.42.1.1.1}}
\@writefile{toc}{\contentsline {subparagraph}{\numberline {42.1.1.1.1}Proto-Finnish to Standard Finnish}{392}{subparagraph.42.1.1.1.1}}
\@writefile{toc}{\contentsline {subparagraph}{\numberline {42.1.1.1.2}Standard Finnish to Modern Standard Finnish}{393}{subparagraph.42.1.1.1.2}}
\@writefile{toc}{\contentsline {subsubsection}{\numberline {42.1.2}Proto-Finnic to Livonian}{394}{subsubsection.42.1.2}}
\@writefile{toc}{\contentsline {section}{\numberline {43}Uto-Aztecan}{396}{section.43}}
\@writefile{toc}{\contentsline {subsection}{\numberline {43.1}Proto-Uto-Aztecan to Comanche}{396}{subsection.43.1}}
\@writefile{toc}{\contentsline {subsection}{\numberline {43.2}Proto-Uto-Aztecan to Hopi}{397}{subsection.43.2}}
\@writefile{toc}{\contentsline {subsection}{\numberline {43.3}Proto-Uto-Aztecan to Luise\~{n}o}{397}{subsection.43.3}}
\@writefile{toc}{\contentsline {subsection}{\numberline {43.4}Proto-Uto-Aztecan to Nahuatl}{398}{subsection.43.4}}
\@writefile{toc}{\contentsline {subsection}{\numberline {43.5}Numic}{398}{subsection.43.5}}
\@writefile{toc}{\contentsline {subsubsection}{\numberline {43.5.1}Mono-Kawaiisu}{398}{subsubsection.43.5.1}}
\@writefile{toc}{\contentsline {paragraph}{\numberline {43.5.1.1}Proto-Mono-Kawaiisu to Kawaiisu}{398}{paragraph.43.5.1.1}}
\@writefile{toc}{\contentsline {paragraph}{\numberline {43.5.1.2}Proto-Mono-Kawaiisu to Mono}{399}{paragraph.43.5.1.2}}
\@writefile{toc}{\contentsline {subsection}{\numberline {43.6}Proto-Uto-Aztecan to Tohono O'odham}{399}{subsection.43.6}}
\@writefile{toc}{\contentsline {section}{\numberline {44}Vasconic}{400}{section.44}}
\@writefile{toc}{\contentsline {subsection}{\numberline {44.1}Proto-Vasconic to Aquitanian}{400}{subsection.44.1}}
\@writefile{toc}{\contentsline {subsection}{\numberline {44.2}Proto-Basque to Basque}{401}{subsection.44.2}}
\@writefile{toc}{\contentsline {section}{\numberline {45}Yuman-Cochim\'{\i }}{406}{section.45}}
\@writefile{toc}{\contentsline {subsection}{\numberline {45.1}Pai}{406}{subsection.45.1}}
\@writefile{toc}{\contentsline {subsubsection}{\numberline {45.1.1}Proto-Pai to Chapai}{406}{subsubsection.45.1.1}}
\@writefile{toc}{\contentsline {subsubsection}{\numberline {45.1.2}Proto-Pai to Paipai}{406}{subsubsection.45.1.2}}
\@writefile{toc}{\contentsline {subsubsection}{\numberline {45.1.3}Proto-Pai to Tipai}{406}{subsubsection.45.1.3}}
\@writefile{toc}{\contentsline {section}{\numberline {46}Vowel Shifts}{408}{section.46}}
\@writefile{toc}{\contentsline {subsection}{\numberline {46.1}7-to-5 Vowel Merger (Bantu)}{408}{subsection.46.1}}
\@writefile{toc}{\contentsline {subsection}{\numberline {46.2}California Vowel Shift (English)}{408}{subsection.46.2}}
\@writefile{toc}{\contentsline {subsection}{\numberline {46.3}Belgian and Netherlandish Dutch Monophthongization}{408}{subsection.46.3}}
\@writefile{toc}{\contentsline {subsection}{\numberline {46.4}Polder Dutch Vowel Shift}{409}{subsection.46.4}}
\@writefile{toc}{\contentsline {subsection}{\numberline {46.5}Old English-to-Scots Vowel Shifts}{409}{subsection.46.5}}
\@writefile{toc}{\contentsline {subsection}{\numberline {46.6}Great Ngamo Tone Shift}{409}{subsection.46.6}}
\@writefile{toc}{\contentsline {subsection}{\numberline {46.7}Great Vowel Shift (English)}{410}{subsection.46.7}}
\@writefile{toc}{\contentsline {subsection}{\numberline {46.8}Greek Vowel Shift}{410}{subsection.46.8}}
\@writefile{toc}{\contentsline {subsection}{\numberline {46.9}Kikuyu Tone Shift}{410}{subsection.46.9}}
\@writefile{toc}{\contentsline {subsection}{\numberline {46.10}Late Proto-Finnic to Savonian Vowel Shift}{411}{subsection.46.10}}
\@writefile{toc}{\contentsline {subsection}{\numberline {46.11}Middle Chinese to Cantonese Vowel Shift (``The Inner-Outer Flip'')}{411}{subsection.46.11}}
\@writefile{toc}{\contentsline {subsection}{\numberline {46.12}Northern Cities Vowel Shift (English)}{412}{subsection.46.12}}
\@writefile{toc}{\contentsline {subsection}{\numberline {46.13}Old Norse to Faroese Vowel Shift}{412}{subsection.46.13}}
\@writefile{toc}{\contentsline {subsection}{\numberline {46.14}Pre-Slavic Vowel Changes}{412}{subsection.46.14}}
\@writefile{toc}{\contentsline {subsection}{\numberline {46.15}Proto-Japanese to Old Japanese Vowel Shift}{413}{subsection.46.15}}
\@writefile{toc}{\contentsline {subsection}{\numberline {46.16}Development of Proto-Lolo-Burmese -i(C)\# and -u(C)\# to Lahu}{413}{subsection.46.16}}
\@writefile{toc}{\contentsline {subsection}{\numberline {46.17}Proto-Maidun to Nisenian Vowel Shift}{413}{subsection.46.17}}
\@writefile{toc}{\contentsline {subsection}{\numberline {46.18}South African Chain Shift (English)}{414}{subsection.46.18}}
\@writefile{toc}{\contentsline {subsection}{\numberline {46.19}Southern [United States] Shift (English)}{414}{subsection.46.19}}
\@writefile{toc}{\contentsline {section}{\numberline {47}Most-Wanted Sound Changes}{415}{section.47}}
\@writefile{toc}{\contentsline {subsection}{\numberline {47.1}List 1: Simple Consonant Changes}{415}{subsection.47.1}}
\@writefile{toc}{\contentsline {subsection}{\numberline {47.2}List 2: Conditional or complex consonant changes}{416}{subsection.47.2}}
\@writefile{toc}{\contentsline {subsection}{\numberline {47.3}List 3: Vowels}{416}{subsection.47.3}}
\@writefile{toc}{\contentsline {subsection}{\numberline {47.4}List 4: Other}{416}{subsection.47.4}}
